{
  "creationDate": "2020-04-03",
  "name": "g_vqa__Risk Reference Lists",
  "macros": [
    {
      "macro": "g/_vqa_RA_RRL_01_open RRL.json",
      "loops": 1
    },
    {
      "macro": "g/_vqa_RA_RRL_02_Create new RRL.json",
      "loops": 1
    },
    {
      "macro": "g/_vqa_RA_RRL_03_Save as RRL.json",
      "loops": 1
    },
    {
      "macro": "g/_vqa_RA_RRL_04_edit and update RRL.json",
      "loops": 1
    },
    {
      "macro": "g/_vqa_RA_RRL_05_Delete just saved RRL.json",
      "loops": 1
    },
    {
      "macro": "g/_vqa_RA_RRL_06_add list values.json",
      "loops": 1
    },
    {
      "macro": "g/_vqa_RA_RRL_07_edit and update list values..json",
      "loops": 1
    },
    {
      "macro": "g/_vqa_RA_RRL_07A_Export txt csv  RRL.json",
      "loops": 1
    },
    {
      "macro": "g/_vqa_RA_RRL_08_delete list values.json",
      "loops": 1
    },
    {
      "macro": "g/_vqa_RA_RRL_09_change score.json",
      "loops": 1
    },
    {
      "macro": "g/_vqa_RA_RRL_10_search by reference_list_description.json",
      "loops": 1
    },
    {
      "macro": "g/_vqa_RA_RRL_11_Delete RRL .json",
      "loops": 1
    }
  ]
}