{
  "creationDate": "2020-04-03",
  "name": "g_vqa__VID Manager",
  "macros": [
    {
      "macro": "g/_vqa_TAM_VM_01_open vidmanager.json",
      "loops": 1
    },
    {
      "macro": "g/_vqa_TAM_VM_02_search by vessel.json",
      "loops": 1
    },
    {
      "macro": "g/_vqa_TAM_VM_03_search by imo.json",
      "loops": 1
    },
    {
      "macro": "g/_vqa_TAM_VM_04_create new vid.json",
      "loops": 1
    },
    {
      "macro": "g/_vqa_TAM_VM_05_search edit and update.json",
      "loops": 1
    },
    {
      "macro": "g/_vqa_TAM_VM_06_search and delete.json",
      "loops": 1
    },
    {
      "macro": "g/_vqa_TAM_VM_07_complete_vm.json",
      "loops": 1
    }
  ]
}