{
  "creationDate": "2020-04-03",
  "name": "g_vqa__Admin Settings",
  "macros": [
    {
      "macro": "g/_vqa_AS_01_Alert.json",
      "loops": 1
    },
    {
      "macro": "g/_vqa_AS_02_Security.json",
      "loops": 1
    },
    {
      "macro": "g/_vqa_AS_03_Miscellaneous.json",
      "loops": 1
    },
    {
      "macro": "g/_vqa_AS_04_EMailD_New.json",
      "loops": 1
    },
    {
      "macro": "g/_vqa_AS_04A_EMailD_update.json",
      "loops": 1
    },
    {
      "macro": "g/_vqa_AS_04B_EMailD_Delete.json",
      "loops": 1
    }
  ]
}