{
  "creationDate": "2020-04-03",
  "name": "g_vqa_AS_Manage Users",
  "macros": [
    {
      "macro": "g/_vqa_A_MU_1_open UM.json",
      "loops": 1
    },
    {
      "macro": "g/_vqa_A_MU_2_create user.json",
      "loops": 1
    },
    {
      "macro": "g/_vqa_A_MU_3_edit and update user.json",
      "loops": 1
    },
    {
      "macro": "g/_vqa_A_MU_4_new user logged in.json",
      "loops": 1
    },
    {
      "macro": "g/_vqa_A_MU_5_active user disable and loggin in.json",
      "loops": 1
    },
    {
      "macro": "g/_vqa_A_MU_6_active user enable and loggin in.json",
      "loops": 1
    },
    {
      "macro": "g/_vqa_A_MU_7_user is locked out.json",
      "loops": 1
    },
    {
      "macro": "g/_vqa_A_MU_8_user unlocked.json",
      "loops": 1
    },
    {
      "macro": "g/_vqa_A_MU_10_change team analysts to admin.json",
      "loops": 1
    },
    {
      "macro": "g/_vqa_A_MU_11_verify last login time.json",
      "loops": 1
    },
    {
      "macro": "g/_vqa_A_MU_12_change role Analyst to admin.json",
      "loops": 1
    },
    {
      "macro": "g/_vqa_A_MU_13_change role admin to Analyst.json",
      "loops": 1
    },
    {
      "macro": "g/_vqa_A_MU_14_localization-date.json",
      "loops": 1
    },
    {
      "macro": "g/_vqa_A_MU_15_localization-time.json",
      "loops": 1
    },
    {
      "macro": "g/_vqa_A_MU_16_localization-Coordinate.json",
      "loops": 1
    },
    {
      "macro": "g/_vqa_A_MU_17_change password.json",
      "loops": 1
    },
    {
      "macro": "g/_vqa_A_MU_18_re login with change password.json",
      "loops": 1
    },
    {
      "macro": "g/_vqa_A_MU_19_delete user..json",
      "loops": 1
    }
  ]
}