{
  "Name": "_vqa_DV_V_07_other history",
  "CreationDate": "2020-4-3",
  "Commands": [
    {
      "Command": "open",
      "Target": "https://10.200.225.14/VSSQA",
      "Value": ""
    },
    {
      "Command": "pause",
      "Target": "1000",
      "Value": ""
    },
    {
      "Command": "type",
      "Target": "//td[2]/input",
      "Value": "QA_11"
    },
    {
      "Command": "type",
      "Target": "//tr[2]/td[2]/input",
      "Value": ".vss@2019"
    },
    {
      "Command": "click",
      "Target": "//tr[4]/td/input",
      "Value": "Log In"
    },
    {
      "Command": "pause",
      "Target": "6000",
      "Value": ""
    },
    {
      "Command": "mouseOver",
      "Target": "xpath=//*[@id=\"menubar\"]/ul/li[2]/a",
      "Value": "Data Viewers"
    },
    {
      "Command": "click",
      "Target": "link=Vessels",
      "Value": "Vessel"
    },
    {
      "Command": "pause",
      "Target": "4000",
      "Value": ""
    },
    {
      "Command": "selectWindow",
      "Target": "TAB=1",
      "Value": ""
    },
    {
      "Command": "verifyText",
      "Target": "//div[@id='Title']/span",
      "Value": "Vessel Data Viewer"
    },
    {
      "Command": "type",
      "Target": "//div[@id='ctl00_ContentPlaceHolder1_UpdatePanel2']/input",
      "Value": "1000540"
    },
    {
      "Command": "pause",
      "Target": "8000",
      "Value": ""
    },
    {
      "Command": "verifyText",
      "Target": "//a[contains(@href, '../Vessels/VesselDetails.aspx?imo=1000540&A_Src=_Vessel_Data_Viewer')]",
      "Value": "1000540"
    },
    {
      "Command": "click",
      "Target": "//a[contains(@href, '../Vessels/VesselDetails.aspx?imo=1000540&A_Src=_Vessel_Data_Viewer')]",
      "Value": "1000540"
    },
    {
      "Command": "pause",
      "Target": "4000",
      "Value": ""
    },
    {
      "Command": "selectWindow",
      "Target": "TAB=2",
      "Value": ""
    },
    {
      "Command": "verifyText",
      "Target": "id=ctl00_ContentPlaceHolder1_VesselNameDataLabel",
      "Value": "ASGARD II"
    },
    {
      "Command": "verifyText",
      "Target": "//div[@id='ctl00_ContentPlaceHolder1_updateInfo']/table/tbody/tr[6]/td/fieldset/legend/span",
      "Value": "Other History"
    },
    {
      "Command": "verifyText",
      "Target": "//a[@id='__tab_ctl00_ContentPlaceHolder1_OtherHistory1_TabContainer1_tpName']/span",
      "Value": "Name History"
    },
    {
      "Command": "click",
      "Target": "//a[@id='__tab_ctl00_ContentPlaceHolder1_OtherHistory1_TabContainer1_tpName']/span",
      "Value": "Name History"
    },
    {
      "Command": "pause",
      "Target": "4000",
      "Value": ""
    },
    {
      "Command": "verifyText",
      "Target": "//table[@id='ctl00_ContentPlaceHolder1_OtherHistory1_TabContainer1_tpName_Names1_grid']/tbody/tr/th",
      "Value": "Vessel Name"
    },
    {
      "Command": "verifyText",
      "Target": "//table[@id='ctl00_ContentPlaceHolder1_OtherHistory1_TabContainer1_tpName_Names1_grid']/tbody/tr/th[2]",
      "Value": "Effective Date"
    },
    {
      "Command": "verifyText",
      "Target": "//a[@id='__tab_ctl00_ContentPlaceHolder1_OtherHistory1_TabContainer1_tpFlag']/span",
      "Value": "Flag History"
    },
    {
      "Command": "click",
      "Target": "//a[@id='__tab_ctl00_ContentPlaceHolder1_OtherHistory1_TabContainer1_tpFlag']/span",
      "Value": "Flag History"
    },
    {
      "Command": "pause",
      "Target": "9000",
      "Value": ""
    },
    {
      "Command": "verifyText",
      "Target": "//table[@id='ctl00_ContentPlaceHolder1_OtherHistory1_TabContainer1_tpFlag_Flags1_grid']/tbody/tr/th",
      "Value": "Flag"
    },
    {
      "Command": "verifyText",
      "Target": "//table[@id='ctl00_ContentPlaceHolder1_OtherHistory1_TabContainer1_tpFlag_Flags1_grid']/tbody/tr/th[2]",
      "Value": "Effective Date"
    },
    {
      "Command": "verifyText",
      "Target": "//a[@id='__tab_ctl00_ContentPlaceHolder1_OtherHistory1_TabContainer1_tpStatusHistory']/span",
      "Value": "Status History"
    },
    {
      "Command": "click",
      "Target": "//a[@id='__tab_ctl00_ContentPlaceHolder1_OtherHistory1_TabContainer1_tpStatusHistory']/span",
      "Value": "Status History"
    },
    {
      "Command": "pause",
      "Target": "4000",
      "Value": ""
    },
    {
      "Command": "verifyText",
      "Target": "//table[@id='ctl00_ContentPlaceHolder1_OtherHistory1_TabContainer1_tpStatusHistory_StatusHistory1_grid']/tbody/tr/th",
      "Value": "Status"
    },
    {
      "Command": "verifyText",
      "Target": "//table[@id='ctl00_ContentPlaceHolder1_OtherHistory1_TabContainer1_tpStatusHistory_StatusHistory1_grid']/tbody/tr/th[2]",
      "Value": "Status Date"
    },
    {
      "Command": "verifyText",
      "Target": "//a[@id='__tab_ctl00_ContentPlaceHolder1_OtherHistory1_TabContainer1_tpTypeHistory']/span",
      "Value": "Vessel Type History"
    },
    {
      "Command": "click",
      "Target": "//a[@id='__tab_ctl00_ContentPlaceHolder1_OtherHistory1_TabContainer1_tpTypeHistory']/span",
      "Value": "Vessel Type History"
    },
    {
      "Command": "pause",
      "Target": "9000",
      "Value": ""
    },
    {
      "Command": "verifyText",
      "Target": "//table[@id='ctl00_ContentPlaceHolder1_OtherHistory1_TabContainer1_tpTypeHistory_TypeHistory1_grid']/tbody/tr/th",
      "Value": "Vessel Type"
    },
    {
      "Command": "verifyText",
      "Target": "//table[@id='ctl00_ContentPlaceHolder1_OtherHistory1_TabContainer1_tpTypeHistory_TypeHistory1_grid']/tbody/tr/th[2]",
      "Value": "Code"
    },
    {
      "Command": "verifyText",
      "Target": "//table[@id='ctl00_ContentPlaceHolder1_OtherHistory1_TabContainer1_tpTypeHistory_TypeHistory1_grid']/tbody/tr/th[3]",
      "Value": "Effective Date"
    },
    {
      "Command": "verifyText",
      "Target": "//a[@id='__tab_ctl00_ContentPlaceHolder1_OtherHistory1_TabContainer1_tpCasualty']/span",
      "Value": "Casualty History"
    },
    {
      "Command": "click",
      "Target": "//a[@id='__tab_ctl00_ContentPlaceHolder1_OtherHistory1_TabContainer1_tpCasualty']/span",
      "Value": "Casualty History"
    },
    {
      "Command": "pause",
      "Target": "8000",
      "Value": ""
    },
    {
      "Command": "verifyText",
      "Target": "//table[@id='ctl00_ContentPlaceHolder1_OtherHistory1_TabContainer1_tpCasualty_CasualtyHistory_CasualtiesGrid']/tbody/tr/th",
      "Value": "Casualty ID"
    },
    {
      "Command": "verifyText",
      "Target": "//table[@id='ctl00_ContentPlaceHolder1_OtherHistory1_TabContainer1_tpCasualty_CasualtyHistory_CasualtiesGrid']/tbody/tr/th[2]",
      "Value": "Incident Date"
    },
    {
      "Command": "verifyText",
      "Target": "//table[@id='ctl00_ContentPlaceHolder1_OtherHistory1_TabContainer1_tpCasualty_CasualtyHistory_CasualtiesGrid']/tbody/tr/th[3]",
      "Value": "Casualty Type"
    },
    {
      "Command": "verifyText",
      "Target": "//table[@id='ctl00_ContentPlaceHolder1_OtherHistory1_TabContainer1_tpCasualty_CasualtyHistory_CasualtiesGrid']/tbody/tr/th[4]",
      "Value": "Severity"
    },
    {
      "Command": "verifyText",
      "Target": "//table[@id='ctl00_ContentPlaceHolder1_OtherHistory1_TabContainer1_tpCasualty_CasualtyHistory_CasualtiesGrid']/tbody/tr/th[5]",
      "Value": "Detail Status"
    },
    {
      "Command": "verifyText",
      "Target": "//table[@id='ctl00_ContentPlaceHolder1_OtherHistory1_TabContainer1_tpCasualty_CasualtyHistory_CasualtiesGrid']/tbody/tr/th[6]",
      "Value": "Zone"
    },
    {
      "Command": "verifyText",
      "Target": "//table[@id='ctl00_ContentPlaceHolder1_OtherHistory1_TabContainer1_tpCasualty_CasualtyHistory_CasualtiesGrid']/tbody/tr/th[7]",
      "Value": "Location Type"
    },
    {
      "Command": "verifyText",
      "Target": "//table[@id='ctl00_ContentPlaceHolder1_OtherHistory1_TabContainer1_tpCasualty_CasualtyHistory_CasualtiesGrid']/tbody/tr/th[8]",
      "Value": "Removal From Scene"
    },
    {
      "Command": "verifyText",
      "Target": "//table[@id='ctl00_ContentPlaceHolder1_OtherHistory1_TabContainer1_tpCasualty_CasualtyHistory_CasualtiesGrid']/tbody/tr/th[9]",
      "Value": "Weather"
    },
    {
      "Command": "verifyText",
      "Target": "//table[@id='ctl00_ContentPlaceHolder1_OtherHistory1_TabContainer1_tpCasualty_CasualtyHistory_CasualtiesGrid']/tbody/tr/th[10]",
      "Value": "Pollution"
    },
    {
      "Command": "verifyText",
      "Target": "//table[@id='ctl00_ContentPlaceHolder1_OtherHistory1_TabContainer1_tpCasualty_CasualtyHistory_CasualtiesGrid']/tbody/tr/th[11]",
      "Value": "Owner"
    },
    {
      "Command": "verifyText",
      "Target": "//a[@id='__tab_ctl00_ContentPlaceHolder1_OtherHistory1_TabContainer1_tpClass']/span",
      "Value": "Class Society"
    },
    {
      "Command": "click",
      "Target": "//a[@id='__tab_ctl00_ContentPlaceHolder1_OtherHistory1_TabContainer1_tpClass']/span",
      "Value": "Class Society"
    },
    {
      "Command": "pause",
      "Target": "5000",
      "Value": ""
    },
    {
      "Command": "verifyText",
      "Target": "//table[@id='ctl00_ContentPlaceHolder1_OtherHistory1_TabContainer1_tpClass_ClassHistory1_grid']/tbody/tr/th",
      "Value": "Class Society"
    },
    {
      "Command": "verifyText",
      "Target": "//table[@id='ctl00_ContentPlaceHolder1_OtherHistory1_TabContainer1_tpClass_ClassHistory1_grid']/tbody/tr/th[2]",
      "Value": "Class Indicator"
    },
    {
      "Command": "verifyText",
      "Target": "//table[@id='ctl00_ContentPlaceHolder1_OtherHistory1_TabContainer1_tpClass_ClassHistory1_grid']/tbody/tr/th[3]",
      "Value": "Class Code"
    },
    {
      "Command": "verifyText",
      "Target": "//table[@id='ctl00_ContentPlaceHolder1_OtherHistory1_TabContainer1_tpClass_ClassHistory1_grid']/tbody/tr/th[4]",
      "Value": "Class ID"
    },
    {
      "Command": "verifyText",
      "Target": "//table[@id='ctl00_ContentPlaceHolder1_OtherHistory1_TabContainer1_tpClass_ClassHistory1_grid']/tbody/tr/th[5]",
      "Value": "Current Indicator"
    },
    {
      "Command": "verifyText",
      "Target": "//table[@id='ctl00_ContentPlaceHolder1_OtherHistory1_TabContainer1_tpClass_ClassHistory1_grid']/tbody/tr/th[6]",
      "Value": "Effective Date"
    },
    {
      "Command": "verifyText",
      "Target": "//a[@id='__tab_ctl00_ContentPlaceHolder1_OtherHistory1_TabContainer1_tpPartyHistory']/span",
      "Value": "Entity History"
    },
    {
      "Command": "click",
      "Target": "//a[@id='__tab_ctl00_ContentPlaceHolder1_OtherHistory1_TabContainer1_tpPartyHistory']/span",
      "Value": "Entity History"
    },
    {
      "Command": "pause",
      "Target": "5000",
      "Value": ""
    },
    {
      "Command": "verifyText",
      "Target": "//a[contains(@href, \"javascript:__doPostBack('ctl00$ContentPlaceHolder1$OtherHistory1$TabContainer1$tpPartyHistory$PartyHistory1$grid','Sort$VPartyId')\")]",
      "Value": "IMO Company Number"
    },
    {
      "Command": "verifyText",
      "Target": "//a[contains(@href, 'javascript:WebForm_DoPostBackWithOptions(new WebForm_PostBackOptions(\"ctl00$ContentPlaceHolder1$OtherHistory1$TabContainer1$tpPartyHistory$PartyHistory1$grid$ctl01$LinkButton2\", \"\", true, \"\", \"\", false, true))')]",
      "Value": "Entity Type"
    },
    {
      "Command": "verifyElementPresent",
      "Target": "//*[@id=\"ctl00_ContentPlaceHolder1_OtherHistory1_TabContainer1_tpPartyHistory_PartyHistory1_grid\"]/tbody/tr[1]/th[2]/table/tbody/tr/td[2]/input",
      "Value": "Help"
    },
    {
      "Command": "verifyText",
      "Target": "//a[contains(@href, \"javascript:__doPostBack('ctl00$ContentPlaceHolder1$OtherHistory1$TabContainer1$tpPartyHistory$PartyHistory1$grid','Sort$PartyName')\")]",
      "Value": "Entity"
    },
    {
      "Command": "verifyText",
      "Target": "//a[contains(@href, \"javascript:__doPostBack('ctl00$ContentPlaceHolder1$OtherHistory1$TabContainer1$tpPartyHistory$PartyHistory1$grid','Sort$EffectiveDate')\")]",
      "Value": "Effective Date"
    },
    {
      "Command": "verifyText",
      "Target": "css=#__tab_ctl00_ContentPlaceHolder1_OtherHistory1_TabContainer1_tpLPOC10 > span",
      "Value": "Last 10 Ports of Call"
    },
    {
      "Command": "verifyText",
      "Target": "css=#__tab_ctl00_ContentPlaceHolder1_OtherHistory1_TabContainer1_tpSale > span",
      "Value": "Sale History"
    },
    {
      "Command": "click",
      "Target": "css=#__tab_ctl00_ContentPlaceHolder1_OtherHistory1_TabContainer1_tpSale > span",
      "Value": ""
    },
    {
      "Command": "pause",
      "Target": "5000",
      "Value": ""
    },
    {
      "Command": "verifyText",
      "Target": "xpath=//*[@id=\"ctl00_ContentPlaceHolder1_OtherHistory1_TabContainer1_tpSale_SaleHistory1_grid\"]/tbody/tr[1]/th[1]",
      "Value": " Sold To"
    },
    {
      "Command": "verifyText",
      "Target": "xpath=//*[@id=\"ctl00_ContentPlaceHolder1_OtherHistory1_TabContainer1_tpSale_SaleHistory1_grid\"]/tbody/tr[1]/th[2]",
      "Value": "Type"
    },
    {
      "Command": "verifyText",
      "Target": "xpath=//*[@id=\"ctl00_ContentPlaceHolder1_OtherHistory1_TabContainer1_tpSale_SaleHistory1_grid\"]/tbody/tr[1]/th[3]",
      "Value": "Sale Price (USD)\t"
    },
    {
      "Command": "verifyText",
      "Target": "xpath=//*[@id=\"ctl00_ContentPlaceHolder1_OtherHistory1_TabContainer1_tpSale_SaleHistory1_grid\"]/tbody/tr[1]/th[4]",
      "Value": "Sale Date"
    },
    {
      "Command": "comment",
      "Target": "xpath=//*[@id=\"__tab_ctl00_ContentPlaceHolder1_OtherHistory1_TabContainer1_tpCallSignMMSIHistory\"]/span",
      "Value": "Call Sign and MMSI History"
    },
    {
      "Command": "comment",
      "Target": "xpath=//*[@id=\"__tab_ctl00_ContentPlaceHolder1_OtherHistory1_TabContainer1_tpCallSignMMSIHistory\"]/span",
      "Value": "Call Sign and MMSI History"
    },
    {
      "Command": "pause",
      "Target": "5000",
      "Value": ""
    },
    {
      "Command": "comment",
      "Target": "xpath=//*[@id=\"ctl00_ContentPlaceHolder1_OtherHistory1_TabContainer1_tpCallSignMMSIHistory_CallSignMMSI_grid\"]/tbody/tr[1]/th[1]",
      "Value": "Call Sign"
    },
    {
      "Command": "comment",
      "Target": "xpath=//*[@id=\"ctl00_ContentPlaceHolder1_OtherHistory1_TabContainer1_tpCallSignMMSIHistory_CallSignMMSI_grid\"]/tbody/tr[1]/th[2]",
      "Value": "MMSI"
    },
    {
      "Command": "comment",
      "Target": "xpath=//*[@id=\"ctl00_ContentPlaceHolder1_OtherHistory1_TabContainer1_tpCallSignMMSIHistory_CallSignMMSI_grid\"]/tbody/tr[1]/th[3]",
      "Value": "Effective Date"
    },
    {
      "Command": "comment",
      "Target": "xpath=//*[@id=\"__tab_ctl00_ContentPlaceHolder1_OtherHistory1_TabContainer1_DarkActivityPanel\"]/span",
      "Value": "Dark Activity"
    },
    {
      "Command": "comment",
      "Target": "xpath=//*[@id=\"__tab_ctl00_ContentPlaceHolder1_OtherHistory1_TabContainer1_DarkActivityPanel\"]/span",
      "Value": "Dark Activity"
    },
    {
      "Command": "pause",
      "Target": "10000",
      "Value": ""
    },
    {
      "Command": "comment",
      "Target": "xpath=//*[@id=\"ctl00_ContentPlaceHolder1_OtherHistory1_TabContainer1_DarkActivityPanel_DarkActivity1_gvDarkActivity\"]/tbody/tr/td",
      "Value": "No Data Available"
    },
    {
      "Command": "comment",
      "Target": "xpath=//*[@id=\"ctl00_ContentPlaceHolder1_OtherHistory1_TabContainer1_DarkActivityPanel\"]/table/tbody/tr/td",
      "Value": "No Data Available"
    },
    {
      "Command": "comment",
      "Target": "xpath=//*[@id=\"__tab_ctl00_ContentPlaceHolder1_OtherHistory1_TabContainer1_tpVesselAlerts\"]/span",
      "Value": "Alert History"
    },
    {
      "Command": "comment",
      "Target": "xpath=//*[@id=\"__tab_ctl00_ContentPlaceHolder1_OtherHistory1_TabContainer1_tpVesselAlerts\"]/span",
      "Value": "Alert History"
    },
    {
      "Command": "pause",
      "Target": "5000",
      "Value": ""
    },
    {
      "Command": "comment",
      "Target": "xpath=//*[@id=\"ctl00_ContentPlaceHolder1_OtherHistory1_TabContainer1_tpVesselAlerts_VesselAlerts_grid\"]/tbody/tr/td",
      "Value": "No Data Available"
    },
    {
      "Command": "verifyText",
      "Target": "linkText=Port Inspections",
      "Value": "Port Inspections"
    },
    {
      "Command": "click",
      "Target": "linkText=Port Inspections",
      "Value": "Port Inspections"
    },
    {
      "Command": "pause",
      "Target": "2000",
      "Value": ""
    },
    {
      "Command": "verifyText",
      "Target": "xpath=//*[@id=\"ctl00_ContentPlaceHolder1_OtherHistory1_TabContainer1_tpInspections_PortInspections1_grid\"]/tbody/tr[1]/th[1]",
      "Value": "Inspection ID"
    },
    {
      "Command": "verifyText",
      "Target": "xpath=//*[@id=\"ctl00_ContentPlaceHolder1_OtherHistory1_TabContainer1_tpInspections_PortInspections1_grid\"]/tbody/tr[1]/th[2]",
      "Value": "Authorization\t"
    },
    {
      "Command": "verifyText",
      "Target": "xpath=//*[@id=\"ctl00_ContentPlaceHolder1_OtherHistory1_TabContainer1_tpInspections_PortInspections1_grid\"]/tbody/tr[1]/th[3]",
      "Value": "Expanded Inspection"
    },
    {
      "Command": "verifyText",
      "Target": "xpath=//*[@id=\"ctl00_ContentPlaceHolder1_OtherHistory1_TabContainer1_tpInspections_PortInspections1_grid\"]/tbody/tr[1]/th[4]",
      "Value": "Inspection Date"
    },
    {
      "Command": "verifyText",
      "Target": "xpath=//*[@id=\"ctl00_ContentPlaceHolder1_OtherHistory1_TabContainer1_tpInspections_PortInspections1_grid\"]/tbody/tr[1]/th[5]",
      "Value": "Release Date"
    },
    {
      "Command": "verifyText",
      "Target": "xpath=//*[@id=\"ctl00_ContentPlaceHolder1_OtherHistory1_TabContainer1_tpInspections_PortInspections1_grid\"]/tbody/tr[1]/th[6]",
      "Value": "Days Detained"
    },
    {
      "Command": "verifyText",
      "Target": "xpath=//*[@id=\"ctl00_ContentPlaceHolder1_OtherHistory1_TabContainer1_tpInspections_PortInspections1_grid\"]/tbody/tr[1]/th[7]",
      "Value": "Hours Detained"
    },
    {
      "Command": "verifyText",
      "Target": "xpath=//*[@id=\"ctl00_ContentPlaceHolder1_OtherHistory1_TabContainer1_tpInspections_PortInspections1_grid\"]/tbody/tr[1]/th[8]",
      "Value": "\tPort"
    },
    {
      "Command": "verifyText",
      "Target": "xpath=//*[@id=\"ctl00_ContentPlaceHolder1_OtherHistory1_TabContainer1_tpInspections_PortInspections1_grid\"]/tbody/tr[1]/th[9]",
      "Value": "Port Country"
    },
    {
      "Command": "verifyText",
      "Target": "xpath=//*[@id=\"ctl00_ContentPlaceHolder1_OtherHistory1_TabContainer1_tpInspections_PortInspections1_grid\"]/tbody/tr[1]/th[10]",
      "Value": "Cargo"
    },
    {
      "Command": "verifyText",
      "Target": "xpath=//*[@id=\"ctl00_ContentPlaceHolder1_OtherHistory1_TabContainer1_tpInspections_PortInspections1_grid\"]/tbody/tr[1]/th[11]",
      "Value": "Detained"
    },
    {
      "Command": "verifyText",
      "Target": "xpath=//*[@id=\"ctl00_ContentPlaceHolder1_OtherHistory1_TabContainer1_tpInspections_PortInspections1_grid\"]/tbody/tr[1]/th[12]",
      "Value": "Defects"
    },
    {
      "Command": "verifyText",
      "Target": "xpath=//*[@id=\"ctl00_ContentPlaceHolder1_OtherHistory1_TabContainer1_tpInspections_PortInspections1_grid\"]/tbody/tr[1]/th[13]",
      "Value": "Follow Up Inspection"
    },
    {
      "Command": "verifyText",
      "Target": "//a[@id='__tab_ctl00_ContentPlaceHolder1_OtherHistory1_TabContainer1_tpVIDReports']/span/span",
      "Value": "VID Reports"
    },
    {
      "Command": "click",
      "Target": "//a[@id='__tab_ctl00_ContentPlaceHolder1_OtherHistory1_TabContainer1_tpVIDReports']/span/span",
      "Value": "VID Reports"
    },
    {
      "Command": "pause",
      "Target": "2000",
      "Value": ""
    },
    {
      "Command": "verifyText",
      "Target": "//a[contains(@href, \"javascript:__doPostBack('ctl00$ContentPlaceHolder1$OtherHistory1$TabContainer1$tpVIDReports$VIDReport1$grid','Sort$PositionDate')\")]",
      "Value": "Position Time"
    },
    {
      "Command": "verifyText",
      "Target": "//a[contains(@href, \"javascript:__doPostBack('ctl00$ContentPlaceHolder1$OtherHistory1$TabContainer1$tpVIDReports$VIDReport1$grid','Sort$Latitude')\")]",
      "Value": "Latitude"
    },
    {
      "Command": "verifyText",
      "Target": "//a[contains(@href, \"javascript:__doPostBack('ctl00$ContentPlaceHolder1$OtherHistory1$TabContainer1$tpVIDReports$VIDReport1$grid','Sort$Longitude')\")]",
      "Value": "Longitude"
    },
    {
      "Command": "verifyText",
      "Target": "//a[contains(@href, \"javascript:__doPostBack('ctl00$ContentPlaceHolder1$OtherHistory1$TabContainer1$tpVIDReports$VIDReport1$grid','Sort$Course')\")]",
      "Value": "Course"
    },
    {
      "Command": "verifyText",
      "Target": "//a[contains(@href, \"javascript:__doPostBack('ctl00$ContentPlaceHolder1$OtherHistory1$TabContainer1$tpVIDReports$VIDReport1$grid','Sort$Speed')\")]",
      "Value": "Speed"
    },
    {
      "Command": "verifyText",
      "Target": "//a[contains(@href, \"javascript:__doPostBack('ctl00$ContentPlaceHolder1$OtherHistory1$TabContainer1$tpVIDReports$VIDReport1$grid','Sort$ReportedOn')\")]",
      "Value": "Reported On"
    },
    {
      "Command": "verifyText",
      "Target": "//a[contains(@href, \"javascript:__doPostBack('ctl00$ContentPlaceHolder1$OtherHistory1$TabContainer1$tpVIDReports$VIDReport1$grid','Sort$ReportedBy')\")]",
      "Value": "Reported By"
    },
    {
      "Command": "verifyText",
      "Target": "//a[contains(@href, 'VIDManager.aspx?IMO=1000540')]",
      "Value": "Manage VID Reports"
    },
    {
      "Command": "click",
      "Target": "//a[contains(@href, 'VIDManager.aspx?IMO=1000540')]",
      "Value": "Manage VID Reports"
    },
    {
      "Command": "pause",
      "Target": "6000",
      "Value": ""
    },
    {
      "Command": "selectWindow",
      "Target": "tab=3",
      "Value": ""
    },
    {
      "Command": "verifyText",
      "Target": "//div[@id='Title']/label",
      "Value": "VID Manager"
    },
    {
      "Command": "click",
      "Target": "//a",
      "Value": ""
    },
    {
      "Command": "pause",
      "Target": "3000",
      "Value": ""
    },
    {
      "Command": "selectWindow",
      "Target": "TAB=CLOSEALLOTHER",
      "Value": ""
    },
    {
      "Command": "refresh",
      "Target": "",
      "Value": ""
    }
  ]
}