{
  "Name": "_vqa_A_MU_7_user is locked out",
  "CreationDate": "2020-4-3",
  "Commands": [
    {
      "Command": "open",
      "Target": "https://10.200.225.14/VSSQA",
      "Value": ""
    },
    {
      "Command": "pause",
      "Target": "1000",
      "Value": ""
    },
    {
      "Command": "type",
      "Target": "//td[2]/input",
      "Value": "00_Script_User_B"
    },
    {
      "Command": "type",
      "Target": "//tr[2]/td[2]/input",
      "Value": "wrong_password_1"
    },
    {
      "Command": "click",
      "Target": "//tr[4]/td/input",
      "Value": "Log In"
    },
    {
      "Command": "pause",
      "Target": "1000",
      "Value": ""
    },
    {
      "Command": "verifyText",
      "Target": "//div[@id='ctl00_ContentPlaceHolder1_MessageBox1_MessageAllignment']/span",
      "Value": "You have entered invalid credentials. Please try again."
    },
    {
      "Command": "click",
      "Target": "//div[@id='ctl00_ContentPlaceHolder1_MessageBox1_MessagePanel']/div/center/div/input",
      "Value": "Ok"
    },
    {
      "Command": "pause",
      "Target": "1000",
      "Value": ""
    },
    {
      "Command": "type",
      "Target": "//div[@id='loginbox']/div/table/tbody/tr[2]/td[2]/input",
      "Value": "wrong_password_2"
    },
    {
      "Command": "click",
      "Target": "//div[@id='loginbox']/div/table/tbody/tr[4]/td/input",
      "Value": "Log In"
    },
    {
      "Command": "pause",
      "Target": "1000",
      "Value": ""
    },
    {
      "Command": "verifyText",
      "Target": "//div[@id='ctl00_ContentPlaceHolder1_MessageBox1_MessageAllignment']/span",
      "Value": "You have entered invalid credentials. Please try again."
    },
    {
      "Command": "click",
      "Target": "//div[@id='ctl00_ContentPlaceHolder1_MessageBox1_MessagePanel']/div/center/div/input",
      "Value": "Ok"
    },
    {
      "Command": "pause",
      "Target": "1000",
      "Value": ""
    },
    {
      "Command": "type",
      "Target": "//div[@id='loginbox']/div/table/tbody/tr[2]/td[2]/input",
      "Value": "wrong_password_3"
    },
    {
      "Command": "click",
      "Target": "//div[@id='loginbox']/div/table/tbody/tr[4]/td/input",
      "Value": "Log In"
    },
    {
      "Command": "pause",
      "Target": "1000",
      "Value": ""
    },
    {
      "Command": "verifyElementPresent",
      "Target": "//*[@id=\"ctl00_ContentPlaceHolder1_MessageBox1_MessagePanel\"]/div/center/table/tbody/tr/td[2]",
      "Value": "You have entered invalid credentials.\\n Please try again.\\nRemaining login attempts: 2"
    },
    {
      "Command": "click",
      "Target": "//div[@id='ctl00_ContentPlaceHolder1_MessageBox1_MessagePanel']/div/center/div/input",
      "Value": "Ok"
    },
    {
      "Command": "pause",
      "Target": "1000",
      "Value": ""
    },
    {
      "Command": "type",
      "Target": "//div[@id='loginbox']/div/table/tbody/tr[2]/td[2]/input",
      "Value": "wrong_password_4"
    },
    {
      "Command": "click",
      "Target": "//div[@id='loginbox']/div/table/tbody/tr[4]/td/input",
      "Value": "Log In"
    },
    {
      "Command": "pause",
      "Target": "1000",
      "Value": ""
    },
    {
      "Command": "verifyElementPresent",
      "Target": "//*[@id=\"ctl00_ContentPlaceHolder1_MessageBox1_MessagePanel\"]/div/center/table/tbody/tr/td[2]",
      "Value": "You have entered invalid credentials. Please try again.\\nRemaining login attempts: 1"
    },
    {
      "Command": "click",
      "Target": "//div[@id='ctl00_ContentPlaceHolder1_MessageBox1_MessagePanel']/div/center/div/input",
      "Value": "Ok"
    },
    {
      "Command": "pause",
      "Target": "1000",
      "Value": ""
    },
    {
      "Command": "type",
      "Target": "//div[@id='loginbox']/div/table/tbody/tr[2]/td[2]/input",
      "Value": "wrong_password_5"
    },
    {
      "Command": "click",
      "Target": "//div[@id='loginbox']/div/table/tbody/tr[4]/td/input",
      "Value": "Log In"
    },
    {
      "Command": "pause",
      "Target": "1000",
      "Value": ""
    },
    {
      "Command": "verifyElementPresent",
      "Target": "//*[@id=\"ctl00_ContentPlaceHolder1_MessageBox1_MessagePanel\"]/div/center/table/tbody/tr/td[2]",
      "Value": "Account locked due to too many un-successful login attempts: 5. \\nPlease contact your System Administrator or use the Forgot Password link to reset your account."
    },
    {
      "Command": "click",
      "Target": "//div[@id='ctl00_ContentPlaceHolder1_MessageBox1_MessagePanel']/div/center/div/input",
      "Value": "Ok"
    },
    {
      "Command": "pause",
      "Target": "1000",
      "Value": ""
    },
    {
      "Command": "type",
      "Target": "//div[@id='loginbox']/div/table/tbody/tr[2]/td[2]/input",
      "Value": "wrong_password_6"
    },
    {
      "Command": "click",
      "Target": "//div[@id='loginbox']/div/table/tbody/tr[4]/td/input",
      "Value": "Log In"
    },
    {
      "Command": "pause",
      "Target": "1000",
      "Value": ""
    },
    {
      "Command": "verifyElementPresent",
      "Target": "//*[@id=\"ctl00_ContentPlaceHolder1_MessageBox1_MessagePanel\"]/div/center/table/tbody/tr/td[2]",
      "Value": "Account locked due to too many un-successful login attempts: 5. \\nPlease contact your System Administrator or use the Forgot Password link to reset your account."
    },
    {
      "Command": "click",
      "Target": "//div[@id='ctl00_ContentPlaceHolder1_MessageBox1_MessagePanel']/div/center/div/input",
      "Value": "Ok"
    }
  ]
}