{
  "Name": "_vqa_VD_14_OH_Casualty history",
  "CreationDate": "2020-4-3",
  "Commands": [
    {
      "Command": "open",
      "Target": "https://10.200.225.14/VSSQA/Vessels/VesselDetails.aspx?imo=1000540&A_Src=_Vessel_Data_Viewer",
      "Value": ""
    },
    {
      "Command": "pause",
      "Target": "1000",
      "Value": ""
    },
    {
      "Command": "type",
      "Target": "//td[2]/input",
      "Value": "QA_11"
    },
    {
      "Command": "type",
      "Target": "//tr[2]/td[2]/input",
      "Value": ".vss@2019"
    },
    {
      "Command": "click",
      "Target": "//tr[4]/td/input",
      "Value": "Log In"
    },
    {
      "Command": "pause",
      "Target": "3000",
      "Value": ""
    },
    {
      "Command": "verifyText",
      "Target": "link=Casualty History",
      "Value": "Casualty History"
    },
    {
      "Command": "click",
      "Target": "xpath=//*[@id=\"__tab_ctl00_ContentPlaceHolder1_OtherHistory1_TabContainer1_tpCasualty\"]/span",
      "Value": "Casualty History"
    },
    {
      "Command": "pause",
      "Target": "3000",
      "Value": ""
    },
    {
      "Command": "verifyText",
      "Target": "xpath=//*[@id=\"ctl00_ContentPlaceHolder1_OtherHistory1_TabContainer1_tpCasualty_CasualtyHistory_CasualtiesGrid\"]/tbody/tr[1]/th[1]",
      "Value": "Casualty ID"
    },
    {
      "Command": "verifyElementPresent",
      "Target": "xpath=//*[@id=\"ctl00_ContentPlaceHolder1_OtherHistory1_TabContainer1_tpCasualty_CasualtyHistory_CasualtiesGrid\"]/tbody/tr[2]/td[1]",
      "Value": "10005409820864"
    },
    {
      "Command": "verifyText",
      "Target": "xpath=//*[@id=\"ctl00_ContentPlaceHolder1_OtherHistory1_TabContainer1_tpCasualty_CasualtyHistory_CasualtiesGrid\"]/tbody/tr[1]/th[2]",
      "Value": "Incident Date"
    },
    {
      "Command": "verifyText",
      "Target": "id=ctl00_ContentPlaceHolder1_OtherHistory1_TabContainer1_tpCasualty_CasualtyHistory_CasualtiesGrid_ctl02_lblDate",
      "Value": "09/11/2008"
    },
    {
      "Command": "verifyText",
      "Target": "xpath=//*[@id=\"ctl00_ContentPlaceHolder1_OtherHistory1_TabContainer1_tpCasualty_CasualtyHistory_CasualtiesGrid\"]/tbody/tr[1]/th[3]",
      "Value": "Casualty Type"
    },
    {
      "Command": "verifyText",
      "Target": "//div[2]/table/tbody/tr[2]/td[3]",
      "Value": "Foundered"
    },
    {
      "Command": "verifyText",
      "Target": "xpath=//*[@id=\"ctl00_ContentPlaceHolder1_OtherHistory1_TabContainer1_tpCasualty_CasualtyHistory_CasualtiesGrid\"]/tbody/tr[1]/th[4]",
      "Value": "Severity"
    },
    {
      "Command": "verifyText",
      "Target": "//div[2]/table/tbody/tr[2]/td[4]",
      "Value": "Serious"
    },
    {
      "Command": "verifyText",
      "Target": "xpath=//*[@id=\"ctl00_ContentPlaceHolder1_OtherHistory1_TabContainer1_tpCasualty_CasualtyHistory_CasualtiesGrid\"]/tbody/tr[1]/th[5]",
      "Value": "Detail Status"
    },
    {
      "Command": "verifyText",
      "Target": "//div[2]/table/tbody/tr[2]/td[5]",
      "Value": "ON VOYAGE"
    },
    {
      "Command": "verifyText",
      "Target": "xpath=//*[@id=\"ctl00_ContentPlaceHolder1_OtherHistory1_TabContainer1_tpCasualty_CasualtyHistory_CasualtiesGrid\"]/tbody/tr[1]/th[6]",
      "Value": "Zone"
    },
    {
      "Command": "verifyText",
      "Target": "//div[2]/table/tbody/tr[2]/td[6]",
      "Value": "Br.Isles, N.Sea,E.Chnl,Biscay"
    },
    {
      "Command": "verifyText",
      "Target": "xpath=//*[@id=\"ctl00_ContentPlaceHolder1_OtherHistory1_TabContainer1_tpCasualty_CasualtyHistory_CasualtiesGrid\"]/tbody/tr[1]/th[7]",
      "Value": "Location Type"
    },
    {
      "Command": "verifyText",
      "Target": "//div[2]/table/tbody/tr[2]/td[7]",
      "Value": "At Sea"
    },
    {
      "Command": "verifyText",
      "Target": "xpath=//*[@id=\"ctl00_ContentPlaceHolder1_OtherHistory1_TabContainer1_tpCasualty_CasualtyHistory_CasualtiesGrid\"]/tbody/tr[1]/th[8]",
      "Value": "Removal From Scene"
    },
    {
      "Command": "verifyText",
      "Target": "//div[2]/table/tbody/tr[2]/td[8]",
      "Value": "Not Removed"
    },
    {
      "Command": "verifyText",
      "Target": "xpath=//*[@id=\"ctl00_ContentPlaceHolder1_OtherHistory1_TabContainer1_tpCasualty_CasualtyHistory_CasualtiesGrid\"]/tbody/tr[1]/th[9]",
      "Value": "Weather"
    },
    {
      "Command": "verifyText",
      "Target": "//td[9]",
      "Value": "Unknown/Not Reported"
    },
    {
      "Command": "verifyText",
      "Target": "//th[10]",
      "Value": "Pollution"
    },
    {
      "Command": "verifyText",
      "Target": "//td[10]",
      "Value": "No"
    },
    {
      "Command": "verifyText",
      "Target": "//th[11]",
      "Value": "Owner"
    },
    {
      "Command": "verifyText",
      "Target": "id=ctl00_ContentPlaceHolder1_OtherHistory1_TabContainer1_tpCasualty_CasualtyHistory_CasualtiesGrid_ctl02_lhLink",
      "Value": "Coiste An Asgard"
    },
    {
      "Command": "click",
      "Target": "id=ctl00_ContentPlaceHolder1_OtherHistory1_TabContainer1_tpCasualty_CasualtyHistory_CasualtiesGrid_ctl02_lhLink",
      "Value": "Coiste An Asgard"
    },
    {
      "Command": "pause",
      "Target": "6000",
      "Value": ""
    },
    {
      "Command": "selectWindow",
      "Target": "tab=1",
      "Value": ""
    },
    {
      "Command": "verifyText",
      "Target": "id=ctl00_ContentPlaceHolder1_lblShortName",
      "Value": "COISTE AN ASGARD"
    },
    {
      "Command": "click",
      "Target": "//a[contains(text(),'Logout')]",
      "Value": ""
    },
    {
      "Command": "pause",
      "Target": "1000",
      "Value": ""
    },
    {
      "Command": "selectWindow",
      "Target": "TAB=CLOSEALLOTHER",
      "Value": ""
    }
  ]
}