{
  "Name": "_vqa_DV_V_08_vessel images documents notes",
  "CreationDate": "2020-4-3",
  "Commands": [
    {
      "Command": "open",
      "Target": "https://10.200.225.14/VSSQA",
      "Value": ""
    },
    {
      "Command": "pause",
      "Target": "1000",
      "Value": ""
    },
    {
      "Command": "type",
      "Target": "//td[2]/input",
      "Value": "QA_11"
    },
    {
      "Command": "type",
      "Target": "//tr[2]/td[2]/input",
      "Value": ".vss@2019"
    },
    {
      "Command": "click",
      "Target": "//tr[4]/td/input",
      "Value": "Log In"
    },
    {
      "Command": "pause",
      "Target": "6000",
      "Value": ""
    },
    {
      "Command": "mouseOver",
      "Target": "xpath=//*[@id=\"menubar\"]/ul/li[2]/a",
      "Value": "Data Viewers"
    },
    {
      "Command": "click",
      "Target": "link=Vessels",
      "Value": "Vessel"
    },
    {
      "Command": "pause",
      "Target": "4000",
      "Value": ""
    },
    {
      "Command": "selectWindow",
      "Target": "TAB=1",
      "Value": ""
    },
    {
      "Command": "verifyText",
      "Target": "//div[@id='Title']/span",
      "Value": "Vessel Data Viewer"
    },
    {
      "Command": "type",
      "Target": "//div[@id='ctl00_ContentPlaceHolder1_UpdatePanel2']/input",
      "Value": "1000124"
    },
    {
      "Command": "pause",
      "Target": "8000",
      "Value": ""
    },
    {
      "Command": "verifyText",
      "Target": "//a[contains(@href, '../Vessels/VesselDetails.aspx?imo=1000124&A_Src=_Vessel_Data_Viewer')]",
      "Value": "1000124"
    },
    {
      "Command": "click",
      "Target": "//a[contains(@href, '../Vessels/VesselDetails.aspx?imo=1000124&A_Src=_Vessel_Data_Viewer')]",
      "Value": "1000124"
    },
    {
      "Command": "pause",
      "Target": "5000",
      "Value": ""
    },
    {
      "Command": "selectWindow",
      "Target": "TAB=2",
      "Value": ""
    },
    {
      "Command": "verifyText",
      "Target": "id=ctl00_ContentPlaceHolder1_VesselNameDataLabel",
      "Value": "THIRTY LOVE"
    },
    {
      "Command": "verifyText",
      "Target": "//fieldset[@id='ctl00_ContentPlaceHolder1_ctl00_fieldSet']/legend/span",
      "Value": "Vessel Images"
    },
    {
      "Command": "verifyText",
      "Target": "//a[contains(@href, '../Common/Controls/Components/Images/ImageManager.aspx?ID=1000124&Q=Vessel&N=THIRTY LOVE')]",
      "Value": "Manage Images"
    },
    {
      "Command": "click",
      "Target": "//a[contains(@href, '../Common/Controls/Components/Images/ImageManager.aspx?ID=1000124&Q=Vessel&N=THIRTY LOVE')]",
      "Value": "Manage Images"
    },
    {
      "Command": "pause",
      "Target": "4000",
      "Value": ""
    },
    {
      "Command": "selectWindow",
      "Target": "TAB=3",
      "Value": ""
    },
    {
      "Command": "verifyText",
      "Target": "id=ctl00_ContentPlaceHolder1_lblObject",
      "Value": "THIRTY LOVE"
    },
    {
      "Command": "selectWindow",
      "Target": "TAB=2",
      "Value": ""
    },
    {
      "Command": "verifyText",
      "Target": "//a[contains(@href, '../Common/Controls/Components/Documents/DocumentManager.aspx?ID=1000124&Q=Vessel&N=THIRTY LOVE')]",
      "Value": "Manage Documents"
    },
    {
      "Command": "click",
      "Target": "//a[contains(@href, '../Common/Controls/Components/Documents/DocumentManager.aspx?ID=1000124&Q=Vessel&N=THIRTY LOVE')]",
      "Value": "Manage Documents"
    },
    {
      "Command": "pause",
      "Target": "4000",
      "Value": ""
    },
    {
      "Command": "selectWindow",
      "Target": "TAB=3",
      "Value": ""
    },
    {
      "Command": "verifyText",
      "Target": "id=ctl00_ContentPlaceHolder1_ctl00_lblObject",
      "Value": "THIRTY LOVE"
    },
    {
      "Command": "selectWindow",
      "Target": "TAB=2",
      "Value": ""
    },
    {
      "Command": "verifyText",
      "Target": "id=ctl00_ContentPlaceHolder1_Notes1__Notes",
      "Value": "Notes"
    },
    {
      "Command": "verifyText",
      "Target": "//div[@id='ctl00_ContentPlaceHolder1_Notes1_panelAddNote']/div/span",
      "Value": "Add Note"
    },
    {
      "Command": "click",
      "Target": "//a",
      "Value": ""
    },
    {
      "Command": "pause",
      "Target": "3000",
      "Value": ""
    },
    {
      "Command": "selectWindow",
      "Target": "TAB=CLOSEALLOTHER",
      "Value": ""
    },
    {
      "Command": "refresh",
      "Target": "",
      "Value": ""
    }
  ]
}