{
  "Name": "_vqa_DV_V_22_action submit for scoring1",
  "CreationDate": "2020-4-3",
  "Commands": [
    {
      "Command": "open",
      "Target": "https://10.200.225.14/VSSQA",
      "Value": ""
    },
    {
      "Command": "pause",
      "Target": "2000",
      "Value": ""
    },
    {
      "Command": "type",
      "Target": "//td[2]/input",
      "Value": "QA_11"
    },
    {
      "Command": "type",
      "Target": "//tr[2]/td[2]/input",
      "Value": ".vss@2019"
    },
    {
      "Command": "click",
      "Target": "//tr[4]/td/input",
      "Value": "Log In"
    },
    {
      "Command": "pause",
      "Target": "6000",
      "Value": ""
    },
    {
      "Command": "mouseOver",
      "Target": "xpath=//*[@id=\"menubar\"]/ul/li[2]/a",
      "Value": "Data Viewers"
    },
    {
      "Command": "click",
      "Target": "link=Vessels",
      "Value": "Vessel"
    },
    {
      "Command": "pause",
      "Target": "4000",
      "Value": ""
    },
    {
      "Command": "selectWindow",
      "Target": "TAB=1",
      "Value": ""
    },
    {
      "Command": "verifyText",
      "Target": "//div[@id='Title']/span",
      "Value": "Vessel Data Viewer"
    },
    {
      "Command": "type",
      "Target": "//div[@id='ctl00_ContentPlaceHolder1_UpdatePanel2']/input",
      "Value": "1000540"
    },
    {
      "Command": "pause",
      "Target": "9000",
      "Value": ""
    },
    {
      "Command": "verifyText",
      "Target": "//a[contains(@href, '../Vessels/VesselDetails.aspx?imo=1000540&A_Src=_Vessel_Data_Viewer')]",
      "Value": "1000540"
    },
    {
      "Command": "click",
      "Target": "//a[contains(@href, '../Vessels/VesselDetails.aspx?imo=1000540&A_Src=_Vessel_Data_Viewer')]",
      "Value": "1000540"
    },
    {
      "Command": "pause",
      "Target": "4000",
      "Value": ""
    },
    {
      "Command": "selectWindow",
      "Target": "TAB=2",
      "Value": ""
    },
    {
      "Command": "verifyText",
      "Target": "id=ctl00_ContentPlaceHolder1_VesselNameDataLabel",
      "Value": "ASGARD II"
    },
    {
      "Command": "mouseOver",
      "Target": "//div[@id='slidingColumn']/fieldset/table/tbody/tr[6]/td/img",
      "Value": "Actions"
    },
    {
      "Command": "click",
      "Target": "//a[contains(text(),'Submit for Scoring')]",
      "Value": "Submit for Scoring"
    },
    {
      "Command": "pause",
      "Target": "45000",
      "Value": ""
    },
    {
      "Command": "pause",
      "Target": "45000",
      "Value": ""
    },
    {
      "Command": "verifyText",
      "Target": "id=lblScoringInProgress",
      "Value": "Scoring in progress"
    },
    {
      "Command": "click",
      "Target": "//a",
      "Value": ""
    },
    {
      "Command": "pause",
      "Target": "2000",
      "Value": ""
    },
    {
      "Command": "selectWindow",
      "Target": "TAB=CLOSEALLOTHER",
      "Value": ""
    },
    {
      "Command": "refresh",
      "Target": "",
      "Value": ""
    }
  ]
}