{
  "Name": "_vqa_A_MU_4_new user logged in",
  "CreationDate": "2020-4-3",
  "Commands": [
    {
      "Command": "open",
      "Target": "https://10.200.225.14/VSSQA/Login.aspx",
      "Value": ""
    },
    {
      "Command": "pause",
      "Target": "1000",
      "Value": ""
    },
    {
      "Command": "type",
      "Target": "//div[@id='loginbox']/div/table/tbody/tr/td[2]/input",
      "Value": "00_Script_User_B"
    },
    {
      "Command": "type",
      "Target": "//div[@id='loginbox']/div/table/tbody/tr[2]/td[2]/input",
      "Value": "@Adduser123"
    },
    {
      "Command": "click",
      "Target": "//tr[4]/td/input",
      "Value": "Log In"
    },
    {
      "Command": "pause",
      "Target": "3000",
      "Value": ""
    },
    {
      "Command": "verifyText",
      "Target": "id=ctl00_ContentPlaceHolder1_Label7",
      "Value": "Login"
    },
    {
      "Command": "verifyText",
      "Target": "xpath=//*[@id=\"ctl00_ContentPlaceHolder1_ChangePanel\"]/div/center/table/tbody/tr[1]/td",
      "Value": "You must change your password."
    },
    {
      "Command": "verifyText",
      "Target": "xpath=//*[@id=\"ctl00_ContentPlaceHolder1_ChangePanel\"]/div/center/table/tbody/tr[2]/td[1]",
      "Value": "New Password:  "
    },
    {
      "Command": "verifyText",
      "Target": "xpath=//*[@id=\"ctl00_ContentPlaceHolder1_ChangePanel\"]/div/center/table/tbody/tr[3]/td[1]",
      "Value": "Confirm Password: "
    },
    {
      "Command": "click",
      "Target": "id=ctl00_ContentPlaceHolder1_PasswordText",
      "Value": ""
    },
    {
      "Command": "type",
      "Target": "id=ctl00_ContentPlaceHolder1_PasswordText",
      "Value": ".vss@2019"
    },
    {
      "Command": "click",
      "Target": "id=ctl00_ContentPlaceHolder1_ConfirmPasswordText",
      "Value": ""
    },
    {
      "Command": "type",
      "Target": "id=ctl00_ContentPlaceHolder1_ConfirmPasswordText",
      "Value": ".vss@2019"
    },
    {
      "Command": "click",
      "Target": "id=ctl00_ContentPlaceHolder1_OkChange",
      "Value": "Ok"
    },
    {
      "Command": "pause",
      "Target": "18000",
      "Value": ""
    },
    {
      "Command": "mouseOver",
      "Target": "xpath=(//a[contains(@href, '#a')])[6]",
      "Value": "Tools"
    },
    {
      "Command": "click",
      "Target": "//a[contains(text(),'User Settings')]",
      "Value": "User Settings"
    },
    {
      "Command": "pause",
      "Target": "4000",
      "Value": ""
    },
    {
      "Command": "selectWindow",
      "Target": "TAB=1",
      "Value": ""
    },
    {
      "Command": "verifyText",
      "Target": "//div[@id='ctl00_ContentPlaceHolder1_UpdatePanel1']/table/tbody/tr[2]/td[2]/fieldset/legend/span[2]",
      "Value": "00_Script_User_B"
    },
    {
      "Command": "select",
      "Target": "id=ctl00_ContentPlaceHolder1_UrlList",
      "Value": "label=Vessels Data Viewer"
    },
    {
      "Command": "clickAndWait",
      "Target": "id=btnSave",
      "Value": ""
    },
    {
      "Command": "verifyText",
      "Target": "id=ctl00_ContentPlaceHolder1_MessageBox1_lblMessage",
      "Value": "Save Successful!"
    },
    {
      "Command": "click",
      "Target": "id=ctl00_ContentPlaceHolder1_MessageBox1_MessageOK",
      "Value": "Ok"
    },
    {
      "Command": "click",
      "Target": "//a[contains(text(),'Logout')]",
      "Value": ""
    },
    {
      "Command": "pause",
      "Target": "2000",
      "Value": ""
    },
    {
      "Command": "selectWindow",
      "Target": "TAB=CLOSEALLOTHER",
      "Value": ""
    },
    {
      "Command": "refresh",
      "Target": "",
      "Value": ""
    }
  ]
}