{
  "Name": "_vqa_LP_1_invalid login and variations",
  "CreationDate": "2020-4-3",
  "Commands": [
    {
      "Command": "open",
      "Target": "https://10.200.225.14/VSSQA",
      "Value": ""
    },
    {
      "Command": "type",
      "Target": "//div[@id='loginbox']/div/table/tbody/tr/td[2]/input",
      "Value": "123456"
    },
    {
      "Command": "clickAndWait",
      "Target": "//div[@id='loginbox']/div/table/tbody/tr[4]/td/input",
      "Value": "Log in"
    },
    {
      "Command": "verifyText",
      "Target": "//div[@id='ctl00_ContentPlaceHolder1_MessageBox1_MessageAllignment']/span",
      "Value": "Password is required."
    },
    {
      "Command": "click",
      "Target": "//div[@id='ctl00_ContentPlaceHolder1_MessageBox1_MessagePanel']/div/center/div/input",
      "Value": "Ok"
    },
    {
      "Command": "pause",
      "Target": "1000",
      "Value": ""
    },
    {
      "Command": "open",
      "Target": "https://10.200.225.14/VSSQA",
      "Value": ""
    },
    {
      "Command": "type",
      "Target": "//div[@id='loginbox']/div/table/tbody/tr/td[2]/input",
      "Value": "71234567"
    },
    {
      "Command": "pause",
      "Target": "1000",
      "Value": ""
    },
    {
      "Command": "type",
      "Target": "//div[@id='loginbox']/div/table/tbody/tr[2]/td[2]/input",
      "Value": "712345677"
    },
    {
      "Command": "click",
      "Target": "//div[@id='loginbox']/div/table/tbody/tr[4]/td/input",
      "Value": "Log In"
    },
    {
      "Command": "pause",
      "Target": "2000",
      "Value": ""
    },
    {
      "Command": "verifyText",
      "Target": "//div[@id='ctl00_ContentPlaceHolder1_MessageBox1_MessageAllignment']/span",
      "Value": "You have entered invalid credentials. Please try again."
    },
    {
      "Command": "click",
      "Target": "//div[@id='ctl00_ContentPlaceHolder1_MessageBox1_MessagePanel']/div/center/div/input",
      "Value": "Ok"
    },
    {
      "Command": "pause",
      "Target": "1000",
      "Value": ""
    },
    {
      "Command": "open",
      "Target": "https://10.200.225.14/VSSQA",
      "Value": ""
    },
    {
      "Command": "type",
      "Target": "//div[@id='loginbox']/div/table/tbody/tr[2]/td[2]/input",
      "Value": "7123456"
    },
    {
      "Command": "click",
      "Target": "//div[@id='loginbox']/div/table/tbody/tr[4]/td/input",
      "Value": "Log In"
    },
    {
      "Command": "pause",
      "Target": "1000",
      "Value": ""
    },
    {
      "Command": "verifyText",
      "Target": "//div[@id='ctl00_ContentPlaceHolder1_MessageBox1_MessageAllignment']/span",
      "Value": "User Name is required."
    },
    {
      "Command": "click",
      "Target": "//div[@id='ctl00_ContentPlaceHolder1_MessageBox1_MessagePanel']/div/center/div/input",
      "Value": "Ok"
    },
    {
      "Command": "pause",
      "Target": "1000",
      "Value": ""
    },
    {
      "Command": "open",
      "Target": "https://10.200.225.14/VSSQA",
      "Value": ""
    },
    {
      "Command": "type",
      "Target": "//div[@id='loginbox']/div/table/tbody/tr/td[2]/input",
      "Value": "ainvalida"
    },
    {
      "Command": "type",
      "Target": "//div[@id='loginbox']/div/table/tbody/tr[2]/td[2]/input",
      "Value": "ainvalida"
    },
    {
      "Command": "clickAndWait",
      "Target": "//div[@id='loginbox']/div/table/tbody/tr[4]/td/input",
      "Value": "Log in"
    },
    {
      "Command": "verifyText",
      "Target": "//div[@id='ctl00_ContentPlaceHolder1_MessageBox1_MessageAllignment']/span",
      "Value": "You have entered invalid credentials. Please try again."
    },
    {
      "Command": "click",
      "Target": "//div[@id='ctl00_ContentPlaceHolder1_MessageBox1_MessagePanel']/div/center/div/input",
      "Value": "Ok"
    },
    {
      "Command": "pause",
      "Target": "1000",
      "Value": ""
    },
    {
      "Command": "open",
      "Target": "https://10.200.225.14/VSSQA",
      "Value": ""
    },
    {
      "Command": "type",
      "Target": "//div[@id='loginbox']/div/table/tbody/tr/td[2]/input",
      "Value": "invalid12345677"
    },
    {
      "Command": "type",
      "Target": "//div[@id='loginbox']/div/table/tbody/tr[2]/td[2]/input",
      "Value": "invalid12345677"
    },
    {
      "Command": "click",
      "Target": "//div[@id='loginbox']/div/table/tbody/tr[4]/td/input",
      "Value": "Log in"
    },
    {
      "Command": "verifyText",
      "Target": "//div[@id='ctl00_ContentPlaceHolder1_MessageBox1_MessageAllignment']/span",
      "Value": "You have entered invalid credentials. Please try again."
    },
    {
      "Command": "click",
      "Target": "//div[@id='ctl00_ContentPlaceHolder1_MessageBox1_MessagePanel']/div/center/div/input",
      "Value": "Ok"
    },
    {
      "Command": "pause",
      "Target": "1000",
      "Value": ""
    },
    {
      "Command": "open",
      "Target": "https://10.200.225.14/VSSQA",
      "Value": ""
    },
    {
      "Command": "type",
      "Target": "//div[@id='loginbox']/div/table/tbody/tr/td[2]/input",
      "Value": "invalid12345677"
    },
    {
      "Command": "click",
      "Target": "//div[@id='loginbox']/div/table/tbody/tr[4]/td/input",
      "Value": "Log in"
    },
    {
      "Command": "pause",
      "Target": "2000",
      "Value": ""
    },
    {
      "Command": "verifyText",
      "Target": "//div[@id='ctl00_ContentPlaceHolder1_MessageBox1_MessageAllignment']/span",
      "Value": "Password is required."
    },
    {
      "Command": "click",
      "Target": "//div[@id='ctl00_ContentPlaceHolder1_MessageBox1_MessagePanel']/div/center/div/input",
      "Value": "Ok"
    },
    {
      "Command": "pause",
      "Target": "1000",
      "Value": ""
    },
    {
      "Command": "open",
      "Target": "https://10.200.225.14/VSSQA",
      "Value": ""
    },
    {
      "Command": "pause",
      "Target": "1000",
      "Value": ""
    },
    {
      "Command": "type",
      "Target": "//div[@id='loginbox']/div/table/tbody/tr[2]/td[2]/input",
      "Value": "invalid12345677"
    },
    {
      "Command": "click",
      "Target": "//div[@id='loginbox']/div/table/tbody/tr[4]/td/input",
      "Value": "Log in"
    },
    {
      "Command": "pause",
      "Target": "2000",
      "Value": ""
    },
    {
      "Command": "verifyText",
      "Target": "//div[@id='ctl00_ContentPlaceHolder1_MessageBox1_MessageAllignment']/span",
      "Value": "User Name is required."
    },
    {
      "Command": "click",
      "Target": "//div[@id='ctl00_ContentPlaceHolder1_MessageBox1_MessagePanel']/div/center/div/input",
      "Value": "Ok"
    },
    {
      "Command": "pause",
      "Target": "1000",
      "Value": ""
    },
    {
      "Command": "open",
      "Target": "https://10.200.225.14/VSSQA",
      "Value": ""
    },
    {
      "Command": "click",
      "Target": "//div[@id='loginbox']/div/table/tbody/tr[4]/td/input",
      "Value": "Log in"
    },
    {
      "Command": "pause",
      "Target": "2000",
      "Value": ""
    },
    {
      "Command": "verifyText",
      "Target": "//div[@id='ctl00_ContentPlaceHolder1_MessageBox1_MessageAllignment']/span",
      "Value": "User Name and Password are required."
    },
    {
      "Command": "click",
      "Target": "//div[@id='ctl00_ContentPlaceHolder1_MessageBox1_MessagePanel']/div/center/div/input",
      "Value": "Ok"
    },
    {
      "Command": "pause",
      "Target": "1000",
      "Value": ""
    },
    {
      "Command": "open",
      "Target": "https://10.200.225.14/VSSQA",
      "Value": ""
    },
    {
      "Command": "type",
      "Target": "//div[@id='loginbox']/div/table/tbody/tr/td[2]/input",
      "Value": "00_Script_User_C"
    },
    {
      "Command": "click",
      "Target": "//div[@id='loginbox']/div/table/tbody/tr[4]/td/input",
      "Value": "Log in"
    },
    {
      "Command": "pause",
      "Target": "2000",
      "Value": ""
    },
    {
      "Command": "verifyText",
      "Target": "//div[@id='ctl00_ContentPlaceHolder1_MessageBox1_MessageAllignment']/span",
      "Value": "Password is required."
    },
    {
      "Command": "click",
      "Target": "//div[@id='ctl00_ContentPlaceHolder1_MessageBox1_MessagePanel']/div/center/div/input",
      "Value": "Ok"
    },
    {
      "Command": "pause",
      "Target": "1000",
      "Value": ""
    },
    {
      "Command": "open",
      "Target": "https://10.200.225.14/VSSQA",
      "Value": ""
    },
    {
      "Command": "type",
      "Target": "//div[@id='loginbox']/div/table/tbody/tr[2]/td[2]/input",
      "Value": "@Adduser123"
    },
    {
      "Command": "click",
      "Target": "//div[@id='loginbox']/div/table/tbody/tr[4]/td/input",
      "Value": "Log in"
    },
    {
      "Command": "pause",
      "Target": "2000",
      "Value": ""
    },
    {
      "Command": "verifyText",
      "Target": "//div[@id='ctl00_ContentPlaceHolder1_MessageBox1_MessageAllignment']/span",
      "Value": "User Name is required."
    },
    {
      "Command": "click",
      "Target": "//div[@id='ctl00_ContentPlaceHolder1_MessageBox1_MessagePanel']/div/center/div/input",
      "Value": "Ok"
    }
  ]
}