{
  "Name": "_vqa_AS_04A_EMailD_update",
  "CreationDate": "2020-4-3",
  "Commands": [
    {
      "Command": "open",
      "Target": "https://10.200.225.14/VSSQA",
      "Value": ""
    },
    {
      "Command": "pause",
      "Target": "1000",
      "Value": ""
    },
    {
      "Command": "type",
      "Target": "//td[2]/input",
      "Value": "QA_11"
    },
    {
      "Command": "type",
      "Target": "//tr[2]/td[2]/input",
      "Value": ".vss@2019"
    },
    {
      "Command": "click",
      "Target": "//tr[4]/td/input",
      "Value": "Log In"
    },
    {
      "Command": "pause",
      "Target": "6000",
      "Value": ""
    },
    {
      "Command": "mouseOver",
      "Target": "//div/ul/li[5]/a",
      "Value": "Administration"
    },
    {
      "Command": "mouseOver",
      "Target": "//li[5]/ul/li/a",
      "Value": "Security"
    },
    {
      "Command": "verifyText",
      "Target": "//li[5]/ul/li/ul/li/a",
      "Value": "Administrator Settings"
    },
    {
      "Command": "click",
      "Target": "//li[5]/ul/li/ul/li/a",
      "Value": ""
    },
    {
      "Command": "pause",
      "Target": "3000",
      "Value": ""
    },
    {
      "Command": "selectWindow",
      "Target": "tab=1",
      "Value": ""
    },
    {
      "Command": "verifyText",
      "Target": "//div[3]/div/span",
      "Value": "Administrator Settings"
    },
    {
      "Command": "verifyText",
      "Target": "//span[4]/span/span/a/span",
      "Value": "E-mail Domains"
    },
    {
      "Command": "click",
      "Target": "//span[4]/span/span/a/span",
      "Value": ""
    },
    {
      "Command": "verifyText",
      "Target": "//legend/span",
      "Value": "E-mail Domains approved to receive attachments on Alerts."
    },
    {
      "Command": "click",
      "Target": "id=ctl00_ContentPlaceHolder1_tc_tabEmail_btnNewDomain",
      "Value": ""
    },
    {
      "Command": "pause",
      "Target": "6000",
      "Value": ""
    },
    {
      "Command": "verifyText",
      "Target": "xpath=(//td[text()[contains(.,'AAA-qaadmin.com')]])",
      "Value": "AAA-qaadmin.com"
    },
    {
      "Command": "click",
      "Target": "xpath=(//td[text()[contains(.,'AAA-qaadmin.com')]])",
      "Value": "AAA-qaadmin.com"
    },
    {
      "Command": "pause",
      "Target": "4000",
      "Value": ""
    },
    {
      "Command": "verifyValue",
      "Target": "//fieldset/div/table/tbody/tr/td[2]/input",
      "Value": "AAA-qaadmin.com"
    },
    {
      "Command": "type",
      "Target": "//fieldset/div/table/tbody/tr/td[2]/input",
      "Value": "AAA-qaadmin-updated.com"
    },
    {
      "Command": "click",
      "Target": "//td/div/div/table/tbody/tr/td[2]/input",
      "Value": "Save"
    },
    {
      "Command": "pause",
      "Target": "4000",
      "Value": ""
    },
    {
      "Command": "verifyText",
      "Target": "//div[2]/div[2]/div/center/table/tbody/tr/td[2]/div/span",
      "Value": "E-mail Domain Updated"
    },
    {
      "Command": "click",
      "Target": "//div[2]/div[2]/div/center/div/input",
      "Value": "Ok"
    },
    {
      "Command": "click",
      "Target": "//a",
      "Value": ""
    },
    {
      "Command": "pause",
      "Target": "2000",
      "Value": ""
    },
    {
      "Command": "selectWindow",
      "Target": "TAB=CLOSEALLOTHER",
      "Value": ""
    },
    {
      "Command": "refresh",
      "Target": "",
      "Value": ""
    }
  ]
}