{
  "Name": "_vqa_VD_25_OH_Movement History",
  "CreationDate": "2020-4-3",
  "Commands": [
    {
      "Command": "open",
      "Target": "https://10.200.225.14/VSSQA/Vessels/VesselDetails.aspx?imo=1000112&A_Src=_Vessel_Data_Viewer",
      "Value": ""
    },
    {
      "Command": "pause",
      "Target": "1000",
      "Value": ""
    },
    {
      "Command": "type",
      "Target": "//td[2]/input",
      "Value": "QA_11"
    },
    {
      "Command": "type",
      "Target": "//tr[2]/td[2]/input",
      "Value": ".vss@2019"
    },
    {
      "Command": "click",
      "Target": "//tr[4]/td/input",
      "Value": "Log In"
    },
    {
      "Command": "pause",
      "Target": "5000",
      "Value": ""
    },
    {
      "Command": "verifyText",
      "Target": "id=ctl00_ContentPlaceHolder1_VesselNameDataLabel",
      "Value": "SEVEN SEAS OF PORTO"
    },
    {
      "Command": "verifyText",
      "Target": "//div[@id='ctl00_ContentPlaceHolder1_updateInfo']/table/tbody/tr[6]/td/fieldset/legend/span",
      "Value": "Other History"
    },
    {
      "Command": "verifyText",
      "Target": "//a[@id='__tab_ctl00_ContentPlaceHolder1_OtherHistory1_TabContainer1_tpPort']/span",
      "Value": "Movement History"
    },
    {
      "Command": "click",
      "Target": "//a[@id='__tab_ctl00_ContentPlaceHolder1_OtherHistory1_TabContainer1_tpPort']/span",
      "Value": "Movement History"
    },
    {
      "Command": "pause",
      "Target": "6000",
      "Value": ""
    },
    {
      "Command": "verifyText",
      "Target": "id=ctl00_ContentPlaceHolder1_OtherHistory1_TabContainer1_tpPort_History1_Label16",
      "Value": "Hide Movement History Filter(...)"
    },
    {
      "Command": "verifyText",
      "Target": "xpath=//*[@id=\"ctl00_ContentPlaceHolder1_OtherHistory1_TabContainer1_tpPort_History1_TrackHistoryPanel\"]/table/tbody/tr[1]/td[1]",
      "Value": "Movement Type:"
    },
    {
      "Command": "verifyText",
      "Target": "xpath=//*[@id=\"ctl00_ContentPlaceHolder1_OtherHistory1_TabContainer1_tpPort_History1_chkMovementType\"]/tbody/tr/td[1]/label",
      "Value": "All"
    },
    {
      "Command": "verifyText",
      "Target": "xpath=//*[@id=\"ctl00_ContentPlaceHolder1_OtherHistory1_TabContainer1_tpPort_History1_chkMovementType\"]/tbody/tr/td[2]/label",
      "Value": "In Port"
    },
    {
      "Command": "verifyText",
      "Target": "xpath=//*[@id=\"ctl00_ContentPlaceHolder1_OtherHistory1_TabContainer1_tpPort_History1_chkMovementType\"]/tbody/tr/td[3]/label",
      "Value": "Port"
    },
    {
      "Command": "verifyText",
      "Target": "xpath=//*[@id=\"ctl00_ContentPlaceHolder1_OtherHistory1_TabContainer1_tpPort_History1_chkMovementType\"]/tbody/tr/td[4]/label",
      "Value": "Anchorage"
    },
    {
      "Command": "verifyText",
      "Target": "xpath=//*[@id=\"ctl00_ContentPlaceHolder1_OtherHistory1_TabContainer1_tpPort_History1_chkMovementType\"]/tbody/tr/td[5]/label",
      "Value": "Transit Strait/Canal"
    },
    {
      "Command": "verifyText",
      "Target": "xpath=//*[@id=\"ctl00_ContentPlaceHolder1_OtherHistory1_TabContainer1_tpPort_History1_chkMovementType\"]/tbody/tr/td[6]/label",
      "Value": "Exclusive Economic Zone"
    },
    {
      "Command": "verifyText",
      "Target": "xpath=//*[@id=\"ctl00_ContentPlaceHolder1_OtherHistory1_TabContainer1_tpPort_History1_chkMovementType\"]/tbody/tr/td[7]/label",
      "Value": "Maritime Zone"
    },
    {
      "Command": "verifyText",
      "Target": "xpath=//*[@id=\"ctl00_ContentPlaceHolder1_OtherHistory1_TabContainer1_tpPort_History1_TrackHistoryPanel\"]/table/tbody/tr[2]/td[1]",
      "Value": "Movement Date:"
    },
    {
      "Command": "verifyText",
      "Target": "id=ctl00_ContentPlaceHolder1_OtherHistory1_TabContainer1_tpPort_History1_Label3",
      "Value": "All"
    },
    {
      "Command": "verifyText",
      "Target": "xpath=//*[@id=\"ctl00_ContentPlaceHolder1_OtherHistory1_TabContainer1_tpPort_History1_TrackHistoryPanel\"]/table/tbody/tr[3]/td/table/tbody/tr[1]/td[2]/span/label",
      "Value": "Date Range From:"
    },
    {
      "Command": "verifyText",
      "Target": "id=ctl00_ContentPlaceHolder1_OtherHistory1_TabContainer1_tpPort_History1__To",
      "Value": "To"
    },
    {
      "Command": "verifyText",
      "Target": "xpath=//*[@id=\"ctl00_ContentPlaceHolder1_OtherHistory1_TabContainer1_tpPort_History1_tdLast\"]/table/tbody/tr/td[2]/span/label",
      "Value": "Last:"
    },
    {
      "Command": "verifyText",
      "Target": "xpath=//*[@id=\"ctl00_ContentPlaceHolder1_OtherHistory1_TabContainer1_tpPort_History1_TrackHistoryPanel\"]/table/tbody/tr[5]/td[1]",
      "Value": "Movement Countries:"
    },
    {
      "Command": "verifyText",
      "Target": "id=ctl00_ContentPlaceHolder1_OtherHistory1_TabContainer1_tpPort_History1_Label17",
      "Value": "All"
    },
    {
      "Command": "click",
      "Target": "//table[@id='ctl00_ContentPlaceHolder1_OtherHistory1_TabContainer1_tpPort_History1_chkMovementType']/tbody/tr/td/input",
      "Value": "All"
    },
    {
      "Command": "click",
      "Target": "//div[@id='ctl00_ContentPlaceHolder1_OtherHistory1_TabContainer1_tpPort_History1_TrackHistoryPanel']/table/tbody/tr[3]/td/table/tbody/tr/td/span/input",
      "Value": "Date Range From:"
    },
    {
      "Command": "type",
      "Target": "//div[@id='ctl00_ContentPlaceHolder1_OtherHistory1_TabContainer1_tpPort_History1_TrackHistoryPanel']/table/tbody/tr[3]/td/table/tbody/tr/td[3]/input",
      "Value": "2000 06 23"
    },
    {
      "Command": "type",
      "Target": "//div[@id='ctl00_ContentPlaceHolder1_OtherHistory1_TabContainer1_tpPort_History1_TrackHistoryPanel']/table/tbody/tr[3]/td/table/tbody/tr/td[3]/input[2]",
      "Value": "00:00:00"
    },
    {
      "Command": "type",
      "Target": "//div[@id='ctl00_ContentPlaceHolder1_OtherHistory1_TabContainer1_tpPort_History1_TrackHistoryPanel']/table/tbody/tr[3]/td/table/tbody/tr/td[5]/input",
      "Value": "2018 07 23"
    },
    {
      "Command": "type",
      "Target": "//div[@id='ctl00_ContentPlaceHolder1_OtherHistory1_TabContainer1_tpPort_History1_TrackHistoryPanel']/table/tbody/tr[3]/td/table/tbody/tr/td[5]/input[2]",
      "Value": "00:00:00"
    },
    {
      "Command": "click",
      "Target": "//div[@id='ctl00_ContentPlaceHolder1_OtherHistory1_TabContainer1_tpPort_History1_TrackHistoryPanel']/table/tbody/tr[7]/td[2]/input[2]",
      "Value": "Apply"
    },
    {
      "Command": "pause",
      "Target": "9000",
      "Value": ""
    },
    {
      "Command": "verifyText",
      "Target": "//a[contains(@href, \"javascript:__doPostBack('ctl00$ContentPlaceHolder1$OtherHistory1$TabContainer1$tpPort$History1$grid','Sort$Description')\")]",
      "Value": "Movement Type"
    },
    {
      "Command": "verifyText",
      "Target": "xpath=//*[@id=\"ctl00_ContentPlaceHolder1_OtherHistory1_TabContainer1_tpPort_History1_grid\"]/tbody/tr[2]/td[1]",
      "Value": "Anchorage"
    },
    {
      "Command": "verifyText",
      "Target": "//a[contains(@href, \"javascript:__doPostBack('ctl00$ContentPlaceHolder1$OtherHistory1$TabContainer1$tpPort$History1$grid','Sort$PortName')\")]",
      "Value": "Name"
    },
    {
      "Command": "verifyText",
      "Target": "xpath=//*[@id=\"ctl00_ContentPlaceHolder1_OtherHistory1_TabContainer1_tpPort_History1_grid\"]/tbody/tr[2]/td[2]",
      "Value": "Palma Anchorage"
    },
    {
      "Command": "verifyText",
      "Target": "//a[contains(@href, \"javascript:__doPostBack('ctl00$ContentPlaceHolder1$OtherHistory1$TabContainer1$tpPort$History1$grid','Sort$CountryName')\")]",
      "Value": "Country"
    },
    {
      "Command": "verifyText",
      "Target": "xpath=//*[@id=\"ctl00_ContentPlaceHolder1_OtherHistory1_TabContainer1_tpPort_History1_grid\"]/tbody/tr[2]/td[3]",
      "Value": "Spain"
    },
    {
      "Command": "verifyText",
      "Target": "//a[contains(@href, \"javascript:__doPostBack('ctl00$ContentPlaceHolder1$OtherHistory1$TabContainer1$tpPort$History1$grid','Sort$Arrival')\")]",
      "Value": "Arrival Date (UTC)"
    },
    {
      "Command": "verifyText",
      "Target": "xpath=//*[@id=\"ctl00_ContentPlaceHolder1_OtherHistory1_TabContainer1_tpPort_History1_grid\"]/tbody/tr[2]/td[4]",
      "Value": "05/03/2018 09:47:47"
    },
    {
      "Command": "verifyText",
      "Target": "//table[@id='ctl00_ContentPlaceHolder1_OtherHistory1_TabContainer1_tpPort_History1_grid']/tbody/tr/th[5]",
      "Value": "Arrival Coordinates"
    },
    {
      "Command": "verifyText",
      "Target": "xpath=//*[@id=\"ctl00_ContentPlaceHolder1_OtherHistory1_TabContainer1_tpPort_History1_grid\"]/tbody/tr[2]/td[5]",
      "Value": "39° 32' 21.31\" N, 2° 39' 31.43\" E"
    },
    {
      "Command": "verifyText",
      "Target": "//a[contains(@href, \"javascript:__doPostBack('ctl00$ContentPlaceHolder1$OtherHistory1$TabContainer1$tpPort$History1$grid','Sort$Departure')\")]",
      "Value": "Departure Date (UTC)"
    },
    {
      "Command": "verifyText",
      "Target": "xpath=//*[@id=\"ctl00_ContentPlaceHolder1_OtherHistory1_TabContainer1_tpPort_History1_grid\"]/tbody/tr[2]/td[6]",
      "Value": "05/03/2018 09:59:18"
    },
    {
      "Command": "verifyText",
      "Target": "//table[@id='ctl00_ContentPlaceHolder1_OtherHistory1_TabContainer1_tpPort_History1_grid']/tbody/tr/th[7]",
      "Value": "Departure Coordinates"
    },
    {
      "Command": "verifyText",
      "Target": "xpath=//*[@id=\"ctl00_ContentPlaceHolder1_OtherHistory1_TabContainer1_tpPort_History1_grid\"]/tbody/tr[2]/td[7]",
      "Value": "N/A"
    },
    {
      "Command": "verifyText",
      "Target": "//a[contains(@href, \"javascript:__doPostBack('ctl00$ContentPlaceHolder1$OtherHistory1$TabContainer1$tpPort$History1$grid','Sort$LocalTimeZone')\")]",
      "Value": "Local Time Zone"
    },
    {
      "Command": "verifyText",
      "Target": "xpath=//*[@id=\"ctl00_ContentPlaceHolder1_OtherHistory1_TabContainer1_tpPort_History1_grid\"]/tbody/tr[2]/td[8]",
      "Value": "1"
    },
    {
      "Command": "verifyText",
      "Target": "//a[contains(@href, \"javascript:__doPostBack('ctl00$ContentPlaceHolder1$OtherHistory1$TabContainer1$tpPort$History1$grid','Sort$HoursInPort')\")]",
      "Value": "Duration (Hours)"
    },
    {
      "Command": "verifyText",
      "Target": "xpath=//*[@id=\"ctl00_ContentPlaceHolder1_OtherHistory1_TabContainer1_tpPort_History1_grid\"]/tbody/tr[2]/td[9]",
      "Value": "0.19"
    },
    {
      "Command": "verifyText",
      "Target": "//a[contains(@href, \"javascript:__doPostBack('ctl00$ContentPlaceHolder1$OtherHistory1$TabContainer1$tpPort$History1$grid','Sort$Destination')\")]",
      "Value": "Destination"
    },
    {
      "Command": "comment",
      "Target": "xpath=//*[@id=\"ctl00_ContentPlaceHolder1_OtherHistory1_TabContainer1_tpPort_History1_grid\"]/tbody/tr[2]/td[10]",
      "Value": ""
    },
    {
      "Command": "click",
      "Target": "//a[contains(text(),'Logout')]",
      "Value": ""
    },
    {
      "Command": "pause",
      "Target": "4000",
      "Value": ""
    },
    {
      "Command": "refresh",
      "Target": "",
      "Value": ""
    }
  ]
}