{
  "Name": "_vqa_DV_C_15_verify fleet page",
  "CreationDate": "2020-4-3",
  "Commands": [
    {
      "Command": "open",
      "Target": "https://10.200.225.14/VSSQA",
      "Value": ""
    },
    {
      "Command": "pause",
      "Target": "1000",
      "Value": ""
    },
    {
      "Command": "type",
      "Target": "//td[2]/input",
      "Value": "QA_11"
    },
    {
      "Command": "type",
      "Target": "//tr[2]/td[2]/input",
      "Value": ".vss@2019"
    },
    {
      "Command": "click",
      "Target": "//tr[4]/td/input",
      "Value": "Log In"
    },
    {
      "Command": "pause",
      "Target": "6000",
      "Value": ""
    },
    {
      "Command": "mouseOver",
      "Target": "xpath=//*[@id=\"menubar\"]/ul/li[2]/a",
      "Value": "Data Viewers"
    },
    {
      "Command": "click",
      "Target": "link=Companies",
      "Value": "Companies"
    },
    {
      "Command": "pause",
      "Target": "4000",
      "Value": ""
    },
    {
      "Command": "selectWindow",
      "Target": "TAB=1",
      "Value": ""
    },
    {
      "Command": "verifyText",
      "Target": "//div[@id='Title']/span",
      "Value": "Company Data Viewer"
    },
    {
      "Command": "type",
      "Target": "//div[@id='ctl00_ContentPlaceHolder1_UpdatePanel2']/input",
      "Value": "DELTA QUEEN STEAMBOAT CO INC"
    },
    {
      "Command": "pause",
      "Target": "2000",
      "Value": ""
    },
    {
      "Command": "verifyText",
      "Target": "//a[contains(@href, '../Vessels/MoreInfo.aspx?id=0801566&type=s&A_Src=_Company_Data_Viewer')]",
      "Value": "DELTA QUEEN STEAMBOAT CO INC"
    },
    {
      "Command": "click",
      "Target": "//a[contains(@href, '../Vessels/MoreInfo.aspx?id=0801566&type=s&A_Src=_Company_Data_Viewer')]",
      "Value": "DELTA QUEEN STEAMBOAT CO INC"
    },
    {
      "Command": "pause",
      "Target": "4000",
      "Value": ""
    },
    {
      "Command": "selectWindow",
      "Target": "TAB=2",
      "Value": ""
    },
    {
      "Command": "verifyText",
      "Target": "//div[@id='ctl00_ContentPlaceHolder1_panelVParty']/table/tbody/tr/td/fieldset/legend/span[2]",
      "Value": "DELTA QUEEN STEAMBOAT CO INC"
    },
    {
      "Command": "verifyElementPresent",
      "Target": "//div[@id='ctl00_ContentPlaceHolder1_panelVParty']/table/tbody/tr/td/fieldset/table/tbody/tr[15]/td/input",
      "Value": "View Fleet"
    },
    {
      "Command": "click",
      "Target": "//div[@id='ctl00_ContentPlaceHolder1_panelVParty']/table/tbody/tr/td/fieldset/table/tbody/tr[15]/td/input",
      "Value": "View Fleet"
    },
    {
      "Command": "pause",
      "Target": "4000",
      "Value": ""
    },
    {
      "Command": "selectWindow",
      "Target": "TAB=3",
      "Value": ""
    },
    {
      "Command": "verifyText",
      "Target": "id=Title",
      "Value": "Fleet Details - Entity: DELTA QUEEN STEAMBOAT CO INC"
    },
    {
      "Command": "verifyElementPresent",
      "Target": "//div[@id='ctl00_ContentPlaceHolder1_FleetDetail1_rptTypes_ctl00_FleetEntity1_EntityHeaderPanel']/img",
      "Value": "ns-expand.gif"
    },
    {
      "Command": "click",
      "Target": "//div[@id='ctl00_ContentPlaceHolder1_FleetDetail1_rptTypes_ctl00_FleetEntity1_EntityHeaderPanel']/img",
      "Value": ""
    },
    {
      "Command": "verifyText",
      "Target": "//a[contains(@href, \"javascript:__doPostBack('ctl00$ContentPlaceHolder1$FleetDetail1$rptTypes$ctl00$FleetEntity1$grid','Sort$IMO')\")]",
      "Value": "Vessel Name"
    },
    {
      "Command": "verifyText",
      "Target": "xpath=//*[@id=\"ctl00_ContentPlaceHolder1_FleetDetail1_rptTypes_ctl00_FleetEntity1_grid\"]/tbody/tr[2]/td[1]",
      "Value": "DELTA QUEEN"
    },
    {
      "Command": "click",
      "Target": "linkText=DELTA QUEEN",
      "Value": "DELTA QUEEN"
    },
    {
      "Command": "pause",
      "Target": "11000",
      "Value": ""
    },
    {
      "Command": "selectWindow",
      "Target": "TAB=4",
      "Value": ""
    },
    {
      "Command": "verifyText",
      "Target": "id=Title",
      "Value": "Vessel Name: DELTA QUEEN"
    },
    {
      "Command": "selectWindow",
      "Target": "TAB=3",
      "Value": ""
    },
    {
      "Command": "verifyText",
      "Target": "xpath=(//a[contains(@href, \"javascript:__doPostBack('ctl00$ContentPlaceHolder1$FleetDetail1$rptTypes$ctl00$FleetEntity1$grid','Sort$IMO')\")])[2]",
      "Value": "IMO"
    },
    {
      "Command": "verifyText",
      "Target": "xpath=//*[@id=\"ctl00_ContentPlaceHolder1_FleetDetail1_rptTypes_ctl00_FleetEntity1_grid\"]/tbody/tr[2]/td[2]",
      "Value": "8643327"
    },
    {
      "Command": "verifyText",
      "Target": "//a[contains(@href, \"javascript:__doPostBack('ctl00$ContentPlaceHolder1$FleetDetail1$rptTypes$ctl00$FleetEntity1$grid','Sort$MMSI')\")]",
      "Value": "MMSI"
    },
    {
      "Command": "verifyText",
      "Target": "xpath=//*[@id=\"ctl00_ContentPlaceHolder1_FleetDetail1_rptTypes_ctl00_FleetEntity1_grid\"]/tbody/tr[2]/td[3]",
      "Value": "Unknown"
    },
    {
      "Command": "verifyText",
      "Target": "//a[contains(@href, \"javascript:__doPostBack('ctl00$ContentPlaceHolder1$FleetDetail1$rptTypes$ctl00$FleetEntity1$grid','Sort$CallSign')\")]",
      "Value": "Call Sign"
    },
    {
      "Command": "verifyText",
      "Target": "xpath=//*[@id=\"ctl00_ContentPlaceHolder1_FleetDetail1_rptTypes_ctl00_FleetEntity1_grid\"]/tbody/tr[2]/td[4]",
      "Value": "WA4141\t"
    },
    {
      "Command": "verifyText",
      "Target": "//a[contains(@href, \"javascript:__doPostBack('ctl00$ContentPlaceHolder1$FleetDetail1$rptTypes$ctl00$FleetEntity1$grid','Sort$FlagCode')\")]",
      "Value": "Flag Name"
    },
    {
      "Command": "verifyText",
      "Target": "xpath=//*[@id=\"ctl00_ContentPlaceHolder1_FleetDetail1_rptTypes_ctl00_FleetEntity1_grid\"]/tbody/tr[2]/td[5]",
      "Value": "United States Of America\t"
    },
    {
      "Command": "verifyText",
      "Target": "//a[contains(@href, \"javascript:__doPostBack('ctl00$ContentPlaceHolder1$FleetDetail1$rptTypes$ctl00$FleetEntity1$grid','Sort$VesselType')\")]",
      "Value": "Vessel Type"
    },
    {
      "Command": "verifyText",
      "Target": "xpath=//*[@id=\"ctl00_ContentPlaceHolder1_FleetDetail1_rptTypes_ctl00_FleetEntity1_grid\"]/tbody/tr[2]/td[6]",
      "Value": "Cruise Ship, Inland Waterways\t"
    },
    {
      "Command": "verifyText",
      "Target": "//a[contains(@href, \"javascript:__doPostBack('ctl00$ContentPlaceHolder1$FleetDetail1$rptTypes$ctl00$FleetEntity1$grid','Sort$ShipStatus')\")]",
      "Value": "Ship Status"
    },
    {
      "Command": "verifyText",
      "Target": "xpath=//*[@id=\"ctl00_ContentPlaceHolder1_FleetDetail1_rptTypes_ctl00_FleetEntity1_grid\"]/tbody/tr[2]/td[7]",
      "Value": "No Longer Meets Ihsf Criteria\t"
    },
    {
      "Command": "verifyText",
      "Target": "//a[contains(@href, \"javascript:__doPostBack('ctl00$ContentPlaceHolder1$FleetDetail1$rptTypes$ctl00$FleetEntity1$grid','Sort$ShipStatusEffectiveDate')\")]",
      "Value": "Effective Date"
    },
    {
      "Command": "verifyText",
      "Target": "id=ctl00_ContentPlaceHolder1_FleetDetail1_rptTypes_ctl00_FleetEntity1_grid_ctl02_lblDate",
      "Value": "01/01/1927"
    },
    {
      "Command": "verifyElementPresent",
      "Target": "//div[@id='ctl00_ContentPlaceHolder1_FleetDetail1_rptTypes_ctl01_FleetEntity1_EntityHeaderPanel']/img",
      "Value": "ns-expand.gif"
    },
    {
      "Command": "click",
      "Target": "//div[@id='ctl00_ContentPlaceHolder1_FleetDetail1_rptTypes_ctl01_FleetEntity1_EntityHeaderPanel']/img",
      "Value": ""
    },
    {
      "Command": "verifyText",
      "Target": "//a[contains(@href, \"javascript:__doPostBack('ctl00$ContentPlaceHolder1$FleetDetail1$rptTypes$ctl01$FleetEntity1$grid','Sort$IMO')\")]",
      "Value": "Vessel Name"
    },
    {
      "Command": "verifyText",
      "Target": "xpath=(//a[contains(@href, \"javascript:__doPostBack('ctl00$ContentPlaceHolder1$FleetDetail1$rptTypes$ctl01$FleetEntity1$grid','Sort$IMO')\")])[2]",
      "Value": "IMO"
    },
    {
      "Command": "verifyText",
      "Target": "//a[contains(@href, \"javascript:__doPostBack('ctl00$ContentPlaceHolder1$FleetDetail1$rptTypes$ctl01$FleetEntity1$grid','Sort$MMSI')\")]",
      "Value": "MMSI"
    },
    {
      "Command": "verifyText",
      "Target": "//a[contains(@href, \"javascript:__doPostBack('ctl00$ContentPlaceHolder1$FleetDetail1$rptTypes$ctl01$FleetEntity1$grid','Sort$CallSign')\")]",
      "Value": "Call Sign"
    },
    {
      "Command": "verifyText",
      "Target": "//a[contains(@href, \"javascript:__doPostBack('ctl00$ContentPlaceHolder1$FleetDetail1$rptTypes$ctl01$FleetEntity1$grid','Sort$FlagCode')\")]",
      "Value": "Flag Name"
    },
    {
      "Command": "verifyText",
      "Target": "//a[contains(@href, \"javascript:__doPostBack('ctl00$ContentPlaceHolder1$FleetDetail1$rptTypes$ctl01$FleetEntity1$grid','Sort$VesselType')\")]",
      "Value": "Vessel Type"
    },
    {
      "Command": "verifyText",
      "Target": "//a[contains(@href, \"javascript:__doPostBack('ctl00$ContentPlaceHolder1$FleetDetail1$rptTypes$ctl01$FleetEntity1$grid','Sort$ShipStatus')\")]",
      "Value": "Ship Status"
    },
    {
      "Command": "verifyText",
      "Target": "//a[contains(@href, \"javascript:__doPostBack('ctl00$ContentPlaceHolder1$FleetDetail1$rptTypes$ctl01$FleetEntity1$grid','Sort$ShipStatusEffectiveDate')\")]",
      "Value": "Effective Date"
    },
    {
      "Command": "pause",
      "Target": "1000",
      "Value": ""
    },
    {
      "Command": "verifyElementPresent",
      "Target": "//div[@id='ctl00_ContentPlaceHolder1_FleetDetail1_rptTypes_ctl02_FleetEntity1_EntityHeaderPanel']/img",
      "Value": "ns-expand.gif"
    },
    {
      "Command": "click",
      "Target": "//div[@id='ctl00_ContentPlaceHolder1_FleetDetail1_rptTypes_ctl02_FleetEntity1_EntityHeaderPanel']/img",
      "Value": ""
    },
    {
      "Command": "verifyText",
      "Target": "//a[contains(@href, \"javascript:__doPostBack('ctl00$ContentPlaceHolder1$FleetDetail1$rptTypes$ctl02$FleetEntity1$grid','Sort$IMO')\")]",
      "Value": "Vessel Name"
    },
    {
      "Command": "verifyText",
      "Target": "xpath=(//a[contains(@href, \"javascript:__doPostBack('ctl00$ContentPlaceHolder1$FleetDetail1$rptTypes$ctl02$FleetEntity1$grid','Sort$IMO')\")])[2]",
      "Value": "IMO"
    },
    {
      "Command": "verifyText",
      "Target": "//a[contains(@href, \"javascript:__doPostBack('ctl00$ContentPlaceHolder1$FleetDetail1$rptTypes$ctl02$FleetEntity1$grid','Sort$MMSI')\")]",
      "Value": "MMSI"
    },
    {
      "Command": "verifyText",
      "Target": "//a[contains(@href, \"javascript:__doPostBack('ctl00$ContentPlaceHolder1$FleetDetail1$rptTypes$ctl02$FleetEntity1$grid','Sort$CallSign')\")]",
      "Value": "Call Sign"
    },
    {
      "Command": "verifyText",
      "Target": "//a[contains(@href, \"javascript:__doPostBack('ctl00$ContentPlaceHolder1$FleetDetail1$rptTypes$ctl02$FleetEntity1$grid','Sort$FlagCode')\")]",
      "Value": "Flag Name"
    },
    {
      "Command": "verifyText",
      "Target": "//a[contains(@href, \"javascript:__doPostBack('ctl00$ContentPlaceHolder1$FleetDetail1$rptTypes$ctl02$FleetEntity1$grid','Sort$VesselType')\")]",
      "Value": "Vessel Type"
    },
    {
      "Command": "verifyText",
      "Target": "//a[contains(@href, \"javascript:__doPostBack('ctl00$ContentPlaceHolder1$FleetDetail1$rptTypes$ctl02$FleetEntity1$grid','Sort$ShipStatus')\")]",
      "Value": "Ship Status"
    },
    {
      "Command": "verifyText",
      "Target": "//a[contains(@href, \"javascript:__doPostBack('ctl00$ContentPlaceHolder1$FleetDetail1$rptTypes$ctl02$FleetEntity1$grid','Sort$ShipStatusEffectiveDate')\")]",
      "Value": "Effective Date"
    },
    {
      "Command": "click",
      "Target": "//a",
      "Value": ""
    },
    {
      "Command": "pause",
      "Target": "5000",
      "Value": ""
    },
    {
      "Command": "selectWindow",
      "Target": "TAB=CLOSEALLOTHER",
      "Value": ""
    }
  ]
}