{
  "Name": "_vqa_RM_7 add user and team in role",
  "CreationDate": "2020-4-3",
  "Commands": [
    {
      "Command": "open",
      "Target": "https://10.200.225.14/VSSQA",
      "Value": ""
    },
    {
      "Command": "pause",
      "Target": "1000",
      "Value": ""
    },
    {
      "Command": "type",
      "Target": "//td[2]/input",
      "Value": "QA_11"
    },
    {
      "Command": "type",
      "Target": "//tr[2]/td[2]/input",
      "Value": ".vss@2019"
    },
    {
      "Command": "click",
      "Target": "//tr[4]/td/input",
      "Value": "Log In"
    },
    {
      "Command": "pause",
      "Target": "6000",
      "Value": ""
    },
    {
      "Command": "mouseOver",
      "Target": "xpath=//*[@id=\"menubar\"]/ul/li[5]/a",
      "Value": "Administration"
    },
    {
      "Command": "mouseOver",
      "Target": "xpath=//*[@id=\"menubar\"]/ul/li[5]/ul/li[1]/a",
      "Value": "Security"
    },
    {
      "Command": "click",
      "Target": "//a[contains(text(),'Manage Roles')]",
      "Value": "Manage Roles"
    },
    {
      "Command": "pause",
      "Target": "6000",
      "Value": ""
    },
    {
      "Command": "selectWindow",
      "Target": "tab=1",
      "Value": ""
    },
    {
      "Command": "verifyText",
      "Target": "xpath=(//td[text()[contains(.,'z_all_not_allowed_updated')]])",
      "Value": "z_all_not_allowed_updated"
    },
    {
      "Command": "click",
      "Target": "xpath=(//td[text()[contains(.,'z_all_not_allowed_updated')]])",
      "Value": "z_all_not_allowed_updated"
    },
    {
      "Command": "pause",
      "Target": "4000",
      "Value": ""
    },
    {
      "Command": "click",
      "Target": "//div[@id='ctl00_ContentPlaceHolder1_actionMenu_divToolbar']/table/tbody/tr/td[2]/input",
      "Value": "Edit"
    },
    {
      "Command": "pause",
      "Target": "4000",
      "Value": ""
    },
    {
      "Command": "click",
      "Target": "//a[@id='__tab_ctl00_ContentPlaceHolder1_tc_tabUsers']/span",
      "Value": "Users in Role"
    },
    {
      "Command": "pause",
      "Target": "1000",
      "Value": ""
    },
    {
      "Command": "click",
      "Target": "id=ctl00_ContentPlaceHolder1_tc_tabUsers_gridUsers_ctl01_ddlUserName",
      "Value": ""
    },
    {
      "Command": "select",
      "Target": "id=ctl00_ContentPlaceHolder1_tc_tabUsers_gridUsers_ctl01_ddlUserName",
      "Value": "label=sachin gupta"
    },
    {
      "Command": "comment",
      "Target": "id=ctl00_ContentPlaceHolder1_tc_tabUsers_gridUsers_ctl01_ddlUserName",
      "Value": "label=Sachin Gupta"
    },
    {
      "Command": "comment",
      "Target": "id=ctl00_ContentPlaceHolder1_tc_tabUsers_gridUsers_ctl01_ddlUserName",
      "Value": "label=sachin gupta"
    },
    {
      "Command": "comment",
      "Target": "id=ctl00_ContentPlaceHolder1_tc_tabUsers_gridUsers_ctl01_ddlUserName",
      "Value": "label=Sachin Gupta"
    },
    {
      "Command": "comment",
      "Target": "xpath=//option[contains(.,'Sachin Gupta')]",
      "Value": "label=Sachin Gupta (sgupta)"
    },
    {
      "Command": "click",
      "Target": "//table[@id='ctl00_ContentPlaceHolder1_tc_tabUsers_gridUsers']/tbody/tr/td/table/tbody/tr[2]/td[2]/input",
      "Value": "Add"
    },
    {
      "Command": "pause",
      "Target": "1000",
      "Value": ""
    },
    {
      "Command": "click",
      "Target": "//a[@id='__tab_ctl00_ContentPlaceHolder1_tc_tabTeams']/span",
      "Value": "Teams in Role"
    },
    {
      "Command": "pause",
      "Target": "1000",
      "Value": ""
    },
    {
      "Command": "select",
      "Target": "id=ctl00_ContentPlaceHolder1_tc_tabTeams_gridTeams_ctl01_ddlTeamName",
      "Value": "label=Analysts"
    },
    {
      "Command": "click",
      "Target": "//table[@id='ctl00_ContentPlaceHolder1_tc_tabTeams_gridTeams']/tbody/tr/td/table/tbody/tr[2]/td[2]/input",
      "Value": "Add"
    },
    {
      "Command": "pause",
      "Target": "3000",
      "Value": ""
    },
    {
      "Command": "click",
      "Target": "//div[@id='ctl00_ContentPlaceHolder1_actionMenu_divToolbar']/table/tbody/tr/td[3]/input",
      "Value": "Save"
    },
    {
      "Command": "pause",
      "Target": "3000",
      "Value": ""
    },
    {
      "Command": "verifyText",
      "Target": "//div[@id='ctl00_ContentPlaceHolder1_MessageBox1_MessageAllignment']/span",
      "Value": "Save Successful!"
    },
    {
      "Command": "click",
      "Target": "//div[@id='ctl00_ContentPlaceHolder1_MessageBox1_MessagePanel']/div/center/div/input",
      "Value": "Ok"
    },
    {
      "Command": "pause",
      "Target": "1000",
      "Value": ""
    },
    {
      "Command": "click",
      "Target": "//a[contains(text(),'Logout')]",
      "Value": ""
    },
    {
      "Command": "pause",
      "Target": "2000",
      "Value": ""
    },
    {
      "Command": "selectWindow",
      "Target": "TAB=CLOSEALLOTHER",
      "Value": ""
    },
    {
      "Command": "refresh",
      "Target": "",
      "Value": ""
    }
  ]
}