{
  "Name": "_vqa_MISC01B_Create 10 more user",
  "CreationDate": "2020-4-3",
  "Commands": [
    {
      "Command": "open",
      "Target": "https://10.200.225.14/VSSQA",
      "Value": ""
    },
    {
      "Command": "pause",
      "Target": "2000",
      "Value": ""
    },
    {
      "Command": "type",
      "Target": "//td[2]/input",
      "Value": "sgupta"
    },
    {
      "Command": "comment",
      "Target": "//tr[2]/td[2]/input",
      "Value": "password1!"
    },
    {
      "Command": "comment",
      "Target": "//tr[2]/td[2]/input",
      "Value": "1"
    },
    {
      "Command": "type",
      "Target": "//tr[2]/td[2]/input",
      "Value": "Welcome1!"
    },
    {
      "Command": "click",
      "Target": "//tr[4]/td/input",
      "Value": "Log In"
    },
    {
      "Command": "pause",
      "Target": "12000",
      "Value": ""
    },
    {
      "Command": "mouseOver",
      "Target": "xpath=(//a[contains(@href, '#a')])[5]",
      "Value": "Administration"
    },
    {
      "Command": "mouseOver",
      "Target": "//a[contains(@href, 'javascript:void(0)')]",
      "Value": "Security"
    },
    {
      "Command": "click",
      "Target": "//a[contains(text(),'Manage Users')]",
      "Value": "Manage Users"
    },
    {
      "Command": "pause",
      "Target": "6000",
      "Value": ""
    },
    {
      "Command": "selectWindow",
      "Target": "tab=1",
      "Value": ""
    },
    {
      "Command": "click",
      "Target": "id=ctl00_ContentPlaceHolder1_imgAdd2",
      "Value": "Add"
    },
    {
      "Command": "pause",
      "Target": "4000",
      "Value": ""
    },
    {
      "Command": "type",
      "Target": "//div[@id='ctl00_ContentPlaceHolder1_NoteUpdatePanel']/table/tbody/tr[2]/td/fieldset/table/tbody/tr/td[2]/input",
      "Value": "QA_12"
    },
    {
      "Command": "type",
      "Target": "//div[@id='ctl00_ContentPlaceHolder1_NoteUpdatePanel']/table/tbody/tr[2]/td/fieldset/table/tbody/tr[2]/td[2]/input",
      "Value": "QA_12_ Full_Name"
    },
    {
      "Command": "type",
      "Target": "//div[@id='ctl00_ContentPlaceHolder1_NoteUpdatePanel']/table/tbody/tr[2]/td/fieldset/table/tbody/tr[3]/td[2]/input",
      "Value": "planet.ten@gmail.com2"
    },
    {
      "Command": "type",
      "Target": "//tr[@id='ctl00_ContentPlaceHolder1_trPassword']/td[2]/input",
      "Value": "planet.ten@gmail.com2"
    },
    {
      "Command": "type",
      "Target": "//tr[@id='ctl00_ContentPlaceHolder1_trConfirmPassword']/td[2]/input",
      "Value": "planet.ten@gmail.com2"
    },
    {
      "Command": "click",
      "Target": "xpath=(//label[text()='Analysts'])",
      "Value": "Analysts"
    },
    {
      "Command": "click",
      "Target": "xpath=(//label[text()='Analyst'])",
      "Value": "Analyst"
    },
    {
      "Command": "click",
      "Target": "//div[@id='ctl00_ContentPlaceHolder1_NoteUpdatePanel']/table/tbody/tr/td/div/table/tbody/tr/td/input",
      "Value": "Save"
    },
    {
      "Command": "pause",
      "Target": "6000",
      "Value": ""
    },
    {
      "Command": "verifyText",
      "Target": "//div[@id='ctl00_ContentPlaceHolder1_MessageBox1_MessageAllignment']/span",
      "Value": "Save Successful!"
    },
    {
      "Command": "click",
      "Target": "//div[@id='ctl00_ContentPlaceHolder1_MessageBox1_MessagePanel']/div/center/div/input",
      "Value": "Ok"
    },
    {
      "Command": "pause",
      "Target": "3000",
      "Value": ""
    },
    {
      "Command": "click",
      "Target": "id=ctl00_ContentPlaceHolder1_imgAdd2",
      "Value": "Add"
    },
    {
      "Command": "pause",
      "Target": "4000",
      "Value": ""
    },
    {
      "Command": "type",
      "Target": "//div[@id='ctl00_ContentPlaceHolder1_NoteUpdatePanel']/table/tbody/tr[2]/td/fieldset/table/tbody/tr/td[2]/input",
      "Value": "qa3@पीएई.कॉम"
    },
    {
      "Command": "type",
      "Target": "//div[@id='ctl00_ContentPlaceHolder1_NoteUpdatePanel']/table/tbody/tr[2]/td/fieldset/table/tbody/tr[2]/td[2]/input",
      "Value": "qa3@पीएई.कॉम_ Full_Name"
    },
    {
      "Command": "type",
      "Target": "//div[@id='ctl00_ContentPlaceHolder1_NoteUpdatePanel']/table/tbody/tr[2]/td/fieldset/table/tbody/tr[3]/td[2]/input",
      "Value": "planet.ten@gmail.com3"
    },
    {
      "Command": "type",
      "Target": "//tr[@id='ctl00_ContentPlaceHolder1_trPassword']/td[2]/input",
      "Value": "planet.ten@gmail.com3"
    },
    {
      "Command": "type",
      "Target": "//tr[@id='ctl00_ContentPlaceHolder1_trConfirmPassword']/td[2]/input",
      "Value": "planet.ten@gmail.com3"
    },
    {
      "Command": "click",
      "Target": "xpath=(//label[text()='Risk Administration'])",
      "Value": "Risk Administration"
    },
    {
      "Command": "click",
      "Target": "xpath=(//label[text()='Risk Assessment Administrator'])",
      "Value": "Risk Assessment Administrator"
    },
    {
      "Command": "click",
      "Target": "//div[@id='ctl00_ContentPlaceHolder1_NoteUpdatePanel']/table/tbody/tr/td/div/table/tbody/tr/td/input",
      "Value": "Save"
    },
    {
      "Command": "pause",
      "Target": "6000",
      "Value": ""
    },
    {
      "Command": "verifyText",
      "Target": "//div[@id='ctl00_ContentPlaceHolder1_MessageBox1_MessageAllignment']/span",
      "Value": "Save Successful!"
    },
    {
      "Command": "click",
      "Target": "//div[@id='ctl00_ContentPlaceHolder1_MessageBox1_MessagePanel']/div/center/div/input",
      "Value": "Ok"
    },
    {
      "Command": "pause",
      "Target": "1000",
      "Value": ""
    },
    {
      "Command": "click",
      "Target": "id=ctl00_ContentPlaceHolder1_imgAdd2",
      "Value": "Add"
    },
    {
      "Command": "pause",
      "Target": "4000",
      "Value": ""
    },
    {
      "Command": "type",
      "Target": "//div[@id='ctl00_ContentPlaceHolder1_NoteUpdatePanel']/table/tbody/tr[2]/td/fieldset/table/tbody/tr/td[2]/input",
      "Value": "QA_14"
    },
    {
      "Command": "type",
      "Target": "//div[@id='ctl00_ContentPlaceHolder1_NoteUpdatePanel']/table/tbody/tr[2]/td/fieldset/table/tbody/tr[2]/td[2]/input",
      "Value": "QA_14_ Full_Name"
    },
    {
      "Command": "type",
      "Target": "//div[@id='ctl00_ContentPlaceHolder1_NoteUpdatePanel']/table/tbody/tr[2]/td/fieldset/table/tbody/tr[3]/td[2]/input",
      "Value": "planet.ten@gmail.com4"
    },
    {
      "Command": "type",
      "Target": "//tr[@id='ctl00_ContentPlaceHolder1_trPassword']/td[2]/input",
      "Value": "planet.ten@gmail.com4"
    },
    {
      "Command": "type",
      "Target": "//tr[@id='ctl00_ContentPlaceHolder1_trConfirmPassword']/td[2]/input",
      "Value": "planet.ten@gmail.com4"
    },
    {
      "Command": "click",
      "Target": "xpath=(//label[text()='Analysts'])",
      "Value": "Analysts"
    },
    {
      "Command": "click",
      "Target": "xpath=(//label[text()='Analyst'])",
      "Value": "Analyst"
    },
    {
      "Command": "click",
      "Target": "//div[@id='ctl00_ContentPlaceHolder1_NoteUpdatePanel']/table/tbody/tr/td/div/table/tbody/tr/td/input",
      "Value": "Save"
    },
    {
      "Command": "pause",
      "Target": "6000",
      "Value": ""
    },
    {
      "Command": "verifyText",
      "Target": "//div[@id='ctl00_ContentPlaceHolder1_MessageBox1_MessageAllignment']/span",
      "Value": "Save Successful!"
    },
    {
      "Command": "click",
      "Target": "//div[@id='ctl00_ContentPlaceHolder1_MessageBox1_MessagePanel']/div/center/div/input",
      "Value": "Ok"
    },
    {
      "Command": "pause",
      "Target": "3000",
      "Value": ""
    },
    {
      "Command": "click",
      "Target": "id=ctl00_ContentPlaceHolder1_imgAdd2",
      "Value": "Add"
    },
    {
      "Command": "pause",
      "Target": "4000",
      "Value": ""
    },
    {
      "Command": "type",
      "Target": "//div[@id='ctl00_ContentPlaceHolder1_NoteUpdatePanel']/table/tbody/tr[2]/td/fieldset/table/tbody/tr/td[2]/input",
      "Value": "qa5@पीएई.कॉम"
    },
    {
      "Command": "type",
      "Target": "//div[@id='ctl00_ContentPlaceHolder1_NoteUpdatePanel']/table/tbody/tr[2]/td/fieldset/table/tbody/tr[2]/td[2]/input",
      "Value": "qa5@पीएई.कॉम_ Full_Name"
    },
    {
      "Command": "type",
      "Target": "//div[@id='ctl00_ContentPlaceHolder1_NoteUpdatePanel']/table/tbody/tr[2]/td/fieldset/table/tbody/tr[3]/td[2]/input",
      "Value": "planet.ten@gmail.com5"
    },
    {
      "Command": "type",
      "Target": "//tr[@id='ctl00_ContentPlaceHolder1_trPassword']/td[2]/input",
      "Value": "planet.ten@gmail.com5"
    },
    {
      "Command": "type",
      "Target": "//tr[@id='ctl00_ContentPlaceHolder1_trConfirmPassword']/td[2]/input",
      "Value": "planet.ten@gmail.com5"
    },
    {
      "Command": "click",
      "Target": "xpath=(//label[text()='Risk Administration'])",
      "Value": "Risk Administration"
    },
    {
      "Command": "click",
      "Target": "xpath=(//label[text()='Risk Assessment Administrator'])",
      "Value": "Risk Assessment Administrator"
    },
    {
      "Command": "click",
      "Target": "//div[@id='ctl00_ContentPlaceHolder1_NoteUpdatePanel']/table/tbody/tr/td/div/table/tbody/tr/td/input",
      "Value": "Save"
    },
    {
      "Command": "pause",
      "Target": "6000",
      "Value": ""
    },
    {
      "Command": "verifyText",
      "Target": "//div[@id='ctl00_ContentPlaceHolder1_MessageBox1_MessageAllignment']/span",
      "Value": "Save Successful!"
    },
    {
      "Command": "click",
      "Target": "//div[@id='ctl00_ContentPlaceHolder1_MessageBox1_MessagePanel']/div/center/div/input",
      "Value": "Ok"
    },
    {
      "Command": "pause",
      "Target": "1000",
      "Value": ""
    },
    {
      "Command": "click",
      "Target": "id=ctl00_ContentPlaceHolder1_imgAdd2",
      "Value": "Add"
    },
    {
      "Command": "pause",
      "Target": "4000",
      "Value": ""
    },
    {
      "Command": "type",
      "Target": "//div[@id='ctl00_ContentPlaceHolder1_NoteUpdatePanel']/table/tbody/tr[2]/td/fieldset/table/tbody/tr/td[2]/input",
      "Value": "QA_16"
    },
    {
      "Command": "type",
      "Target": "//div[@id='ctl00_ContentPlaceHolder1_NoteUpdatePanel']/table/tbody/tr[2]/td/fieldset/table/tbody/tr[2]/td[2]/input",
      "Value": "QA_16_ Full_Name"
    },
    {
      "Command": "type",
      "Target": "//div[@id='ctl00_ContentPlaceHolder1_NoteUpdatePanel']/table/tbody/tr[2]/td/fieldset/table/tbody/tr[3]/td[2]/input",
      "Value": "planet.ten@gmail.com6"
    },
    {
      "Command": "type",
      "Target": "//tr[@id='ctl00_ContentPlaceHolder1_trPassword']/td[2]/input",
      "Value": "planet.ten@gmail.com6"
    },
    {
      "Command": "type",
      "Target": "//tr[@id='ctl00_ContentPlaceHolder1_trConfirmPassword']/td[2]/input",
      "Value": "planet.ten@gmail.com6"
    },
    {
      "Command": "click",
      "Target": "xpath=(//label[text()='Analysts'])",
      "Value": "Analysts"
    },
    {
      "Command": "click",
      "Target": "xpath=(//label[text()='Analyst'])",
      "Value": "Analyst"
    },
    {
      "Command": "click",
      "Target": "//div[@id='ctl00_ContentPlaceHolder1_NoteUpdatePanel']/table/tbody/tr/td/div/table/tbody/tr/td/input",
      "Value": "Save"
    },
    {
      "Command": "pause",
      "Target": "6000",
      "Value": ""
    },
    {
      "Command": "verifyText",
      "Target": "//div[@id='ctl00_ContentPlaceHolder1_MessageBox1_MessageAllignment']/span",
      "Value": "Save Successful!"
    },
    {
      "Command": "click",
      "Target": "//div[@id='ctl00_ContentPlaceHolder1_MessageBox1_MessagePanel']/div/center/div/input",
      "Value": "Ok"
    },
    {
      "Command": "pause",
      "Target": "3000",
      "Value": ""
    },
    {
      "Command": "click",
      "Target": "id=ctl00_ContentPlaceHolder1_imgAdd2",
      "Value": "Add"
    },
    {
      "Command": "pause",
      "Target": "4000",
      "Value": ""
    },
    {
      "Command": "type",
      "Target": "//div[@id='ctl00_ContentPlaceHolder1_NoteUpdatePanel']/table/tbody/tr[2]/td/fieldset/table/tbody/tr/td[2]/input",
      "Value": "qa7@पीएई.कॉम"
    },
    {
      "Command": "type",
      "Target": "//div[@id='ctl00_ContentPlaceHolder1_NoteUpdatePanel']/table/tbody/tr[2]/td/fieldset/table/tbody/tr[2]/td[2]/input",
      "Value": "qa7@पीएई.कॉम_ Full_Name"
    },
    {
      "Command": "type",
      "Target": "//div[@id='ctl00_ContentPlaceHolder1_NoteUpdatePanel']/table/tbody/tr[2]/td/fieldset/table/tbody/tr[3]/td[2]/input",
      "Value": "planet.ten@gmail.com7"
    },
    {
      "Command": "type",
      "Target": "//tr[@id='ctl00_ContentPlaceHolder1_trPassword']/td[2]/input",
      "Value": "planet.ten@gmail.com7"
    },
    {
      "Command": "type",
      "Target": "//tr[@id='ctl00_ContentPlaceHolder1_trConfirmPassword']/td[2]/input",
      "Value": "planet.ten@gmail.com7"
    },
    {
      "Command": "click",
      "Target": "xpath=(//label[text()='Risk Administration'])",
      "Value": "Risk Administration"
    },
    {
      "Command": "click",
      "Target": "xpath=(//label[text()='Risk Assessment Administrator'])",
      "Value": "Risk Assessment Administrator"
    },
    {
      "Command": "click",
      "Target": "//div[@id='ctl00_ContentPlaceHolder1_NoteUpdatePanel']/table/tbody/tr/td/div/table/tbody/tr/td/input",
      "Value": "Save"
    },
    {
      "Command": "pause",
      "Target": "6000",
      "Value": ""
    },
    {
      "Command": "verifyText",
      "Target": "//div[@id='ctl00_ContentPlaceHolder1_MessageBox1_MessageAllignment']/span",
      "Value": "Save Successful!"
    },
    {
      "Command": "click",
      "Target": "//div[@id='ctl00_ContentPlaceHolder1_MessageBox1_MessagePanel']/div/center/div/input",
      "Value": "Ok"
    },
    {
      "Command": "pause",
      "Target": "1000",
      "Value": ""
    },
    {
      "Command": "click",
      "Target": "id=ctl00_ContentPlaceHolder1_imgAdd2",
      "Value": "Add"
    },
    {
      "Command": "pause",
      "Target": "4000",
      "Value": ""
    },
    {
      "Command": "type",
      "Target": "//div[@id='ctl00_ContentPlaceHolder1_NoteUpdatePanel']/table/tbody/tr[2]/td/fieldset/table/tbody/tr/td[2]/input",
      "Value": "QA_18"
    },
    {
      "Command": "type",
      "Target": "//div[@id='ctl00_ContentPlaceHolder1_NoteUpdatePanel']/table/tbody/tr[2]/td/fieldset/table/tbody/tr[2]/td[2]/input",
      "Value": "QA_18_ Full_Name"
    },
    {
      "Command": "type",
      "Target": "//div[@id='ctl00_ContentPlaceHolder1_NoteUpdatePanel']/table/tbody/tr[2]/td/fieldset/table/tbody/tr[3]/td[2]/input",
      "Value": "planet.ten@gmail.com8"
    },
    {
      "Command": "type",
      "Target": "//tr[@id='ctl00_ContentPlaceHolder1_trPassword']/td[2]/input",
      "Value": "planet.ten@gmail.com8"
    },
    {
      "Command": "type",
      "Target": "//tr[@id='ctl00_ContentPlaceHolder1_trConfirmPassword']/td[2]/input",
      "Value": "planet.ten@gmail.com8"
    },
    {
      "Command": "click",
      "Target": "xpath=(//label[text()='Senior Analysts'])",
      "Value": "Senior Analysts"
    },
    {
      "Command": "click",
      "Target": "xpath=(//label[text()='Senior Analyst'])",
      "Value": "Senior Analyst"
    },
    {
      "Command": "click",
      "Target": "//div[@id='ctl00_ContentPlaceHolder1_NoteUpdatePanel']/table/tbody/tr/td/div/table/tbody/tr/td/input",
      "Value": "Save"
    },
    {
      "Command": "pause",
      "Target": "6000",
      "Value": ""
    },
    {
      "Command": "verifyText",
      "Target": "//div[@id='ctl00_ContentPlaceHolder1_MessageBox1_MessageAllignment']/span",
      "Value": "Save Successful!"
    },
    {
      "Command": "click",
      "Target": "//div[@id='ctl00_ContentPlaceHolder1_MessageBox1_MessagePanel']/div/center/div/input",
      "Value": "Ok"
    },
    {
      "Command": "pause",
      "Target": "3000",
      "Value": ""
    },
    {
      "Command": "click",
      "Target": "id=ctl00_ContentPlaceHolder1_imgAdd2",
      "Value": "Add"
    },
    {
      "Command": "pause",
      "Target": "4000",
      "Value": ""
    },
    {
      "Command": "type",
      "Target": "//div[@id='ctl00_ContentPlaceHolder1_NoteUpdatePanel']/table/tbody/tr[2]/td/fieldset/table/tbody/tr/td[2]/input",
      "Value": "qa9@पीएई.कॉम"
    },
    {
      "Command": "type",
      "Target": "//div[@id='ctl00_ContentPlaceHolder1_NoteUpdatePanel']/table/tbody/tr[2]/td/fieldset/table/tbody/tr[2]/td[2]/input",
      "Value": "qa9@पीएई.कॉम_ Full_Name"
    },
    {
      "Command": "type",
      "Target": "//div[@id='ctl00_ContentPlaceHolder1_NoteUpdatePanel']/table/tbody/tr[2]/td/fieldset/table/tbody/tr[3]/td[2]/input",
      "Value": "planet.ten@gmail.com9"
    },
    {
      "Command": "type",
      "Target": "//tr[@id='ctl00_ContentPlaceHolder1_trPassword']/td[2]/input",
      "Value": "planet.ten@gmail.com9"
    },
    {
      "Command": "type",
      "Target": "//tr[@id='ctl00_ContentPlaceHolder1_trConfirmPassword']/td[2]/input",
      "Value": "planet.ten@gmail.com9"
    },
    {
      "Command": "click",
      "Target": "xpath=(//label[text()='Senior Analysts'])",
      "Value": "Senior Analysts"
    },
    {
      "Command": "click",
      "Target": "xpath=(//label[text()='Senior Analyst'])",
      "Value": "Senior Analyst"
    },
    {
      "Command": "click",
      "Target": "//div[@id='ctl00_ContentPlaceHolder1_NoteUpdatePanel']/table/tbody/tr/td/div/table/tbody/tr/td/input",
      "Value": "Save"
    },
    {
      "Command": "pause",
      "Target": "6000",
      "Value": ""
    },
    {
      "Command": "verifyText",
      "Target": "//div[@id='ctl00_ContentPlaceHolder1_MessageBox1_MessageAllignment']/span",
      "Value": "Save Successful!"
    },
    {
      "Command": "click",
      "Target": "//div[@id='ctl00_ContentPlaceHolder1_MessageBox1_MessagePanel']/div/center/div/input",
      "Value": "Ok"
    },
    {
      "Command": "pause",
      "Target": "1000",
      "Value": ""
    },
    {
      "Command": "click",
      "Target": "id=ctl00_ContentPlaceHolder1_imgAdd2",
      "Value": "Add"
    },
    {
      "Command": "pause",
      "Target": "4000",
      "Value": ""
    },
    {
      "Command": "type",
      "Target": "//div[@id='ctl00_ContentPlaceHolder1_NoteUpdatePanel']/table/tbody/tr[2]/td/fieldset/table/tbody/tr/td[2]/input",
      "Value": "QA_20"
    },
    {
      "Command": "type",
      "Target": "//div[@id='ctl00_ContentPlaceHolder1_NoteUpdatePanel']/table/tbody/tr[2]/td/fieldset/table/tbody/tr[2]/td[2]/input",
      "Value": "QA_20_ Full_Name"
    },
    {
      "Command": "type",
      "Target": "//div[@id='ctl00_ContentPlaceHolder1_NoteUpdatePanel']/table/tbody/tr[2]/td/fieldset/table/tbody/tr[3]/td[2]/input",
      "Value": "planet.ten@gmail.com20"
    },
    {
      "Command": "type",
      "Target": "//tr[@id='ctl00_ContentPlaceHolder1_trPassword']/td[2]/input",
      "Value": "planet.ten@gmail.com20"
    },
    {
      "Command": "type",
      "Target": "//tr[@id='ctl00_ContentPlaceHolder1_trConfirmPassword']/td[2]/input",
      "Value": "planet.ten@gmail.com20"
    },
    {
      "Command": "click",
      "Target": "xpath=(//label[text()='View Only Team'])",
      "Value": "View Only Team"
    },
    {
      "Command": "click",
      "Target": "xpath=(//label[text()='Senior Analyst'])",
      "Value": "Senior Analyst"
    },
    {
      "Command": "click",
      "Target": "//div[@id='ctl00_ContentPlaceHolder1_NoteUpdatePanel']/table/tbody/tr/td/div/table/tbody/tr/td/input",
      "Value": "Save"
    },
    {
      "Command": "pause",
      "Target": "6000",
      "Value": ""
    },
    {
      "Command": "verifyText",
      "Target": "//div[@id='ctl00_ContentPlaceHolder1_MessageBox1_MessageAllignment']/span",
      "Value": "Save Successful!"
    },
    {
      "Command": "click",
      "Target": "//div[@id='ctl00_ContentPlaceHolder1_MessageBox1_MessagePanel']/div/center/div/input",
      "Value": "Ok"
    },
    {
      "Command": "pause",
      "Target": "3000",
      "Value": ""
    },
    {
      "Command": "click",
      "Target": "id=ctl00_ContentPlaceHolder1_imgAdd2",
      "Value": "Add"
    },
    {
      "Command": "pause",
      "Target": "4000",
      "Value": ""
    },
    {
      "Command": "type",
      "Target": "//div[@id='ctl00_ContentPlaceHolder1_NoteUpdatePanel']/table/tbody/tr[2]/td/fieldset/table/tbody/tr/td[2]/input",
      "Value": "qa10@पीएई.कॉम"
    },
    {
      "Command": "type",
      "Target": "//div[@id='ctl00_ContentPlaceHolder1_NoteUpdatePanel']/table/tbody/tr[2]/td/fieldset/table/tbody/tr[2]/td[2]/input",
      "Value": "qa10@पीएई.कॉम_ Full_Name"
    },
    {
      "Command": "type",
      "Target": "//div[@id='ctl00_ContentPlaceHolder1_NoteUpdatePanel']/table/tbody/tr[2]/td/fieldset/table/tbody/tr[3]/td[2]/input",
      "Value": "planet.ten@gmail.com10"
    },
    {
      "Command": "type",
      "Target": "//tr[@id='ctl00_ContentPlaceHolder1_trPassword']/td[2]/input",
      "Value": "planet.ten@gmail.com10"
    },
    {
      "Command": "type",
      "Target": "//tr[@id='ctl00_ContentPlaceHolder1_trConfirmPassword']/td[2]/input",
      "Value": "planet.ten@gmail.com10"
    },
    {
      "Command": "click",
      "Target": "xpath=(//label[text()='Administration'])",
      "Value": "Administration"
    },
    {
      "Command": "click",
      "Target": "xpath=(//label[text()='Senior Analyst'])",
      "Value": "Senior Analyst"
    },
    {
      "Command": "click",
      "Target": "//div[@id='ctl00_ContentPlaceHolder1_NoteUpdatePanel']/table/tbody/tr/td/div/table/tbody/tr/td/input",
      "Value": "Save"
    },
    {
      "Command": "pause",
      "Target": "6000",
      "Value": ""
    },
    {
      "Command": "verifyText",
      "Target": "//div[@id='ctl00_ContentPlaceHolder1_MessageBox1_MessageAllignment']/span",
      "Value": "Save Successful!"
    },
    {
      "Command": "click",
      "Target": "//div[@id='ctl00_ContentPlaceHolder1_MessageBox1_MessagePanel']/div/center/div/input",
      "Value": "Ok"
    },
    {
      "Command": "pause",
      "Target": "1000",
      "Value": ""
    },
    {
      "Command": "click",
      "Target": "//a",
      "Value": ""
    },
    {
      "Command": "pause",
      "Target": "2000",
      "Value": ""
    },
    {
      "Command": "selectWindow",
      "Target": "TAB=CLOSEALLOTHER",
      "Value": ""
    },
    {
      "Command": "refresh",
      "Target": "",
      "Value": ""
    },
    {
      "Command": "open",
      "Target": "https://10.200.225.14/VSSQA/Tools/UserSettings.aspx",
      "Value": ""
    },
    {
      "Command": "pause",
      "Target": "1000",
      "Value": ""
    },
    {
      "Command": "type",
      "Target": "//td[2]/input",
      "Value": "QA_12"
    },
    {
      "Command": "type",
      "Target": "//tr[2]/td[2]/input",
      "Value": "planet.ten@gmail.com2"
    },
    {
      "Command": "click",
      "Target": "//tr[4]/td/input",
      "Value": "Log In"
    },
    {
      "Command": "pause",
      "Target": "1000",
      "Value": ""
    },
    {
      "Command": "verifyText",
      "Target": "xpath=//*[@id=\"ctl00_ContentPlaceHolder1_ChangePanel\"]/div/center/table/tbody/tr[1]/td",
      "Value": "You must change your password."
    },
    {
      "Command": "verifyText",
      "Target": "xpath=//*[@id=\"ctl00_ContentPlaceHolder1_ChangePanel\"]/div/center/table/tbody/tr[2]/td[1]",
      "Value": "New Password:  "
    },
    {
      "Command": "verifyText",
      "Target": "xpath=//*[@id=\"ctl00_ContentPlaceHolder1_ChangePanel\"]/div/center/table/tbody/tr[3]/td[1]",
      "Value": "Confirm Password: "
    },
    {
      "Command": "click",
      "Target": "id=ctl00_ContentPlaceHolder1_PasswordText",
      "Value": ""
    },
    {
      "Command": "type",
      "Target": "id=ctl00_ContentPlaceHolder1_PasswordText",
      "Value": ".vss@2020"
    },
    {
      "Command": "click",
      "Target": "id=ctl00_ContentPlaceHolder1_ConfirmPasswordText",
      "Value": ""
    },
    {
      "Command": "type",
      "Target": "id=ctl00_ContentPlaceHolder1_ConfirmPasswordText",
      "Value": ".vss@2020"
    },
    {
      "Command": "click",
      "Target": "id=ctl00_ContentPlaceHolder1_OkChange",
      "Value": "Ok"
    },
    {
      "Command": "pause",
      "Target": "9000",
      "Value": ""
    },
    {
      "Command": "click",
      "Target": "//a",
      "Value": ""
    },
    {
      "Command": "pause",
      "Target": "2000",
      "Value": ""
    },
    {
      "Command": "selectWindow",
      "Target": "TAB=CLOSEALLOTHER",
      "Value": ""
    },
    {
      "Command": "refresh",
      "Target": "",
      "Value": ""
    },
    {
      "Command": "pause",
      "Target": "2000",
      "Value": ""
    },
    {
      "Command": "open",
      "Target": "https://10.200.225.14/VSSQA/Tools/UserSettings.aspx",
      "Value": ""
    },
    {
      "Command": "pause",
      "Target": "2000",
      "Value": ""
    },
    {
      "Command": "type",
      "Target": "//td[2]/input",
      "Value": "qa3@पीएई.कॉम"
    },
    {
      "Command": "type",
      "Target": "//tr[2]/td[2]/input",
      "Value": "planet.ten@gmail.com3"
    },
    {
      "Command": "click",
      "Target": "//tr[4]/td/input",
      "Value": "Log In"
    },
    {
      "Command": "pause",
      "Target": "3000",
      "Value": ""
    },
    {
      "Command": "verifyText",
      "Target": "xpath=//*[@id=\"ctl00_ContentPlaceHolder1_ChangePanel\"]/div/center/table/tbody/tr[1]/td",
      "Value": "You must change your password."
    },
    {
      "Command": "verifyText",
      "Target": "xpath=//*[@id=\"ctl00_ContentPlaceHolder1_ChangePanel\"]/div/center/table/tbody/tr[2]/td[1]",
      "Value": "New Password:  "
    },
    {
      "Command": "verifyText",
      "Target": "xpath=//*[@id=\"ctl00_ContentPlaceHolder1_ChangePanel\"]/div/center/table/tbody/tr[3]/td[1]",
      "Value": "Confirm Password: "
    },
    {
      "Command": "click",
      "Target": "id=ctl00_ContentPlaceHolder1_PasswordText",
      "Value": ""
    },
    {
      "Command": "type",
      "Target": "id=ctl00_ContentPlaceHolder1_PasswordText",
      "Value": ".vss@2020"
    },
    {
      "Command": "click",
      "Target": "id=ctl00_ContentPlaceHolder1_ConfirmPasswordText",
      "Value": ""
    },
    {
      "Command": "type",
      "Target": "id=ctl00_ContentPlaceHolder1_ConfirmPasswordText",
      "Value": ".vss@2020"
    },
    {
      "Command": "click",
      "Target": "id=ctl00_ContentPlaceHolder1_OkChange",
      "Value": "Ok"
    },
    {
      "Command": "pause",
      "Target": "9000",
      "Value": ""
    },
    {
      "Command": "click",
      "Target": "//a",
      "Value": ""
    },
    {
      "Command": "pause",
      "Target": "2000",
      "Value": ""
    },
    {
      "Command": "refresh",
      "Target": "",
      "Value": ""
    },
    {
      "Command": "open",
      "Target": "https://10.200.225.14/VSSQA/Tools/UserSettings.aspx",
      "Value": ""
    },
    {
      "Command": "pause",
      "Target": "1000",
      "Value": ""
    },
    {
      "Command": "type",
      "Target": "//td[2]/input",
      "Value": "QA_14"
    },
    {
      "Command": "type",
      "Target": "//tr[2]/td[2]/input",
      "Value": "planet.ten@gmail.com4"
    },
    {
      "Command": "click",
      "Target": "//tr[4]/td/input",
      "Value": "Log In"
    },
    {
      "Command": "pause",
      "Target": "1000",
      "Value": ""
    },
    {
      "Command": "verifyText",
      "Target": "xpath=//*[@id=\"ctl00_ContentPlaceHolder1_ChangePanel\"]/div/center/table/tbody/tr[1]/td",
      "Value": "You must change your password."
    },
    {
      "Command": "verifyText",
      "Target": "xpath=//*[@id=\"ctl00_ContentPlaceHolder1_ChangePanel\"]/div/center/table/tbody/tr[2]/td[1]",
      "Value": "New Password:  "
    },
    {
      "Command": "verifyText",
      "Target": "xpath=//*[@id=\"ctl00_ContentPlaceHolder1_ChangePanel\"]/div/center/table/tbody/tr[3]/td[1]",
      "Value": "Confirm Password: "
    },
    {
      "Command": "click",
      "Target": "id=ctl00_ContentPlaceHolder1_PasswordText",
      "Value": ""
    },
    {
      "Command": "type",
      "Target": "id=ctl00_ContentPlaceHolder1_PasswordText",
      "Value": ".vss@2020"
    },
    {
      "Command": "click",
      "Target": "id=ctl00_ContentPlaceHolder1_ConfirmPasswordText",
      "Value": ""
    },
    {
      "Command": "type",
      "Target": "id=ctl00_ContentPlaceHolder1_ConfirmPasswordText",
      "Value": ".vss@2020"
    },
    {
      "Command": "click",
      "Target": "id=ctl00_ContentPlaceHolder1_OkChange",
      "Value": "Ok"
    },
    {
      "Command": "pause",
      "Target": "11000",
      "Value": ""
    },
    {
      "Command": "click",
      "Target": "//a",
      "Value": ""
    },
    {
      "Command": "pause",
      "Target": "2000",
      "Value": ""
    },
    {
      "Command": "refresh",
      "Target": "",
      "Value": ""
    },
    {
      "Command": "pause",
      "Target": "2000",
      "Value": ""
    },
    {
      "Command": "open",
      "Target": "https://10.200.225.14/VSSQA/Tools/UserSettings.aspx",
      "Value": ""
    },
    {
      "Command": "pause",
      "Target": "2000",
      "Value": ""
    },
    {
      "Command": "type",
      "Target": "//td[2]/input",
      "Value": "qa5@पीएई.कॉम"
    },
    {
      "Command": "type",
      "Target": "//tr[2]/td[2]/input",
      "Value": "planet.ten@gmail.com5"
    },
    {
      "Command": "click",
      "Target": "//tr[4]/td/input",
      "Value": "Log In"
    },
    {
      "Command": "pause",
      "Target": "3000",
      "Value": ""
    },
    {
      "Command": "verifyText",
      "Target": "xpath=//*[@id=\"ctl00_ContentPlaceHolder1_ChangePanel\"]/div/center/table/tbody/tr[1]/td",
      "Value": "You must change your password."
    },
    {
      "Command": "verifyText",
      "Target": "xpath=//*[@id=\"ctl00_ContentPlaceHolder1_ChangePanel\"]/div/center/table/tbody/tr[2]/td[1]",
      "Value": "New Password:  "
    },
    {
      "Command": "verifyText",
      "Target": "xpath=//*[@id=\"ctl00_ContentPlaceHolder1_ChangePanel\"]/div/center/table/tbody/tr[3]/td[1]",
      "Value": "Confirm Password: "
    },
    {
      "Command": "click",
      "Target": "id=ctl00_ContentPlaceHolder1_PasswordText",
      "Value": ""
    },
    {
      "Command": "type",
      "Target": "id=ctl00_ContentPlaceHolder1_PasswordText",
      "Value": ".vss@2020"
    },
    {
      "Command": "click",
      "Target": "id=ctl00_ContentPlaceHolder1_ConfirmPasswordText",
      "Value": ""
    },
    {
      "Command": "type",
      "Target": "id=ctl00_ContentPlaceHolder1_ConfirmPasswordText",
      "Value": ".vss@2020"
    },
    {
      "Command": "click",
      "Target": "id=ctl00_ContentPlaceHolder1_OkChange",
      "Value": "Ok"
    },
    {
      "Command": "pause",
      "Target": "11000",
      "Value": ""
    },
    {
      "Command": "click",
      "Target": "//a",
      "Value": ""
    },
    {
      "Command": "pause",
      "Target": "3000",
      "Value": ""
    },
    {
      "Command": "refresh",
      "Target": "",
      "Value": ""
    },
    {
      "Command": "pause",
      "Target": "2000",
      "Value": ""
    },
    {
      "Command": "open",
      "Target": "https://10.200.225.14/VSSQA/Tools/UserSettings.aspx",
      "Value": ""
    },
    {
      "Command": "pause",
      "Target": "2000",
      "Value": ""
    },
    {
      "Command": "type",
      "Target": "//td[2]/input",
      "Value": "QA_16"
    },
    {
      "Command": "type",
      "Target": "//tr[2]/td[2]/input",
      "Value": "planet.ten@gmail.com6"
    },
    {
      "Command": "click",
      "Target": "//tr[4]/td/input",
      "Value": "Log In"
    },
    {
      "Command": "pause",
      "Target": "1000",
      "Value": ""
    },
    {
      "Command": "verifyText",
      "Target": "xpath=//*[@id=\"ctl00_ContentPlaceHolder1_ChangePanel\"]/div/center/table/tbody/tr[1]/td",
      "Value": "You must change your password."
    },
    {
      "Command": "verifyText",
      "Target": "xpath=//*[@id=\"ctl00_ContentPlaceHolder1_ChangePanel\"]/div/center/table/tbody/tr[2]/td[1]",
      "Value": "New Password:  "
    },
    {
      "Command": "verifyText",
      "Target": "xpath=//*[@id=\"ctl00_ContentPlaceHolder1_ChangePanel\"]/div/center/table/tbody/tr[3]/td[1]",
      "Value": "Confirm Password: "
    },
    {
      "Command": "click",
      "Target": "id=ctl00_ContentPlaceHolder1_PasswordText",
      "Value": ""
    },
    {
      "Command": "type",
      "Target": "id=ctl00_ContentPlaceHolder1_PasswordText",
      "Value": ".vss@2020"
    },
    {
      "Command": "click",
      "Target": "id=ctl00_ContentPlaceHolder1_ConfirmPasswordText",
      "Value": ""
    },
    {
      "Command": "type",
      "Target": "id=ctl00_ContentPlaceHolder1_ConfirmPasswordText",
      "Value": ".vss@2020"
    },
    {
      "Command": "click",
      "Target": "id=ctl00_ContentPlaceHolder1_OkChange",
      "Value": "Ok"
    },
    {
      "Command": "pause",
      "Target": "9000",
      "Value": ""
    },
    {
      "Command": "click",
      "Target": "//a",
      "Value": ""
    },
    {
      "Command": "pause",
      "Target": "2000",
      "Value": ""
    },
    {
      "Command": "refresh",
      "Target": "",
      "Value": ""
    },
    {
      "Command": "pause",
      "Target": "2000",
      "Value": ""
    },
    {
      "Command": "open",
      "Target": "https://10.200.225.14/VSSQA/Tools/UserSettings.aspx",
      "Value": ""
    },
    {
      "Command": "pause",
      "Target": "1000",
      "Value": ""
    },
    {
      "Command": "type",
      "Target": "//td[2]/input",
      "Value": "qa7@पीएई.कॉम"
    },
    {
      "Command": "type",
      "Target": "//tr[2]/td[2]/input",
      "Value": "planet.ten@gmail.com7"
    },
    {
      "Command": "click",
      "Target": "//tr[4]/td/input",
      "Value": "Log In"
    },
    {
      "Command": "pause",
      "Target": "3000",
      "Value": ""
    },
    {
      "Command": "verifyText",
      "Target": "xpath=//*[@id=\"ctl00_ContentPlaceHolder1_ChangePanel\"]/div/center/table/tbody/tr[1]/td",
      "Value": "You must change your password."
    },
    {
      "Command": "verifyText",
      "Target": "xpath=//*[@id=\"ctl00_ContentPlaceHolder1_ChangePanel\"]/div/center/table/tbody/tr[2]/td[1]",
      "Value": "New Password:  "
    },
    {
      "Command": "verifyText",
      "Target": "xpath=//*[@id=\"ctl00_ContentPlaceHolder1_ChangePanel\"]/div/center/table/tbody/tr[3]/td[1]",
      "Value": "Confirm Password: "
    },
    {
      "Command": "click",
      "Target": "id=ctl00_ContentPlaceHolder1_PasswordText",
      "Value": ""
    },
    {
      "Command": "type",
      "Target": "id=ctl00_ContentPlaceHolder1_PasswordText",
      "Value": ".vss@2020"
    },
    {
      "Command": "click",
      "Target": "id=ctl00_ContentPlaceHolder1_ConfirmPasswordText",
      "Value": ""
    },
    {
      "Command": "type",
      "Target": "id=ctl00_ContentPlaceHolder1_ConfirmPasswordText",
      "Value": ".vss@2020"
    },
    {
      "Command": "click",
      "Target": "id=ctl00_ContentPlaceHolder1_OkChange",
      "Value": "Ok"
    },
    {
      "Command": "pause",
      "Target": "9000",
      "Value": ""
    },
    {
      "Command": "click",
      "Target": "//a",
      "Value": ""
    },
    {
      "Command": "pause",
      "Target": "3000",
      "Value": ""
    },
    {
      "Command": "refresh",
      "Target": "",
      "Value": ""
    },
    {
      "Command": "pause",
      "Target": "1000",
      "Value": ""
    },
    {
      "Command": "open",
      "Target": "https://10.200.225.14/VSSQA/Tools/UserSettings.aspx",
      "Value": ""
    },
    {
      "Command": "pause",
      "Target": "2000",
      "Value": ""
    },
    {
      "Command": "type",
      "Target": "//td[2]/input",
      "Value": "QA_18"
    },
    {
      "Command": "type",
      "Target": "//tr[2]/td[2]/input",
      "Value": "planet.ten@gmail.com8"
    },
    {
      "Command": "click",
      "Target": "//tr[4]/td/input",
      "Value": "Log In"
    },
    {
      "Command": "pause",
      "Target": "1000",
      "Value": ""
    },
    {
      "Command": "comment",
      "Target": "xpath=//*[@id=\"ctl00_ContentPlaceHolder1_ChangePanel\"]/div/center/table/tbody/tr[1]/td",
      "Value": "You must change your password."
    },
    {
      "Command": "comment",
      "Target": "xpath=//*[@id=\"ctl00_ContentPlaceHolder1_ChangePanel\"]/div/center/table/tbody/tr[2]/td[1]",
      "Value": "New Password:  "
    },
    {
      "Command": "comment",
      "Target": "xpath=//*[@id=\"ctl00_ContentPlaceHolder1_ChangePanel\"]/div/center/table/tbody/tr[3]/td[1]",
      "Value": "Confirm Password: "
    },
    {
      "Command": "comment",
      "Target": "id=ctl00_ContentPlaceHolder1_PasswordText",
      "Value": ""
    },
    {
      "Command": "comment",
      "Target": "id=ctl00_ContentPlaceHolder1_PasswordText",
      "Value": ".vss@2020"
    },
    {
      "Command": "comment",
      "Target": "id=ctl00_ContentPlaceHolder1_ConfirmPasswordText",
      "Value": ""
    },
    {
      "Command": "comment",
      "Target": "id=ctl00_ContentPlaceHolder1_ConfirmPasswordText",
      "Value": ".vss@2020"
    },
    {
      "Command": "comment",
      "Target": "id=ctl00_ContentPlaceHolder1_OkChange",
      "Value": "Ok"
    },
    {
      "Command": "pause",
      "Target": "9000",
      "Value": ""
    },
    {
      "Command": "click",
      "Target": "//a",
      "Value": ""
    },
    {
      "Command": "pause",
      "Target": "3000",
      "Value": ""
    },
    {
      "Command": "refresh",
      "Target": "",
      "Value": ""
    },
    {
      "Command": "pause",
      "Target": "2000",
      "Value": ""
    },
    {
      "Command": "open",
      "Target": "https://10.200.225.14/VSSQA/Tools/UserSettings.aspx",
      "Value": ""
    },
    {
      "Command": "pause",
      "Target": "2000",
      "Value": ""
    },
    {
      "Command": "type",
      "Target": "//td[2]/input",
      "Value": "qa9@पीएई.कॉम"
    },
    {
      "Command": "type",
      "Target": "//tr[2]/td[2]/input",
      "Value": "planet.ten@gmail.com9"
    },
    {
      "Command": "click",
      "Target": "//tr[4]/td/input",
      "Value": "Log In"
    },
    {
      "Command": "pause",
      "Target": "3000",
      "Value": ""
    },
    {
      "Command": "comment",
      "Target": "xpath=//*[@id=\"ctl00_ContentPlaceHolder1_ChangePanel\"]/div/center/table/tbody/tr[1]/td",
      "Value": "You must change your password."
    },
    {
      "Command": "comment",
      "Target": "xpath=//*[@id=\"ctl00_ContentPlaceHolder1_ChangePanel\"]/div/center/table/tbody/tr[2]/td[1]",
      "Value": "New Password:  "
    },
    {
      "Command": "comment",
      "Target": "xpath=//*[@id=\"ctl00_ContentPlaceHolder1_ChangePanel\"]/div/center/table/tbody/tr[3]/td[1]",
      "Value": "Confirm Password: "
    },
    {
      "Command": "comment",
      "Target": "id=ctl00_ContentPlaceHolder1_PasswordText",
      "Value": ""
    },
    {
      "Command": "comment",
      "Target": "id=ctl00_ContentPlaceHolder1_PasswordText",
      "Value": ".vss@2020"
    },
    {
      "Command": "comment",
      "Target": "id=ctl00_ContentPlaceHolder1_ConfirmPasswordText",
      "Value": ""
    },
    {
      "Command": "comment",
      "Target": "id=ctl00_ContentPlaceHolder1_ConfirmPasswordText",
      "Value": ".vss@2020"
    },
    {
      "Command": "comment",
      "Target": "id=ctl00_ContentPlaceHolder1_OkChange",
      "Value": "Ok"
    },
    {
      "Command": "pause",
      "Target": "9000",
      "Value": ""
    },
    {
      "Command": "click",
      "Target": "//a",
      "Value": ""
    },
    {
      "Command": "pause",
      "Target": "2000",
      "Value": ""
    },
    {
      "Command": "refresh",
      "Target": "",
      "Value": ""
    },
    {
      "Command": "pause",
      "Target": "2000",
      "Value": ""
    },
    {
      "Command": "open",
      "Target": "https://10.200.225.14/VSSQA/Tools/UserSettings.aspx",
      "Value": ""
    },
    {
      "Command": "pause",
      "Target": "2000",
      "Value": ""
    },
    {
      "Command": "type",
      "Target": "//td[2]/input",
      "Value": "QA_20"
    },
    {
      "Command": "type",
      "Target": "//tr[2]/td[2]/input",
      "Value": "planet.ten@gmail.com20"
    },
    {
      "Command": "click",
      "Target": "//tr[4]/td/input",
      "Value": "Log In"
    },
    {
      "Command": "pause",
      "Target": "1000",
      "Value": ""
    },
    {
      "Command": "verifyText",
      "Target": "xpath=//*[@id=\"ctl00_ContentPlaceHolder1_ChangePanel\"]/div/center/table/tbody/tr[1]/td",
      "Value": "You must change your password."
    },
    {
      "Command": "verifyText",
      "Target": "xpath=//*[@id=\"ctl00_ContentPlaceHolder1_ChangePanel\"]/div/center/table/tbody/tr[2]/td[1]",
      "Value": "New Password:  "
    },
    {
      "Command": "verifyText",
      "Target": "xpath=//*[@id=\"ctl00_ContentPlaceHolder1_ChangePanel\"]/div/center/table/tbody/tr[3]/td[1]",
      "Value": "Confirm Password: "
    },
    {
      "Command": "click",
      "Target": "id=ctl00_ContentPlaceHolder1_PasswordText",
      "Value": ""
    },
    {
      "Command": "type",
      "Target": "id=ctl00_ContentPlaceHolder1_PasswordText",
      "Value": ".vss@2020"
    },
    {
      "Command": "click",
      "Target": "id=ctl00_ContentPlaceHolder1_ConfirmPasswordText",
      "Value": ""
    },
    {
      "Command": "type",
      "Target": "id=ctl00_ContentPlaceHolder1_ConfirmPasswordText",
      "Value": ".vss@2020"
    },
    {
      "Command": "click",
      "Target": "id=ctl00_ContentPlaceHolder1_OkChange",
      "Value": "Ok"
    },
    {
      "Command": "pause",
      "Target": "9000",
      "Value": ""
    },
    {
      "Command": "click",
      "Target": "//a",
      "Value": ""
    },
    {
      "Command": "pause",
      "Target": "2000",
      "Value": ""
    },
    {
      "Command": "selectWindow",
      "Target": "TAB=CLOSEALLOTHER",
      "Value": ""
    },
    {
      "Command": "refresh",
      "Target": "",
      "Value": ""
    },
    {
      "Command": "pause",
      "Target": "2000",
      "Value": ""
    },
    {
      "Command": "open",
      "Target": "https://10.200.225.14/VSSQA/Tools/UserSettings.aspx",
      "Value": ""
    },
    {
      "Command": "pause",
      "Target": "2000",
      "Value": ""
    },
    {
      "Command": "type",
      "Target": "//td[2]/input",
      "Value": "qa10@पीएई.कॉम"
    },
    {
      "Command": "type",
      "Target": "//tr[2]/td[2]/input",
      "Value": "planet.ten@gmail.com10"
    },
    {
      "Command": "click",
      "Target": "//tr[4]/td/input",
      "Value": "Log In"
    },
    {
      "Command": "pause",
      "Target": "3000",
      "Value": ""
    },
    {
      "Command": "comment",
      "Target": "xpath=//*[@id=\"ctl00_ContentPlaceHolder1_ChangePanel\"]/div/center/table/tbody/tr[1]/td",
      "Value": "You must change your password."
    },
    {
      "Command": "comment",
      "Target": "xpath=//*[@id=\"ctl00_ContentPlaceHolder1_ChangePanel\"]/div/center/table/tbody/tr[2]/td[1]",
      "Value": "New Password:  "
    },
    {
      "Command": "comment",
      "Target": "xpath=//*[@id=\"ctl00_ContentPlaceHolder1_ChangePanel\"]/div/center/table/tbody/tr[3]/td[1]",
      "Value": "Confirm Password: "
    },
    {
      "Command": "comment",
      "Target": "id=ctl00_ContentPlaceHolder1_PasswordText",
      "Value": ""
    },
    {
      "Command": "comment",
      "Target": "id=ctl00_ContentPlaceHolder1_PasswordText",
      "Value": ".vss@2020"
    },
    {
      "Command": "comment",
      "Target": "id=ctl00_ContentPlaceHolder1_ConfirmPasswordText",
      "Value": ""
    },
    {
      "Command": "comment",
      "Target": "id=ctl00_ContentPlaceHolder1_ConfirmPasswordText",
      "Value": ".vss@2020"
    },
    {
      "Command": "comment",
      "Target": "id=ctl00_ContentPlaceHolder1_OkChange",
      "Value": "Ok"
    },
    {
      "Command": "pause",
      "Target": "9000",
      "Value": ""
    },
    {
      "Command": "click",
      "Target": "//a",
      "Value": ""
    },
    {
      "Command": "pause",
      "Target": "2000",
      "Value": ""
    },
    {
      "Command": "selectWindow",
      "Target": "TAB=CLOSEALLOTHER",
      "Value": ""
    },
    {
      "Command": "refresh",
      "Target": "",
      "Value": ""
    }
  ]
}