{
  "Name": "_vqa_VD_07A_details_Sanctions Compliance",
  "CreationDate": "2020-4-3",
  "Commands": [
    {
      "Command": "open",
      "Target": "https://10.200.225.14/VSSQA/Vessels/VesselDetails.aspx?imo=1000124&A_Src=_Vessel_Data_Viewer",
      "Value": ""
    },
    {
      "Command": "pause",
      "Target": "1000",
      "Value": ""
    },
    {
      "Command": "type",
      "Target": "//td[2]/input",
      "Value": "QA_11"
    },
    {
      "Command": "type",
      "Target": "//tr[2]/td[2]/input",
      "Value": ".vss@2019"
    },
    {
      "Command": "click",
      "Target": "//tr[4]/td/input",
      "Value": "Log In"
    },
    {
      "Command": "pause",
      "Target": "3000",
      "Value": ""
    },
    {
      "Command": "comment",
      "Target": "//span[8]/span/span/a/span",
      "Value": "Sanctions Compliance"
    },
    {
      "Command": "comment",
      "Target": "//span[8]/span/span/a/span",
      "Value": ""
    },
    {
      "Command": "pause",
      "Target": "2000",
      "Value": ""
    },
    {
      "Command": "comment",
      "Target": "xpath=//*[@id=\"ctl00_ContentPlaceHolder1_Details1_TabContainer1_SanctionsCompliance_SanctionsData\"]/tbody/tr[1]/td[1]",
      "Value": "Overall Sanctions Compliance:"
    },
    {
      "Command": "comment",
      "Target": "xpath=//*[@id=\"ctl00_ContentPlaceHolder1_Details1_TabContainer1_SanctionsCompliance_SanctionsData\"]/tbody/tr[1]/td[2]",
      "Value": "OK"
    },
    {
      "Command": "comment",
      "Target": "xpath=//*[@id=\"ctl00_ContentPlaceHolder1_Details1_TabContainer1_SanctionsCompliance_SanctionsData\"]/tbody/tr[2]/td[1]",
      "Value": "Ship on OFAC Sanctions List:"
    },
    {
      "Command": "comment",
      "Target": "xpath=//*[@id=\"ctl00_ContentPlaceHolder1_Details1_TabContainer1_SanctionsCompliance_SanctionsData\"]/tbody/tr[2]/td[2]",
      "Value": "No"
    },
    {
      "Command": "comment",
      "Target": "xpath=//*[@id=\"ctl00_ContentPlaceHolder1_Details1_TabContainer1_SanctionsCompliance_SanctionsData\"]/tbody/tr[3]/td[1]",
      "Value": "Ship on OFAC Non SDN Sanctions List:\t"
    },
    {
      "Command": "comment",
      "Target": "xpath=//*[@id=\"ctl00_ContentPlaceHolder1_Details1_TabContainer1_SanctionsCompliance_SanctionsData\"]/tbody/tr[3]/td[2]",
      "Value": "No"
    },
    {
      "Command": "comment",
      "Target": "xpath=//*[@id=\"ctl00_ContentPlaceHolder1_Details1_TabContainer1_SanctionsCompliance_SanctionsData\"]/tbody/tr[4]/td[1]",
      "Value": "Ship On UN Sanctions list:\t"
    },
    {
      "Command": "comment",
      "Target": "xpath=//*[@id=\"ctl00_ContentPlaceHolder1_Details1_TabContainer1_SanctionsCompliance_SanctionsData\"]/tbody/tr[4]/td[2]",
      "Value": "No"
    },
    {
      "Command": "comment",
      "Target": "xpath=//*[@id=\"ctl00_ContentPlaceHolder1_Details1_TabContainer1_SanctionsCompliance_SanctionsData\"]/tbody/tr[5]/td[1]",
      "Value": "Ship On EU Sanctions List:\t"
    },
    {
      "Command": "comment",
      "Target": "xpath=//*[@id=\"ctl00_ContentPlaceHolder1_Details1_TabContainer1_SanctionsCompliance_SanctionsData\"]/tbody/tr[5]/td[2]",
      "Value": "No"
    },
    {
      "Command": "comment",
      "Target": "xpath=//*[@id=\"ctl00_ContentPlaceHolder1_Details1_TabContainer1_SanctionsCompliance_SanctionsData\"]/tbody/tr[7]/td[1]",
      "Value": "Flag In Sanctioned Country:\t"
    },
    {
      "Command": "comment",
      "Target": "xpath=//*[@id=\"ctl00_ContentPlaceHolder1_Details1_TabContainer1_SanctionsCompliance_SanctionsData\"]/tbody/tr[7]/td[2]",
      "Value": "No"
    },
    {
      "Command": "comment",
      "Target": "xpath=//*[@id=\"ctl00_ContentPlaceHolder1_Details1_TabContainer1_SanctionsCompliance_SanctionsData\"]/tbody/tr[8]/td[1]",
      "Value": "Historical Flag in Sanctioned Country:"
    },
    {
      "Command": "comment",
      "Target": "xpath=//*[@id=\"ctl00_ContentPlaceHolder1_Details1_TabContainer1_SanctionsCompliance_SanctionsData\"]/tbody/tr[8]/td[2]",
      "Value": "No"
    },
    {
      "Command": "comment",
      "Target": "xpath=//*[@id=\"ctl00_ContentPlaceHolder1_Details1_TabContainer1_SanctionsCompliance_SanctionsData\"]/tbody/tr[9]/td[1]",
      "Value": "Flag Disputed:\t"
    },
    {
      "Command": "comment",
      "Target": "xpath=//*[@id=\"ctl00_ContentPlaceHolder1_Details1_TabContainer1_SanctionsCompliance_SanctionsData\"]/tbody/tr[9]/td[2]",
      "Value": "No\t"
    },
    {
      "Command": "comment",
      "Target": "xpath=//*[@id=\"ctl00_ContentPlaceHolder1_Details1_TabContainer1_SanctionsCompliance_SanctionsData\"]/tbody/tr[2]/td[3]",
      "Value": "Owner on OFAC Sanctions List:\t"
    },
    {
      "Command": "comment",
      "Target": "xpath=//*[@id=\"ctl00_ContentPlaceHolder1_Details1_TabContainer1_SanctionsCompliance_SanctionsData\"]/tbody/tr[2]/td[4]",
      "Value": "No"
    },
    {
      "Command": "comment",
      "Target": "xpath=//*[@id=\"ctl00_ContentPlaceHolder1_Details1_TabContainer1_SanctionsCompliance_SanctionsData\"]/tbody/tr[3]/td[3]",
      "Value": "Owner on UN Sanctions list:"
    },
    {
      "Command": "comment",
      "Target": "xpath=//*[@id=\"ctl00_ContentPlaceHolder1_Details1_TabContainer1_SanctionsCompliance_SanctionsData\"]/tbody/tr[3]/td[4]",
      "Value": "No\t"
    },
    {
      "Command": "comment",
      "Target": "xpath=//*[@id=\"ctl00_ContentPlaceHolder1_Details1_TabContainer1_SanctionsCompliance_SanctionsData\"]/tbody/tr[4]/td[3]",
      "Value": "Owner on EU Sanctions List:\t"
    },
    {
      "Command": "comment",
      "Target": "xpath=//*[@id=\"ctl00_ContentPlaceHolder1_Details1_TabContainer1_SanctionsCompliance_SanctionsData\"]/tbody/tr[4]/td[4]",
      "Value": "No"
    },
    {
      "Command": "comment",
      "Target": "xpath=//*[@id=\"ctl00_ContentPlaceHolder1_Details1_TabContainer1_SanctionsCompliance_SanctionsData\"]/tbody/tr[5]/td[3]",
      "Value": "Owner on BES Sanctions List:\t"
    },
    {
      "Command": "comment",
      "Target": "xpath=//*[@id=\"ctl00_ContentPlaceHolder1_Details1_TabContainer1_SanctionsCompliance_SanctionsData\"]/tbody/tr[5]/td[4]",
      "Value": "No"
    },
    {
      "Command": "comment",
      "Target": "xpath=//*[@id=\"ctl00_ContentPlaceHolder1_Details1_TabContainer1_SanctionsCompliance_SanctionsData\"]/tbody/tr[7]/td[3]",
      "Value": "Sanctioned Country port Call Last 3 m:\t"
    },
    {
      "Command": "comment",
      "Target": "xpath=//*[@id=\"ctl00_ContentPlaceHolder1_Details1_TabContainer1_SanctionsCompliance_SanctionsData\"]/tbody/tr[7]/td[4]",
      "Value": "OK"
    },
    {
      "Command": "comment",
      "Target": "xpath=//*[@id=\"ctl00_ContentPlaceHolder1_Details1_TabContainer1_SanctionsCompliance_SanctionsData\"]/tbody/tr[8]/td[3]",
      "Value": "Sanctioned Country port Call Last 6 m:\t"
    },
    {
      "Command": "comment",
      "Target": "xpath=//*[@id=\"ctl00_ContentPlaceHolder1_Details1_TabContainer1_SanctionsCompliance_SanctionsData\"]/tbody/tr[8]/td[4]",
      "Value": "OK"
    },
    {
      "Command": "comment",
      "Target": "xpath=//*[@id=\"ctl00_ContentPlaceHolder1_Details1_TabContainer1_SanctionsCompliance_SanctionsData\"]/tbody/tr[9]/td[3]",
      "Value": "Sanctioned Country Port Call Last 12 m:\t"
    },
    {
      "Command": "comment",
      "Target": "xpath=//*[@id=\"ctl00_ContentPlaceHolder1_Details1_TabContainer1_SanctionsCompliance_SanctionsData\"]/tbody/tr[9]/td[4]",
      "Value": "OK"
    },
    {
      "Command": "comment",
      "Target": "xpath=//*[@id=\"ctl00_ContentPlaceHolder1_Details1_TabContainer1_SanctionsCompliance_SanctionsData\"]/tbody/tr[2]/td[5]",
      "Value": "Owner in FATF high-risk or non cooperative Jurisdiction:\t"
    },
    {
      "Command": "comment",
      "Target": "xpath=//*[@id=\"ctl00_ContentPlaceHolder1_Details1_TabContainer1_SanctionsCompliance_SanctionsData\"]/tbody/tr[2]/td[6]",
      "Value": "OK"
    },
    {
      "Command": "comment",
      "Target": "xpath=//*[@id=\"ctl00_ContentPlaceHolder1_Details1_TabContainer1_SanctionsCompliance_SanctionsData\"]/tbody/tr[3]/td[5]",
      "Value": "Parent Company in FATF high-risk or non cooperative Jurisdiction:\t"
    },
    {
      "Command": "comment",
      "Target": "xpath=//*[@id=\"ctl00_ContentPlaceHolder1_Details1_TabContainer1_SanctionsCompliance_SanctionsData\"]/tbody/tr[3]/td[6]",
      "Value": "N/A"
    },
    {
      "Command": "comment",
      "Target": "xpath=//*[@id=\"ctl00_ContentPlaceHolder1_Details1_TabContainer1_SanctionsCompliance_SanctionsData\"]/tbody/tr[4]/td[5]",
      "Value": "Owner in OFAC Sanctioned Country:\t"
    },
    {
      "Command": "comment",
      "Target": "xpath=//*[@id=\"ctl00_ContentPlaceHolder1_Details1_TabContainer1_SanctionsCompliance_SanctionsData\"]/tbody/tr[4]/td[6]",
      "Value": "No"
    },
    {
      "Command": "comment",
      "Target": "xpath=//*[@id=\"ctl00_ContentPlaceHolder1_Details1_TabContainer1_SanctionsCompliance_SanctionsData\"]/tbody/tr[5]/td[5]",
      "Value": "Parent Company in OFAC Sanctioned Country:\t"
    },
    {
      "Command": "comment",
      "Target": "xpath=//*[@id=\"ctl00_ContentPlaceHolder1_Details1_TabContainer1_SanctionsCompliance_SanctionsData\"]/tbody/tr[5]/td[6]",
      "Value": "N/A"
    },
    {
      "Command": "comment",
      "Target": "xpath=//*[@id=\"ctl00_ContentPlaceHolder1_Details1_TabContainer1_SanctionsCompliance_SanctionsData\"]/tbody/tr[6]/td[1]",
      "Value": "Historical Owner in OFAC Sanctioned Country:\t"
    },
    {
      "Command": "comment",
      "Target": "xpath=//*[@id=\"ctl00_ContentPlaceHolder1_Details1_TabContainer1_SanctionsCompliance_SanctionsData\"]/tbody/tr[6]/td[2]",
      "Value": "No"
    },
    {
      "Command": "comment",
      "Target": "xpath=//*[@id=\"ctl00_ContentPlaceHolder1_Details1_TabContainer1_SanctionsCompliance_SanctionsData\"]/tbody/tr[8]/td[5]",
      "Value": "Annex4 Suspected STS Transfers with North Korea:\t"
    },
    {
      "Command": "comment",
      "Target": "xpath=//*[@id=\"ctl00_ContentPlaceHolder1_Details1_TabContainer1_SanctionsCompliance_SanctionsData\"]/tbody/tr[8]/td[6]",
      "Value": "No"
    },
    {
      "Command": "comment",
      "Target": "xpath=//*[@id=\"ctl00_ContentPlaceHolder1_Details1_TabContainer1_SanctionsCompliance_SanctionsData\"]/tbody/tr[9]/td[5]",
      "Value": "Annex5 Suspected Export of North Korean Coal:\t"
    },
    {
      "Command": "comment",
      "Target": "xpath=//*[@id=\"ctl00_ContentPlaceHolder1_Details1_TabContainer1_SanctionsCompliance_SanctionsData\"]/tbody/tr[9]/td[6]",
      "Value": "No"
    },
    {
      "Command": "comment",
      "Target": "xpath=//*[@id=\"ctl00_ContentPlaceHolder1_Details1_TabContainer1_SanctionsCompliance__No_Interest_Factor\"]",
      "Value": "No Data Available"
    },
    {
      "Command": "comment",
      "Target": "id=ctl00_ContentPlaceHolder1_Details1_TabContainer1_tpCrewNationality_CN1__Total_Crew_on_Vessel",
      "Value": "Total Crew on Vessel"
    },
    {
      "Command": "comment",
      "Target": "//fieldset/div/fieldset/table/tbody/tr/td[2]",
      "Value": "N/A"
    },
    {
      "Command": "comment",
      "Target": "id=ctl00_ContentPlaceHolder1_Details1_TabContainer1_tpCrewNationality_CN1__Effective_Date",
      "Value": "Effective Date"
    },
    {
      "Command": "comment",
      "Target": "//fieldset/div/fieldset/table/tbody/tr[2]/td[2]",
      "Value": "N/A"
    },
    {
      "Command": "comment",
      "Target": "id=ctl00_ContentPlaceHolder1_Details1_TabContainer1_tpCrewNationality_CN1__Total_Officers_on_Vessel",
      "Value": "Total Officers on Vessel"
    },
    {
      "Command": "comment",
      "Target": "//fieldset/div/fieldset/table/tbody/tr/td[4]",
      "Value": "N/A"
    },
    {
      "Command": "comment",
      "Target": "id=ctl00_ContentPlaceHolder1_Details1_TabContainer1_tpCrewNationality_CN1__Total_Non_Officers_on_Vessel",
      "Value": "Total Non Officers on Vessel"
    },
    {
      "Command": "comment",
      "Target": "//fieldset/div/fieldset/table/tbody/tr/td[6]",
      "Value": "N/A"
    },
    {
      "Command": "comment",
      "Target": "//table[2]/tbody/tr/td/div/table/tbody/tr/td",
      "Value": "No Data Available"
    },
    {
      "Command": "click",
      "Target": "//a[contains(text(),'Logout')]",
      "Value": ""
    },
    {
      "Command": "pause",
      "Target": "1000",
      "Value": ""
    }
  ]
}