{
  "Name": "_vqa_DV_V_03_verify details head",
  "CreationDate": "2020-4-3",
  "Commands": [
    {
      "Command": "open",
      "Target": "https://10.200.225.14/VSSQA",
      "Value": ""
    },
    {
      "Command": "pause",
      "Target": "2000",
      "Value": ""
    },
    {
      "Command": "type",
      "Target": "//td[2]/input",
      "Value": "QA_11"
    },
    {
      "Command": "type",
      "Target": "//tr[2]/td[2]/input",
      "Value": ".vss@2019"
    },
    {
      "Command": "click",
      "Target": "//tr[4]/td/input",
      "Value": "Log In"
    },
    {
      "Command": "pause",
      "Target": "6000",
      "Value": ""
    },
    {
      "Command": "mouseOver",
      "Target": "xpath=//*[@id=\"menubar\"]/ul/li[2]/a",
      "Value": "Data Viewers"
    },
    {
      "Command": "click",
      "Target": "link=Vessels",
      "Value": "Vessel"
    },
    {
      "Command": "pause",
      "Target": "4000",
      "Value": ""
    },
    {
      "Command": "selectWindow",
      "Target": "TAB=1",
      "Value": ""
    },
    {
      "Command": "verifyText",
      "Target": "//div[@id='Title']/span",
      "Value": "Vessel Data Viewer"
    },
    {
      "Command": "type",
      "Target": "//div[@id='ctl00_ContentPlaceHolder1_UpdatePanel2']/input",
      "Value": "1000124"
    },
    {
      "Command": "pause",
      "Target": "10000",
      "Value": ""
    },
    {
      "Command": "verifyText",
      "Target": "//a[contains(@href, '../Vessels/VesselDetails.aspx?imo=1000124&A_Src=_Vessel_Data_Viewer')]",
      "Value": "1000124"
    },
    {
      "Command": "click",
      "Target": "//a[contains(@href, '../Vessels/VesselDetails.aspx?imo=1000124&A_Src=_Vessel_Data_Viewer')]",
      "Value": "1000124"
    },
    {
      "Command": "pause",
      "Target": "8000",
      "Value": ""
    },
    {
      "Command": "selectWindow",
      "Target": "TAB=2",
      "Value": ""
    },
    {
      "Command": "verifyText",
      "Target": "id=ctl00_ContentPlaceHolder1_VesselNameDataLabel",
      "Value": "THIRTY LOVE"
    },
    {
      "Command": "verifyText",
      "Target": "//a[@id='__tab_ctl00_ContentPlaceHolder1_Details1_TabContainer1__Identifiers']/span",
      "Value": "Identifiers"
    },
    {
      "Command": "click",
      "Target": "//a[@id='__tab_ctl00_ContentPlaceHolder1_Details1_TabContainer1__Identifiers']/span",
      "Value": ""
    },
    {
      "Command": "pause",
      "Target": "2000",
      "Value": ""
    },
    {
      "Command": "verifyText",
      "Target": "//a[@id='__tab_ctl00_ContentPlaceHolder1_Details1_TabContainer1__Dimensions']/span",
      "Value": "Dimensions"
    },
    {
      "Command": "click",
      "Target": "//a[@id='__tab_ctl00_ContentPlaceHolder1_Details1_TabContainer1__Dimensions']/span",
      "Value": ""
    },
    {
      "Command": "pause",
      "Target": "2000",
      "Value": ""
    },
    {
      "Command": "verifyText",
      "Target": "//a[@id='__tab_ctl00_ContentPlaceHolder1_Details1_TabContainer1__Capacities']/span",
      "Value": "Capacities"
    },
    {
      "Command": "click",
      "Target": "//a[@id='__tab_ctl00_ContentPlaceHolder1_Details1_TabContainer1__Capacities']/span",
      "Value": ""
    },
    {
      "Command": "pause",
      "Target": "2000",
      "Value": ""
    },
    {
      "Command": "verifyText",
      "Target": "//a[@id='__tab_ctl00_ContentPlaceHolder1_Details1_TabContainer1_tpEntities']/span",
      "Value": "Entities"
    },
    {
      "Command": "click",
      "Target": "//a[@id='__tab_ctl00_ContentPlaceHolder1_Details1_TabContainer1_tpEntities']/span",
      "Value": ""
    },
    {
      "Command": "pause",
      "Target": "2000",
      "Value": ""
    },
    {
      "Command": "verifyText",
      "Target": "//a[@id='__tab_ctl00_ContentPlaceHolder1_Details1_TabContainer1__Engine_Details']/span",
      "Value": "Engine Details"
    },
    {
      "Command": "click",
      "Target": "//a[@id='__tab_ctl00_ContentPlaceHolder1_Details1_TabContainer1__Engine_Details']/span",
      "Value": ""
    },
    {
      "Command": "pause",
      "Target": "2000",
      "Value": ""
    },
    {
      "Command": "verifyText",
      "Target": "//a[@id='__tab_ctl00_ContentPlaceHolder1_Details1_TabContainer1__Construction']/span",
      "Value": "Construction"
    },
    {
      "Command": "click",
      "Target": "//a[@id='__tab_ctl00_ContentPlaceHolder1_Details1_TabContainer1__Construction']/span",
      "Value": ""
    },
    {
      "Command": "pause",
      "Target": "2000",
      "Value": ""
    },
    {
      "Command": "verifyText",
      "Target": "//a[@id='__tab_ctl00_ContentPlaceHolder1_Details1_TabContainer1_tpCrewNationality']/span",
      "Value": "Crew Nationality"
    },
    {
      "Command": "click",
      "Target": "//a[@id='__tab_ctl00_ContentPlaceHolder1_Details1_TabContainer1_tpCrewNationality']/span",
      "Value": ""
    },
    {
      "Command": "pause",
      "Target": "2000",
      "Value": ""
    },
    {
      "Command": "comment",
      "Target": "xpath=//span[8]/span/span/a",
      "Value": "Sanctions Compliance"
    },
    {
      "Command": "comment",
      "Target": "xpath=//span[8]/span/span/a",
      "Value": ""
    },
    {
      "Command": "pause",
      "Target": "2000",
      "Value": ""
    },
    {
      "Command": "verifyText",
      "Target": "linkText=Trading Zones",
      "Value": "Trading Zones"
    },
    {
      "Command": "click",
      "Target": "linkText=Trading Zones",
      "Value": "Trading Zones"
    },
    {
      "Command": "pause",
      "Target": "4000",
      "Value": ""
    },
    {
      "Command": "verifyText",
      "Target": "//a[@id='__tab_ctl00_ContentPlaceHolder1_Details1_TabContainer1_tpInvestigations']/span/span",
      "Value": "Data Investigations"
    },
    {
      "Command": "click",
      "Target": "//a[@id='__tab_ctl00_ContentPlaceHolder1_Details1_TabContainer1_tpInvestigations']/span/span",
      "Value": ""
    },
    {
      "Command": "pause",
      "Target": "2000",
      "Value": ""
    },
    {
      "Command": "comment",
      "Target": "linkText=Anomalies",
      "Value": "Anomalies"
    },
    {
      "Command": "comment",
      "Target": "linkText=Anomalies",
      "Value": "Anomalies"
    },
    {
      "Command": "pause",
      "Target": "2000",
      "Value": ""
    },
    {
      "Command": "comment",
      "Target": "linkText=Workflow",
      "Value": "Workflow"
    },
    {
      "Command": "click",
      "Target": "linkText=Workflow",
      "Value": "Workflow"
    },
    {
      "Command": "pause",
      "Target": "5000",
      "Value": ""
    },
    {
      "Command": "comment",
      "Target": "linkText=EPAIRS",
      "Value": "EPAIRS"
    },
    {
      "Command": "comment",
      "Target": "linkText=EPAIRS",
      "Value": "EPAIRS"
    },
    {
      "Command": "pause",
      "Target": "2000",
      "Value": ""
    },
    {
      "Command": "click",
      "Target": "//a",
      "Value": ""
    },
    {
      "Command": "pause",
      "Target": "4000",
      "Value": ""
    },
    {
      "Command": "selectWindow",
      "Target": "TAB=CLOSEALLOTHER",
      "Value": ""
    },
    {
      "Command": "refresh",
      "Target": "",
      "Value": ""
    }
  ]
}