{
  "Name": "_vqa_AS_01_Alert",
  "CreationDate": "2020-4-3",
  "Commands": [
    {
      "Command": "open",
      "Target": "https://10.200.225.14/VSSQA",
      "Value": ""
    },
    {
      "Command": "pause",
      "Target": "1000",
      "Value": ""
    },
    {
      "Command": "type",
      "Target": "//td[2]/input",
      "Value": "QA_11"
    },
    {
      "Command": "type",
      "Target": "//tr[2]/td[2]/input",
      "Value": ".vss@2019"
    },
    {
      "Command": "click",
      "Target": "//tr[4]/td/input",
      "Value": "Log In"
    },
    {
      "Command": "pause",
      "Target": "8000",
      "Value": ""
    },
    {
      "Command": "mouseOver",
      "Target": "//div/ul/li[5]/a",
      "Value": "Administration"
    },
    {
      "Command": "click",
      "Target": "//li[5]/ul/li/a",
      "Value": "Security"
    },
    {
      "Command": "verifyText",
      "Target": "//li[5]/ul/li/ul/li/a",
      "Value": "Administrator Settings"
    },
    {
      "Command": "click",
      "Target": "//li[5]/ul/li/ul/li/a",
      "Value": ""
    },
    {
      "Command": "pause",
      "Target": "3000",
      "Value": ""
    },
    {
      "Command": "selectWindow",
      "Target": "tab=1",
      "Value": ""
    },
    {
      "Command": "verifyText",
      "Target": "//div[3]/div/span",
      "Value": "Administrator Settings"
    },
    {
      "Command": "verifyText",
      "Target": "//span/a/span",
      "Value": "Alert"
    },
    {
      "Command": "verifyText",
      "Target": "//div[2]/div/div[2]/div/table/tbody/tr/td",
      "Value": "Alert E-mail Limit"
    },
    {
      "Command": "verifyValue",
      "Target": "id=ctl00_ContentPlaceHolder1_tc_tabAlert_AlertEmailLimit",
      "Value": "5"
    },
    {
      "Command": "verifyText",
      "Target": "//tr[2]/td",
      "Value": "Alert Extract Record Limit"
    },
    {
      "Command": "verifyValue",
      "Target": "id=ctl00_ContentPlaceHolder1_tc_tabAlert_AlertExtractVesselLimit",
      "Value": "1000"
    },
    {
      "Command": "verifyText",
      "Target": "//tr[3]/td",
      "Value": "Alert From Display Name"
    },
    {
      "Command": "verifyValue",
      "Target": "id=ctl00_ContentPlaceHolder1_tc_tabAlert_AlertReplyDisplay",
      "Value": "VSS QA Maritime Alert"
    },
    {
      "Command": "verifyText",
      "Target": "//tr[4]/td",
      "Value": "Alert From E-mail Address"
    },
    {
      "Command": "verifyValue",
      "Target": "id=ctl00_ContentPlaceHolder1_tc_tabAlert_AlertReplyEmail",
      "Value": "100admin@greenlinesystems.net"
    },
    {
      "Command": "comment",
      "Target": "id=ctl00_ContentPlaceHolder1_tc_tabAlert_AlertReplyEmail",
      "Value": "14admin@greenlinesystems.net"
    },
    {
      "Command": "verifyText",
      "Target": "//tr[5]/td",
      "Value": "Alert Report Record Limit"
    },
    {
      "Command": "verifyValue",
      "Target": "id=ctl00_ContentPlaceHolder1_tc_tabAlert_AlertReportVesselLimit",
      "Value": "25"
    },
    {
      "Command": "verifyText",
      "Target": "//tr[6]/td",
      "Value": "Alert Failed E-mail Address"
    },
    {
      "Command": "verifyValue",
      "Target": "id=ctl00_ContentPlaceHolder1_tc_tabAlert_AlertFailEmail",
      "Value": "alore@harriscomputer.com; jbarrett@harriscomputer.com"
    },
    {
      "Command": "comment",
      "Target": "id=ctl00_ContentPlaceHolder1_tc_tabAlert_AlertFailEmail",
      "Value": "alore@harriscomputer.com, jbarrett@harriscomputer.com"
    },
    {
      "Command": "verifyText",
      "Target": "//tr[7]/td",
      "Value": "Alert Vessel Limit"
    },
    {
      "Command": "verifyValue",
      "Target": "id=ctl00_ContentPlaceHolder1_tc_tabAlert_AlertVesselLimit",
      "Value": "10000"
    },
    {
      "Command": "comment",
      "Target": "id=ctl00_ContentPlaceHolder1_tc_tabAlert_AlertVesselLimit",
      "Value": "3000"
    },
    {
      "Command": "verifyText",
      "Target": "//*[@id=\"ctl00_ContentPlaceHolder1_tc_tabAlert_AlertTable\"]/tbody/tr[7]/td[3]",
      "Value": "(Minimum Value: 0, Maximum Value: 10000)"
    },
    {
      "Command": "verifyText",
      "Target": "//tr[8]/td",
      "Value": "Alternate Alert Link Heading"
    },
    {
      "Command": "verifyValue",
      "Target": "id=ctl00_ContentPlaceHolder1_tc_tabAlert_AlertLinkHeading",
      "Value": "Click to access VSS QA"
    },
    {
      "Command": "verifyText",
      "Target": "//tr[9]/td",
      "Value": "Embed URL link in Alerts"
    },
    {
      "Command": "verifyValue",
      "Target": "id=ctl00_ContentPlaceHolder1_tc_tabAlert_AlertEmbedURLLink",
      "Value": "on"
    },
    {
      "Command": "verifyText",
      "Target": "//tr[10]/td",
      "Value": "KML Vessel Limit"
    },
    {
      "Command": "verifyValue",
      "Target": "id=ctl00_ContentPlaceHolder1_tc_tabAlert_AlertKMLVesselLimit",
      "Value": "30"
    },
    {
      "Command": "verifyText",
      "Target": "//*[@id=\"ctl00_ContentPlaceHolder1_tc_tabAlert_AlertTable\"]/tbody/tr[10]/td[3]",
      "Value": "(Minimum Value: 1, Maximum Value: 50)"
    },
    {
      "Command": "verifyText",
      "Target": "//tr[11]/td",
      "Value": "Web URL"
    },
    {
      "Command": "verifyValue",
      "Target": "id=ctl00_ContentPlaceHolder1_tc_tabAlert_WebUrl",
      "Value": "https://10.200.225.14/vssqa"
    },
    {
      "Command": "click",
      "Target": "//a",
      "Value": ""
    },
    {
      "Command": "pause",
      "Target": "3000",
      "Value": ""
    },
    {
      "Command": "selectWindow",
      "Target": "TAB=CLOSEALLOTHER",
      "Value": ""
    },
    {
      "Command": "refresh",
      "Target": "",
      "Value": ""
    }
  ]
}