{
  "Name": "_vqa_MISC010B_ReportM_ReportCat_Update",
  "CreationDate": "2020-4-3",
  "Commands": [
    {
      "Command": "open",
      "Target": "https://10.200.225.14/VSSQA",
      "Value": ""
    },
    {
      "Command": "pause",
      "Target": "1000",
      "Value": ""
    },
    {
      "Command": "type",
      "Target": "//td[2]/input",
      "Value": "QA_11"
    },
    {
      "Command": "type",
      "Target": "//tr[2]/td[2]/input",
      "Value": ".vss@2019"
    },
    {
      "Command": "click",
      "Target": "//tr[4]/td/input",
      "Value": "Log In"
    },
    {
      "Command": "pause",
      "Target": "4000",
      "Value": ""
    },
    {
      "Command": "mouseOver",
      "Target": "//div/ul/li[5]/a",
      "Value": "Administration"
    },
    {
      "Command": "mouseOver",
      "Target": "//li[5]/ul/li/a",
      "Value": "Security"
    },
    {
      "Command": "verifyText",
      "Target": "//li[5]/ul/li/ul/li/a",
      "Value": "Administrator Settings"
    },
    {
      "Command": "click",
      "Target": "//li[5]/ul/li/ul/li/a",
      "Value": ""
    },
    {
      "Command": "pause",
      "Target": "2000",
      "Value": ""
    },
    {
      "Command": "selectWindow",
      "Target": "tab=1",
      "Value": ""
    },
    {
      "Command": "verifyText",
      "Target": "//div[3]/div/span",
      "Value": "Administrator Settings"
    },
    {
      "Command": "verifyText",
      "Target": "xpath=//*[@id=\"__tab_ctl00_ContentPlaceHolder1_tc_tabReportManager\"]/span",
      "Value": "Report Manager"
    },
    {
      "Command": "click",
      "Target": "xpath=//*[@id=\"__tab_ctl00_ContentPlaceHolder1_tc_tabReportManager\"]/span",
      "Value": ""
    },
    {
      "Command": "verifyText",
      "Target": "//div[2]/div/div/div/span",
      "Value": "Report Category"
    },
    {
      "Command": "type",
      "Target": "//td/table/tbody/tr/td/div/table/tbody/tr/td[2]/input",
      "Value": "_New_RC_save_As"
    },
    {
      "Command": "pause",
      "Target": "3000",
      "Value": ""
    },
    {
      "Command": "verifyText",
      "Target": "//*[@id=\"ctl00_ContentPlaceHolder1_tc_tabReportManager_tc1_tabReportCategory_ReportCategory_grid\"]/tbody/tr[1]/td[2]",
      "Value": "_New_RC_save_As"
    },
    {
      "Command": "click",
      "Target": "//*[@id=\"ctl00_ContentPlaceHolder1_tc_tabReportManager_tc1_tabReportCategory_ReportCategory_grid\"]/tbody/tr[1]/td[2]",
      "Value": ""
    },
    {
      "Command": "pause",
      "Target": "3000",
      "Value": ""
    },
    {
      "Command": "verifyValue",
      "Target": "//fieldset/div/div/div[2]/div/div/table/tbody/tr/td[2]/input",
      "Value": "_New_RC_save_As"
    },
    {
      "Command": "click",
      "Target": "//td/div/div[2]/div/table/tbody/tr/td[2]/table/tbody/tr/td/div/table/tbody/tr/td/div/table/tbody/tr/td[2]/input",
      "Value": "Edit"
    },
    {
      "Command": "pause",
      "Target": "3000",
      "Value": ""
    },
    {
      "Command": "type",
      "Target": "//fieldset/div/div/div[2]/div/div/table/tbody/tr/td[2]/input",
      "Value": "_New_RC_save_As_Updated"
    },
    {
      "Command": "click",
      "Target": "//td/div/div[2]/div/table/tbody/tr/td[2]/table/tbody/tr/td/div/table/tbody/tr/td/div/table/tbody/tr/td[3]/input",
      "Value": "Save"
    },
    {
      "Command": "pause",
      "Target": "3000",
      "Value": ""
    },
    {
      "Command": "verifyText",
      "Target": "//td/div/div[2]/div/table/tbody/tr/td/div/div/div/center/table/tbody/tr/td[2]/div/span",
      "Value": "Save Successful!"
    },
    {
      "Command": "click",
      "Target": "//td/div/div[2]/div/table/tbody/tr/td/div/div/div/center/div/input",
      "Value": "Ok"
    },
    {
      "Command": "click",
      "Target": "//a",
      "Value": ""
    },
    {
      "Command": "pause",
      "Target": "2000",
      "Value": ""
    },
    {
      "Command": "selectWindow",
      "Target": "TAB=CLOSEALLOTHER",
      "Value": ""
    }
  ]
}