{
  "Name": "_vqa_A_MU_18_re login with change password",
  "CreationDate": "2020-4-3",
  "Commands": [
    {
      "Command": "open",
      "Target": "https://10.200.225.14/VSSQA/Tools/UserSettings.aspx",
      "Value": ""
    },
    {
      "Command": "pause",
      "Target": "1000",
      "Value": ""
    },
    {
      "Command": "type",
      "Target": "//div[@id='loginbox']/div/table/tbody/tr/td[2]/input",
      "Value": "00_Script_User_B"
    },
    {
      "Command": "type",
      "Target": "//div[@id='loginbox']/div/table/tbody/tr[2]/td[2]/input",
      "Value": ".vss@2019updated"
    },
    {
      "Command": "click",
      "Target": "//tr[4]/td/input",
      "Value": "Log In"
    },
    {
      "Command": "pause",
      "Target": "6000",
      "Value": ""
    },
    {
      "Command": "verifyText",
      "Target": "id=ctl00_ContentPlaceHolder1_UserNameLabel",
      "Value": "00_Script_User_B"
    },
    {
      "Command": "click",
      "Target": "//a[contains(text(),'Logout')]",
      "Value": ""
    },
    {
      "Command": "pause",
      "Target": "2000",
      "Value": ""
    },
    {
      "Command": "selectWindow",
      "Target": "TAB=CLOSEALLOTHER",
      "Value": ""
    },
    {
      "Command": "refresh",
      "Target": "",
      "Value": ""
    }
  ]
}