{
  "Name": "_vqa_ES_03_save as extract settings",
  "CreationDate": "2020-4-3",
  "Commands": [
    {
      "Command": "open",
      "Target": "https://10.200.225.14/VSSQA/",
      "Value": ""
    },
    {
      "Command": "type",
      "Target": "//td[2]/input",
      "Value": "QA_11"
    },
    {
      "Command": "type",
      "Target": "//tr[2]/td[2]/input",
      "Value": ".vss@2019"
    },
    {
      "Command": "click",
      "Target": "//tr[4]/td/input",
      "Value": "Log In"
    },
    {
      "Command": "pause",
      "Target": "6000",
      "Value": ""
    },
    {
      "Command": "click",
      "Target": "//div/ul/li[6]/a",
      "Value": "Tools"
    },
    {
      "Command": "click",
      "Target": "link=Extract Settings",
      "Value": "Extract Settings"
    },
    {
      "Command": "pause",
      "Target": "4000",
      "Value": ""
    },
    {
      "Command": "selectWindow",
      "Target": "TAB=1",
      "Value": ""
    },
    {
      "Command": "verifyText",
      "Target": "//*[text()[contains(.,'*New_shipment_csv')]]",
      "Value": "*New_shipment_csv"
    },
    {
      "Command": "click",
      "Target": "//*[text()[contains(.,'*New_shipment_csv')]]",
      "Value": "*New_shipment_csv"
    },
    {
      "Command": "pause",
      "Target": "3000",
      "Value": ""
    },
    {
      "Command": "verifyElementPresent",
      "Target": "id=ctl00_ContentPlaceHolder1_tc_tabDetails_txtExtractName",
      "Value": "*New_shipment_csv"
    },
    {
      "Command": "click",
      "Target": "//td[5]/input",
      "Value": "Save As"
    },
    {
      "Command": "pause",
      "Target": "4000",
      "Value": ""
    },
    {
      "Command": "verifyElementPresent",
      "Target": "//div[4]/div/div/center/table/tbody/tr/td[2]/div/span",
      "Value": "Save Successful!Selected fields do not exceed: 12Data Extracts will be limited to a maximum number of rows: 2500"
    },
    {
      "Command": "click",
      "Target": "//div[4]/div/div/center/div/input",
      "Value": "Ok"
    },
    {
      "Command": "pause",
      "Target": "1000",
      "Value": ""
    },
    {
      "Command": "click",
      "Target": "//a",
      "Value": ""
    },
    {
      "Command": "pause",
      "Target": "4000",
      "Value": ""
    },
    {
      "Command": "selectWindow",
      "Target": "TAB=CLOSEALLOTHER",
      "Value": ""
    },
    {
      "Command": "refresh",
      "Target": "",
      "Value": ""
    }
  ]
}