{
  "Name": "_vqa_TAM_VM_07_complete_vm",
  "CreationDate": "2020-4-3",
  "Commands": [
    {
      "Command": "open",
      "Target": "https://10.200.225.14/VSSQA/",
      "Value": ""
    },
    {
      "Command": "type",
      "Target": "//td[2]/input",
      "Value": "QA_11"
    },
    {
      "Command": "type",
      "Target": "//tr[2]/td[2]/input",
      "Value": ".vss@2019"
    },
    {
      "Command": "click",
      "Target": "//tr[4]/td/input",
      "Value": "Log In"
    },
    {
      "Command": "pause",
      "Target": "6000",
      "Value": ""
    },
    {
      "Command": "mouseOver",
      "Target": "//div[@id='menubar']/ul/li[6]/a",
      "Value": "Tools"
    },
    {
      "Command": "mouseOver",
      "Target": "xpath=//*[@id=\"menubar\"]/ul/li[6]/ul/li[3]/a",
      "Value": "Asset Managment"
    },
    {
      "Command": "click",
      "Target": "link=VID Manager",
      "Value": ""
    },
    {
      "Command": "pause",
      "Target": "6000",
      "Value": ""
    },
    {
      "Command": "selectWindow",
      "Target": "tab=1",
      "Value": ""
    },
    {
      "Command": "click",
      "Target": "css=img.HeaderImage",
      "Value": ""
    },
    {
      "Command": "pause",
      "Target": "1000",
      "Value": ""
    },
    {
      "Command": "click",
      "Target": "//fieldset[@id='fieldset_body_detail']/table[3]/tbody/tr/td/table/tbody/tr/td[2]/input",
      "Value": ""
    },
    {
      "Command": "type",
      "Target": "//fieldset[@id='fieldset_body_detail']/table[3]/tbody/tr/td/table/tbody/tr/td[2]/input",
      "Value": "TOURCOING"
    },
    {
      "Command": "click",
      "Target": "//fieldset[@id='fieldset_body_detail']/table[3]/tbody/tr/td/table/tbody/tr[4]/td/input",
      "Value": "Find Vessel"
    },
    {
      "Command": "pause",
      "Target": "2000",
      "Value": ""
    },
    {
      "Command": "verifyText",
      "Target": "//td[3]/table/tbody/tr/td/span",
      "Value": "TOURCOING"
    },
    {
      "Command": "click",
      "Target": "//div/table/tbody/tr[2]/td/input",
      "Value": ""
    },
    {
      "Command": "click",
      "Target": "//fieldset[@id='fieldset_body_detail']/table[3]/tbody/tr[2]/td[2]/input",
      "Value": "Select Vessel"
    },
    {
      "Command": "pause",
      "Target": "1000",
      "Value": ""
    },
    {
      "Command": "type",
      "Target": "//fieldset[@id='fieldset_body_detail']/table[2]/tbody/tr/td/fieldset/table/tbody/tr[3]/td[2]/table/tbody/tr/td/input",
      "Value": "10"
    },
    {
      "Command": "type",
      "Target": "//*[@id=\"fieldset_body_detail\"]/table[2]/tbody/tr/td[1]/fieldset/table/tbody/tr[3]/td[2]/table/tbody/tr[2]/td[2]/input",
      "Value": "11"
    },
    {
      "Command": "type",
      "Target": "//*[@id=\"fieldset_body_detail\"]/table[2]/tbody/tr/td[1]/fieldset/table/tbody/tr[3]/td[2]/table/tbody/tr[2]/td[3]/input",
      "Value": "12"
    },
    {
      "Command": "select",
      "Target": "//*[@id=\"fieldset_body_detail\"]/table[2]/tbody/tr/td[1]/fieldset/table/tbody/tr[3]/td[2]/table/tbody/tr[2]/td[4]/select",
      "Value": "label=N"
    },
    {
      "Command": "type",
      "Target": "//fieldset[@id='fieldset_body_detail']/table[2]/tbody/tr/td/fieldset/table/tbody/tr[4]/td[2]/table/tbody/tr/td/input",
      "Value": "20"
    },
    {
      "Command": "type",
      "Target": "//*[@id=\"fieldset_body_detail\"]/table[2]/tbody/tr/td[1]/fieldset/table/tbody/tr[4]/td[2]/table/tbody/tr[2]/td[2]/input",
      "Value": "21"
    },
    {
      "Command": "type",
      "Target": "//*[@id=\"fieldset_body_detail\"]/table[2]/tbody/tr/td[1]/fieldset/table/tbody/tr[4]/td[2]/table/tbody/tr[2]/td[3]/input",
      "Value": "22"
    },
    {
      "Command": "select",
      "Target": "//*[@id=\"fieldset_body_detail\"]/table[2]/tbody/tr/td[1]/fieldset/table/tbody/tr[4]/td[2]/table/tbody/tr[2]/td[4]/select",
      "Value": "label=E"
    },
    {
      "Command": "type",
      "Target": "//fieldset[@id='fieldset_body_detail']/table[2]/tbody/tr/td/fieldset/table/tbody/tr[5]/td[2]/input",
      "Value": "30"
    },
    {
      "Command": "type",
      "Target": "//fieldset[@id='fieldset_body_detail']/table[2]/tbody/tr/td/fieldset/table/tbody/tr[6]/td[2]/input",
      "Value": "40"
    },
    {
      "Command": "click",
      "Target": "//img[@title='Save']",
      "Value": "Save"
    },
    {
      "Command": "pause",
      "Target": "1000",
      "Value": ""
    },
    {
      "Command": "verifyText",
      "Target": "//div[@id='MessagePanel']/div/center/table/tbody/tr/td[2]/div/span",
      "Value": "Save Successful!"
    },
    {
      "Command": "click",
      "Target": "id=btnOkPopup",
      "Value": "Ok"
    },
    {
      "Command": "pause",
      "Target": "1000",
      "Value": ""
    },
    {
      "Command": "click",
      "Target": "//img[@title='Close']",
      "Value": "Close"
    },
    {
      "Command": "refresh",
      "Target": "",
      "Value": ""
    },
    {
      "Command": "pause",
      "Target": "1000",
      "Value": ""
    },
    {
      "Command": "type",
      "Target": "//div[@id='panelListSearch']/fieldset/table/tbody/tr/td[2]/div/input",
      "Value": "TOURCOING"
    },
    {
      "Command": "pause",
      "Target": "1000",
      "Value": ""
    },
    {
      "Command": "click",
      "Target": "id=fieldset_IMO-7705946",
      "Value": "7705946"
    },
    {
      "Command": "pause",
      "Target": "1000",
      "Value": ""
    },
    {
      "Command": "verifyText",
      "Target": "//fieldset[@id='fieldset_body_detail']/table/tbody/tr/td/table/tbody/tr/td/table/tbody/tr/td[2]/div",
      "Value": "TOURCOING"
    },
    {
      "Command": "click",
      "Target": "//div[@id='div_grid_IMO-7705946']/table/tbody/tr[2]/td[8]/div/img",
      "Value": ""
    },
    {
      "Command": "pause",
      "Target": "2000",
      "Value": ""
    },
    {
      "Command": "type",
      "Target": "//fieldset[@id='fieldset_body_detail']/table[2]/tbody/tr/td/fieldset/table/tbody/tr[3]/td[2]/table/tbody/tr/td/input",
      "Value": "11"
    },
    {
      "Command": "type",
      "Target": "//fieldset[@id='fieldset_body_detail']/table[2]/tbody/tr/td/fieldset/table/tbody/tr[4]/td[2]/table/tbody/tr/td/input",
      "Value": "12"
    },
    {
      "Command": "type",
      "Target": "//fieldset[@id='fieldset_body_detail']/table[2]/tbody/tr/td/fieldset/table/tbody/tr[5]/td[2]/input",
      "Value": "13"
    },
    {
      "Command": "type",
      "Target": "//fieldset[@id='fieldset_body_detail']/table[2]/tbody/tr/td/fieldset/table/tbody/tr[6]/td[2]/input",
      "Value": "14"
    },
    {
      "Command": "click",
      "Target": "//fieldset[@id='fieldset_body_detail']/legend/div/table/tbody/tr/td/img",
      "Value": "Save"
    },
    {
      "Command": "pause",
      "Target": "4000",
      "Value": ""
    },
    {
      "Command": "verifyText",
      "Target": "id=lblMsg",
      "Value": "Save Successful!"
    },
    {
      "Command": "click",
      "Target": "id=btnOkPopup",
      "Value": "Ok"
    },
    {
      "Command": "refresh",
      "Target": "",
      "Value": ""
    },
    {
      "Command": "pause",
      "Target": "2000",
      "Value": ""
    },
    {
      "Command": "type",
      "Target": "//div[@id='panelListSearch']/fieldset/table/tbody/tr/td[2]/div/input",
      "Value": "TOURCOING"
    },
    {
      "Command": "pause",
      "Target": "1000",
      "Value": ""
    },
    {
      "Command": "click",
      "Target": "id=fieldset_IMO-7705946",
      "Value": "7705946"
    },
    {
      "Command": "pause",
      "Target": "1000",
      "Value": ""
    },
    {
      "Command": "verifyText",
      "Target": "//fieldset[@id='fieldset_body_detail']/table/tbody/tr/td/table/tbody/tr/td/table/tbody/tr/td[2]/div",
      "Value": "TOURCOING"
    },
    {
      "Command": "click",
      "Target": "//div[@id='div_grid_IMO-7705946']/table/tbody/tr[2]/td[9]/div/img",
      "Value": "Delete"
    },
    {
      "Command": "pause",
      "Target": "1000",
      "Value": ""
    },
    {
      "Command": "verifyText",
      "Target": "//div[@id='MessagePanel']/div/center/table/tbody/tr/td[2]/div",
      "Value": "Are you sure that you want to permanently delete this VID Report?"
    },
    {
      "Command": "click",
      "Target": "//div[2]/div/div/center/div/input",
      "Value": "Yes"
    },
    {
      "Command": "pause",
      "Target": "1000",
      "Value": ""
    },
    {
      "Command": "verifyText",
      "Target": "//div[@id='MessagePanel']/div/center/table/tbody/tr/td[2]/div/span",
      "Value": "Delete Successful!"
    },
    {
      "Command": "click",
      "Target": "xpath=(//div[@id='MessagePanel']/div/center/div/input[2])[2]",
      "Value": "Ok"
    },
    {
      "Command": "pause",
      "Target": "1000",
      "Value": ""
    },
    {
      "Command": "click",
      "Target": "//a[contains(@href, \"javascript:__doPostBack('ctl00$LoginStatus2$LoginStatus1$ctl00','')\")]",
      "Value": ""
    },
    {
      "Command": "pause",
      "Target": "2000",
      "Value": ""
    },
    {
      "Command": "selectWindow",
      "Target": "TAB=CLOSEALLOTHER",
      "Value": ""
    }
  ]
}