{
  "Name": "_vqa_TAM_VM_03_search by imo",
  "CreationDate": "2020-4-3",
  "Commands": [
    {
      "Command": "open",
      "Target": "https://10.200.225.14/VSSQA/",
      "Value": ""
    },
    {
      "Command": "pause",
      "Target": "1000",
      "Value": ""
    },
    {
      "Command": "type",
      "Target": "//td[2]/input",
      "Value": "QA_11"
    },
    {
      "Command": "type",
      "Target": "//tr[2]/td[2]/input",
      "Value": ".vss@2019"
    },
    {
      "Command": "click",
      "Target": "//tr[4]/td/input",
      "Value": "Log In"
    },
    {
      "Command": "pause",
      "Target": "6000",
      "Value": ""
    },
    {
      "Command": "mouseOver",
      "Target": "//div[@id='menubar']/ul/li[6]/a",
      "Value": "Tools"
    },
    {
      "Command": "mouseOver",
      "Target": "xpath=//*[@id=\"menubar\"]/ul/li[6]/ul/li[3]/a",
      "Value": "Asset Managment"
    },
    {
      "Command": "click",
      "Target": "link=VID Manager",
      "Value": ""
    },
    {
      "Command": "pause",
      "Target": "6000",
      "Value": ""
    },
    {
      "Command": "selectWindow",
      "Target": "tab=1",
      "Value": ""
    },
    {
      "Command": "click",
      "Target": "//*[@id=\"tabContainer1_body\"]/div/img",
      "Value": "Create New Report"
    },
    {
      "Command": "type",
      "Target": "//fieldset[@id='fieldset_body_detail']/table[3]/tbody/tr/td/table/tbody/tr[2]/td[2]/input",
      "Value": "8805767"
    },
    {
      "Command": "click",
      "Target": "//fieldset[@id='fieldset_body_detail']/table[3]/tbody/tr/td/table/tbody/tr[4]/td/input",
      "Value": "Find Vessel"
    },
    {
      "Command": "pause",
      "Target": "3000",
      "Value": ""
    },
    {
      "Command": "verifyText",
      "Target": "//td[2]/table/tbody/tr/td/span",
      "Value": "8805767"
    },
    {
      "Command": "click",
      "Target": "//a[contains(@href, \"javascript:__doPostBack('ctl00$LoginStatus2$LoginStatus1$ctl00','')\")]",
      "Value": ""
    },
    {
      "Command": "pause",
      "Target": "2000",
      "Value": ""
    },
    {
      "Command": "selectWindow",
      "Target": "TAB=CLOSEALLOTHER",
      "Value": ""
    }
  ]
}