{
  "Name": "_vqa_RA_RRL_11_Delete RRL ",
  "CreationDate": "2020-4-3",
  "Commands": [
    {
      "Command": "open",
      "Target": "https://10.200.225.14/VSSQA",
      "Value": ""
    },
    {
      "Command": "pause",
      "Target": "1000",
      "Value": ""
    },
    {
      "Command": "type",
      "Target": "//td[2]/input",
      "Value": "QA_11"
    },
    {
      "Command": "type",
      "Target": "//tr[2]/td[2]/input",
      "Value": ".vss@2019"
    },
    {
      "Command": "click",
      "Target": "//tr[4]/td/input",
      "Value": "Log In"
    },
    {
      "Command": "pause",
      "Target": "4000",
      "Value": ""
    },
    {
      "Command": "mouseOver",
      "Target": "//div/ul/li[4]/a",
      "Value": "Risk Assessment"
    },
    {
      "Command": "click",
      "Target": "link=Manage Risk Reference Lists",
      "Value": "Manage Risk Reference Lists"
    },
    {
      "Command": "pause",
      "Target": "3000",
      "Value": ""
    },
    {
      "Command": "selectWindow",
      "Target": "TAB=1",
      "Value": ""
    },
    {
      "Command": "verifyText",
      "Target": "id=ctl00_ContentPlaceHolder1__Berth_Details",
      "Value": "Risk Reference Lists"
    },
    {
      "Command": "type",
      "Target": "id=ctl00_ContentPlaceHolder1_txtListName",
      "Value": "z_TITLE_RRL"
    },
    {
      "Command": "pause",
      "Target": "2000",
      "Value": ""
    },
    {
      "Command": "verifyText",
      "Target": "xpath=(//td[text()[contains(.,'z_TITLE_RRL')]])",
      "Value": "z_TITLE_RRL"
    },
    {
      "Command": "click",
      "Target": "xpath=(//td[text()[contains(.,'z_TITLE_RRL')]])",
      "Value": "z_TITLE_RRL"
    },
    {
      "Command": "pause",
      "Target": "2000",
      "Value": ""
    },
    {
      "Command": "verifyValue",
      "Target": "id=ctl00_ContentPlaceHolder1_txtListName2",
      "Value": "z_TITLE_RRL"
    },
    {
      "Command": "verifyValue",
      "Target": "id=ctl00_ContentPlaceHolder1_txtDescription2",
      "Value": "z_DESCRIPTION RRL"
    },
    {
      "Command": "click",
      "Target": "id=ctl00_ContentPlaceHolder1_actionMenu_btnDelete",
      "Value": "Delete"
    },
    {
      "Command": "pause",
      "Target": "3000",
      "Value": ""
    },
    {
      "Command": "verifyElementPresent",
      "Target": "//div[2]/div[2]/div/center/table/tbody/tr/td[2]/span",
      "Value": "Are you sure you want to delete?   [_TITLE_RRL_updated]"
    },
    {
      "Command": "click",
      "Target": "id=ctl00_ContentPlaceHolder1_DialogBoxDelete_MessageOK",
      "Value": "Yes"
    },
    {
      "Command": "pause",
      "Target": "6000",
      "Value": ""
    },
    {
      "Command": "verifyText",
      "Target": "id=ctl00_ContentPlaceHolder1_MessageBox1_lblMessage",
      "Value": "Delete Successful!"
    },
    {
      "Command": "click",
      "Target": "id=ctl00_ContentPlaceHolder1_MessageBox1_MessageOK",
      "Value": "Ok"
    },
    {
      "Command": "click",
      "Target": "//a",
      "Value": ""
    },
    {
      "Command": "pause",
      "Target": "2000",
      "Value": ""
    },
    {
      "Command": "selectWindow",
      "Target": "TAB=CLOSEALLOTHER",
      "Value": ""
    },
    {
      "Command": "refresh",
      "Target": "",
      "Value": ""
    }
  ]
}