{
  "Name": "_vqa_DV_C_02_open company more info",
  "CreationDate": "2020-4-3",
  "Commands": [
    {
      "Command": "open",
      "Target": "https://10.200.225.14/VSSQA",
      "Value": ""
    },
    {
      "Command": "pause",
      "Target": "1000",
      "Value": ""
    },
    {
      "Command": "type",
      "Target": "//td[2]/input",
      "Value": "QA_11"
    },
    {
      "Command": "type",
      "Target": "//tr[2]/td[2]/input",
      "Value": ".vss@2019"
    },
    {
      "Command": "click",
      "Target": "//tr[4]/td/input",
      "Value": "Log In"
    },
    {
      "Command": "pause",
      "Target": "6000",
      "Value": ""
    },
    {
      "Command": "mouseOver",
      "Target": "xpath=//*[@id=\"menubar\"]/ul/li[2]/a",
      "Value": "Data Viewers"
    },
    {
      "Command": "click",
      "Target": "link=Companies",
      "Value": "Companies"
    },
    {
      "Command": "pause",
      "Target": "4000",
      "Value": ""
    },
    {
      "Command": "selectWindow",
      "Target": "TAB=1",
      "Value": ""
    },
    {
      "Command": "type",
      "Target": "//div[@id='ctl00_ContentPlaceHolder1_UpdatePanel2']/input",
      "Value": "DELTA QUEEN STEAMBOAT CO INC"
    },
    {
      "Command": "pause",
      "Target": "1000",
      "Value": ""
    },
    {
      "Command": "verifyText",
      "Target": "//a[contains(@href, '../Vessels/MoreInfo.aspx?id=0801566&type=s&A_Src=_Company_Data_Viewer')]",
      "Value": "DELTA QUEEN STEAMBOAT CO INC"
    },
    {
      "Command": "click",
      "Target": "//a[contains(@href, '../Vessels/MoreInfo.aspx?id=0801566&type=s&A_Src=_Company_Data_Viewer')]",
      "Value": "DELTA QUEEN STEAMBOAT CO INC"
    },
    {
      "Command": "pause",
      "Target": "4000",
      "Value": ""
    },
    {
      "Command": "selectWindow",
      "Target": "TAB=2",
      "Value": ""
    },
    {
      "Command": "verifyText",
      "Target": "//div[@id='ctl00_ContentPlaceHolder1_panelVParty']/table/tbody/tr/td/fieldset/legend/span[2]",
      "Value": "DELTA QUEEN STEAMBOAT CO INC"
    },
    {
      "Command": "verifyText",
      "Target": "id=ctl00_ContentPlaceHolder1_repeaterPartyData_ctl01_lblLink",
      "Value": "AMBASSADORS INTERNATIONAL INC"
    },
    {
      "Command": "click",
      "Target": "id=ctl00_ContentPlaceHolder1_repeaterPartyData_ctl01_lblLink",
      "Value": "AMBASSADORS INTERNATIONAL INC"
    },
    {
      "Command": "pause",
      "Target": "4000",
      "Value": ""
    },
    {
      "Command": "verifyText",
      "Target": "id=ctl00_ContentPlaceHolder1_lblShortName",
      "Value": "DELTA QUEEN STEAMBOAT CO INC"
    },
    {
      "Command": "selectWindow",
      "Target": "TAB=2",
      "Value": ""
    },
    {
      "Command": "verifyText",
      "Target": "linkText=www.deltaqueen.com",
      "Value": "www.deltaqueen.com"
    },
    {
      "Command": "click",
      "Target": "linkText=www.deltaqueen.com",
      "Value": "www.deltaqueen.com"
    },
    {
      "Command": "pause",
      "Target": "11000",
      "Value": ""
    },
    {
      "Command": "selectWindow",
      "Target": "TAB=2",
      "Value": ""
    },
    {
      "Command": "verifyText",
      "Target": "id=ctl00_ContentPlaceHolder1_Label2",
      "Value": "Additional Information"
    },
    {
      "Command": "verifyElementPresent",
      "Target": "/html/body/form/div[3]/div[3]/div[3]/table/tbody/tr[3]/td/fieldset/legend",
      "Value": "Company Documents"
    },
    {
      "Command": "click",
      "Target": "linkText=Name",
      "Value": ""
    },
    {
      "Command": "pause",
      "Target": "2000",
      "Value": ""
    },
    {
      "Command": "click",
      "Target": "linkText=Position",
      "Value": ""
    },
    {
      "Command": "pause",
      "Target": "2000",
      "Value": ""
    },
    {
      "Command": "verifyText",
      "Target": "xpath=//*[@id=\"__tab_ctl00_ContentPlaceHolder1_TabContainer1_tpCasualties\"]/span",
      "Value": "Casualties"
    },
    {
      "Command": "click",
      "Target": "xpath=//*[@id=\"__tab_ctl00_ContentPlaceHolder1_TabContainer1_tpCasualties\"]/span",
      "Value": "Casualties"
    },
    {
      "Command": "pause",
      "Target": "2000",
      "Value": ""
    },
    {
      "Command": "verifyText",
      "Target": "linkText=Port Inspections",
      "Value": "Port Inspections"
    },
    {
      "Command": "click",
      "Target": "linkText=Port Inspections",
      "Value": "Port Inspections"
    },
    {
      "Command": "pause",
      "Target": "2000",
      "Value": ""
    },
    {
      "Command": "verifyText",
      "Target": "linkText=Related Companies",
      "Value": "Related Companies"
    },
    {
      "Command": "click",
      "Target": "linkText=Related Companies",
      "Value": "Related Companies"
    },
    {
      "Command": "pause",
      "Target": "2000",
      "Value": ""
    },
    {
      "Command": "verifyText",
      "Target": "link=Manage Documents",
      "Value": "Manage Documents"
    },
    {
      "Command": "click",
      "Target": "//a",
      "Value": ""
    },
    {
      "Command": "pause",
      "Target": "2000",
      "Value": ""
    },
    {
      "Command": "selectWindow",
      "Target": "TAB=CLOSEALLOTHER",
      "Value": ""
    }
  ]
}