{
  "Name": "_vqa_RA_RAM_1 open RAM",
  "CreationDate": "2020-4-3",
  "Commands": [
    {
      "Command": "open",
      "Target": "https://10.200.225.14/VSSQA",
      "Value": ""
    },
    {
      "Command": "pause",
      "Target": "1000",
      "Value": ""
    },
    {
      "Command": "type",
      "Target": "//td[2]/input",
      "Value": "QA_11"
    },
    {
      "Command": "type",
      "Target": "//tr[2]/td[2]/input",
      "Value": ".vss@2019"
    },
    {
      "Command": "click",
      "Target": "//tr[4]/td/input",
      "Value": "Log In"
    },
    {
      "Command": "pause",
      "Target": "4000",
      "Value": ""
    },
    {
      "Command": "mouseOver",
      "Target": "//div/ul/li[4]/a",
      "Value": "Risk Assessment"
    },
    {
      "Command": "click",
      "Target": "//li[4]/ul/li/a",
      "Value": "Manage Risk Assessment Models"
    },
    {
      "Command": "pause",
      "Target": "6000",
      "Value": ""
    },
    {
      "Command": "selectWindow",
      "Target": "TAB=1",
      "Value": ""
    },
    {
      "Command": "click",
      "Target": "//span/img",
      "Value": "New"
    },
    {
      "Command": "pause",
      "Target": "1000",
      "Value": ""
    },
    {
      "Command": "verifyText",
      "Target": "//li/div/span",
      "Value": "Manage Risk Categories"
    },
    {
      "Command": "verifyText",
      "Target": "//li/div/span[2]",
      "Value": "Manage Interest Factors"
    },
    {
      "Command": "verifyText",
      "Target": "//li/div/span[3]",
      "Value": "Manage Rules"
    },
    {
      "Command": "click",
      "Target": "//a",
      "Value": ""
    },
    {
      "Command": "pause",
      "Target": "3000",
      "Value": ""
    },
    {
      "Command": "selectWindow",
      "Target": "TAB=CLOSEALLOTHER",
      "Value": ""
    }
  ]
}